Div,Date,HomeTeam,AwayTeam,FTHG,FTAG,FTR,HTHG,HTAG,HTR,B365H,B365D,B365A,BWH,BWD,BWA,IWH,IWD,IWA,LBH,LBD,LBA,PSH,PSD,PSA,WHH,WHD,WHA,VCH,VCD,VCA,Bb1X2,BbMxH,BbAvH,BbMxD,BbAvD,BbMxA,BbAvA,BbOU,BbMx>2.5,BbAv>2.5,BbMx<2.5,BbAv<2.5,BbAH,BbAHh,BbMxAHH,BbAvAHH,BbMxAHA,BbAvAHA
D2,24/07/15,Duisburg,Kaiserslautern,1,3,A,0,3,A,3.1,3.2,2.3,3,3.2,2.3,2.75,3.3,2.4,3.1,3.25,2.2,3.31,3.31,2.38,3.1,3.1,2.25,3.2,3.3,2.38,37,3.4,3.13,3.3,3.18,2.43,2.3,34,2.38,2.23,1.7,1.62,22,0.25,1.88,1.83,2.06,1.98
D2,25/07/15,Frankfurt FSV,RB Leipzig,0,1,A,0,0,D,4,3.6,1.85,3.75,3.5,1.9,3.8,3.45,1.9,4,3.4,1.85,4.12,3.51,1.99,3.75,3.4,1.91,3.9,3.6,1.95,35,4.2,3.86,3.6,3.4,1.99,1.92,33,2.14,2.03,1.81,1.75,22,0.5,1.95,1.89,1.99,1.93
D2,25/07/15,Greuther Furth,Karlsruhe,1,0,H,0,0,D,2.6,3.2,2.75,2.6,3.1,2.7,2.6,3.2,2.6,2.5,3.2,2.7,2.68,3.25,2.87,2.5,3,2.8,2.63,3.25,2.88,38,2.7,2.57,3.3,3.12,2.88,2.72,32,2.3,2.21,1.68,1.63,25,0,1.91,1.84,2.05,1.95
D2,25/07/15,St Pauli,Bielefeld,0,0,D,0,0,D,2.25,3.4,3.1,2.3,3.2,3,2.1,3.3,3.3,2.05,3.25,3.4,2.3,3.41,3.31,2.15,3.25,3.2,2.3,3.4,3.25,35,2.3,2.2,3.41,3.29,3.4,3.15,33,2.06,2,1.86,1.78,21,-0.25,1.99,1.92,1.96,1.9
D2,26/07/15,Braunschweig,Sandhausen,1,3,A,1,2,A,1.8,3.5,4.5,1.8,3.6,4,1.7,3.6,4.7,1.8,3.4,4.33,1.82,3.66,4.8,1.8,3.3,4.33,1.8,3.6,4.75,36,1.82,1.77,3.7,3.46,4.8,4.49,34,2.2,2.07,1.79,1.73,24,-0.5,1.84,1.78,2.12,2.05
D2,26/07/15,Heidenheim,Munich 1860,1,0,H,0,0,D,2.05,3.3,3.6,2.05,3.4,3.4,2,3.3,3.6,2.05,3.25,3.5,2.06,3.46,3.91,2,3.2,3.6,2.05,3.4,3.9,34,2.1,2.01,3.5,3.3,3.91,3.66,31,2.23,2.13,1.74,1.68,22,-0.5,2.06,2.01,1.88,1.83
D2,26/07/15,Paderborn,Bochum,0,1,A,0,0,D,2.15,3.3,3.4,2.15,3.2,3.3,2,3.3,3.6,2,3.3,3.6,2.13,3.47,3.68,2.15,3.1,3.3,2.15,3.4,3.6,37,2.2,2.08,3.5,3.31,3.75,3.43,36,2.15,2.01,1.88,1.77,23,-0.25,1.87,1.82,2.1,2.01
D2,26/07/15,Union Berlin,Fortuna Dusseldorf,1,1,D,1,0,H,2.25,3.2,3.25,2.35,3.2,2.9,2.3,3.3,2.9,2.38,3.2,2.88,2.34,3.33,3.32,2.25,3.2,3,2.3,3.3,3.3,34,2.4,2.28,3.33,3.2,3.32,3.1,32,2.22,2.13,1.74,1.68,21,0,1.7,1.65,2.35,2.23
D2,27/07/15,Freiburg,Nurnberg,6,3,H,4,1,H,2.38,3.25,3,2.35,3.25,2.9,2.2,3.3,3.1,2.2,3.25,3.1,2.29,3.42,3.33,2.3,3.1,3,2.3,3.25,3.25,32,2.4,2.27,3.42,3.25,3.33,3.08,31,2.15,2.05,1.81,1.73,20,0,1.71,1.65,2.39,2.24
D2,31/07/15,Bielefeld,Frankfurt FSV,0,0,D,0,0,D,1.75,3.5,4.75,1.78,3.5,4.25,1.8,3.5,4.2,1.8,3.5,4.1,1.83,3.66,4.9,1.75,3.4,4.5,1.8,3.7,4.6,42,1.83,1.76,3.71,3.51,4.95,4.5,41,2.1,2.02,1.84,1.75,23,-0.5,1.83,1.77,2.13,2.05
D2,31/07/15,Kaiserslautern,Braunschweig,0,0,D,0,0,D,1.62,3.75,5.5,1.67,3.7,4.75,1.55,3.9,5.6,1.57,3.75,5.5,1.71,3.84,5.56,1.65,3.5,5,1.7,3.8,5,42,1.73,1.64,3.85,3.64,6,5.23,42,2.08,2,1.86,1.76,24,-0.75,1.95,1.87,2,1.93
D2,31/07/15,Nurnberg,Heidenheim,3,2,H,2,1,H,2.05,3.4,3.5,1.95,3.4,3.7,2,3.3,3.6,1.91,3.4,3.75,2.15,3.52,3.62,2,3.25,3.4,2.1,3.6,3.4,42,2.15,2.04,3.6,3.34,3.9,3.51,42,2.05,1.98,1.88,1.79,24,-0.25,1.86,1.8,2.08,2.01
D2,01/08/15,Bochum,Duisburg,3,0,H,0,0,D,1.95,3.5,3.75,1.95,3.3,3.75,2.1,3.3,3.3,1.95,3.4,3.6,1.99,3.69,3.9,2,3.4,3.4,2,3.6,3.7,43,2.04,1.96,3.69,3.45,3.9,3.63,43,1.9,1.82,2.03,1.94,26,-0.5,2.03,1.96,1.93,1.85
D2,01/08/15,Munich 1860,Freiburg,0,1,A,0,0,D,3.6,3.25,2.1,3.25,3.3,2.15,3.1,3.3,2.2,3.1,3.3,2.2,3.67,3.53,2.11,3.1,3.3,2.15,3.5,3.5,2.1,43,3.7,3.4,3.53,3.31,2.2,2.08,43,2.03,1.94,1.89,1.82,23,0.5,1.83,1.77,2.14,2.06
D2,02/08/15,Fortuna Dusseldorf,Paderborn,1,2,A,1,0,H,2.2,3.4,3.2,2.15,3.3,3.2,2.1,3.3,3.3,2.15,3.25,3.25,,,,2.2,3.37,3.57,2.2,3.4,3.3,41,2.26,2.16,3.4,3.27,3.57,3.24,40,2.12,2.02,1.83,1.75,24,-0.25,1.93,1.87,2.02,1.94
D2,02/08/15,Karlsruhe,St Pauli,1,2,A,1,2,A,1.8,3.6,4.33,1.83,3.5,4,1.85,3.45,4,1.8,3.4,4.33,1.79,3.61,5.16,,,,1.83,3.6,4.4,41,1.85,1.78,3.61,3.44,5.16,4.46,39,2.16,2.05,1.82,1.73,25,-0.5,1.85,1.79,2.15,2.02
D2,02/08/15,Sandhausen,Union Berlin,4,3,H,1,1,D,2.3,3.3,3.1,2.35,3.1,3,2.4,3.3,2.75,2.3,3.2,3,2.37,3.34,3.24,,,,2.38,3.3,3.1,40,2.4,2.3,3.4,3.19,3.24,3.04,39,2.18,2.06,1.8,1.72,24,-0.25,2.05,1.99,1.89,1.82
D2,03/08/15,RB Leipzig,Greuther Furth,2,2,D,1,2,A,1.67,3.75,5,1.67,3.8,4.6,1.6,3.7,5.4,1.62,3.75,5,1.7,3.84,5.51,1.65,3.5,5,1.7,3.8,5,41,1.7,1.66,3.84,3.63,5.51,5.03,40,2.06,1.99,1.88,1.78,23,-0.75,1.97,1.89,1.99,1.91
D2,14/08/15,Frankfurt FSV,Karlsruhe,1,2,A,1,1,D,2.8,3.4,2.45,2.75,3.25,2.45,2.9,3.3,2.3,2.9,3.2,2.38,3.09,3.27,2.52,3,3.1,2.3,3,3.4,2.45,42,3.17,2.97,3.4,3.17,2.52,2.37,39,2.35,2.23,1.7,1.63,25,0.25,1.8,1.76,2.16,2.08
D2,14/08/15,Heidenheim,Fortuna Dusseldorf,1,0,H,0,0,D,2.3,3.3,3.1,2.35,3.25,2.9,2.2,3.3,3.1,2.2,3.25,3.1,2.42,3.48,3.07,2.25,3.2,3,2.4,3.4,3,42,2.42,2.29,3.5,3.31,3.3,2.99,40,1.95,1.84,2.02,1.92,26,-0.25,2.11,2,1.88,1.81
D2,14/08/15,Paderborn,Sandhausen,0,6,A,0,3,A,2.1,3.4,3.4,2.1,3.2,3.4,2.1,3.3,3.3,2,3.25,3.6,2.2,3.4,3.62,2.05,3.25,3.4,2.15,3.4,3.4,43,2.23,2.11,3.42,3.24,3.7,3.41,40,2.13,2.04,1.83,1.74,26,-0.25,1.92,1.84,2.04,1.97
D2,15/08/15,Braunschweig,RB Leipzig,0,2,A,0,0,D,2.9,3.3,2.4,2.8,3.2,2.45,2.9,3.3,2.3,3,3.2,2.3,3.09,3.3,2.47,3,3.1,2.3,3,3.3,2.45,44,3.2,2.95,3.4,3.16,2.47,2.37,37,2.27,2.17,1.72,1.64,26,0.25,1.83,1.77,2.14,2.05
D2,15/08/15,Freiburg,Bochum,1,3,A,0,0,D,1.85,3.8,3.8,1.9,3.4,3.9,1.8,3.5,4.2,1.85,3.6,3.8,1.88,3.9,4.11,1.91,3.5,3.6,1.85,3.9,4.1,44,1.95,1.83,3.9,3.6,4.2,3.94,40,1.8,1.73,2.19,2.06,27,-0.5,1.9,1.83,2.08,1.99
D2,16/08/15,Duisburg,Bielefeld,2,2,D,0,2,A,2.7,3.2,2.6,2.7,3,2.7,2.6,3.2,2.6,2.6,3.1,2.62,2.79,3.31,2.7,2.6,3.1,2.6,2.8,3.3,2.63,42,2.8,2.68,3.4,3.14,2.75,2.59,39,2.25,2.14,1.74,1.67,26,0,2.03,1.94,1.91,1.86
D2,16/08/15,St Pauli,Greuther Furth,3,2,H,2,1,H,2.5,3.2,2.8,2.65,3.1,2.65,2.3,3.3,2.9,2.4,3.2,2.8,2.61,3.3,2.91,2.5,3.1,2.7,2.6,3.3,2.88,42,2.7,2.49,3.3,3.14,3,2.8,38,2.22,2.13,1.75,1.68,26,0,1.88,1.81,2.08,2
D2,16/08/15,Union Berlin,Kaiserslautern,2,2,D,0,1,A,3.2,3.25,2.25,2.8,3.2,2.45,2.9,3.3,2.3,3,3.2,2.3,3.27,3.39,2.33,2.8,3.2,2.38,3.2,3.3,2.38,42,3.27,3.05,3.4,3.22,2.45,2.29,39,2.11,2.02,1.83,1.76,25,0.25,1.93,1.85,2.03,1.97
D2,17/08/15,Nurnberg,Munich 1860,2,2,D,0,1,A,1.73,3.8,4.5,1.8,3.4,4.25,1.8,3.5,4.2,1.8,3.4,4.33,1.78,3.78,4.91,1.8,3.5,4,1.75,3.8,4.8,41,1.86,1.75,3.8,3.53,4.91,4.49,38,1.98,1.91,1.95,1.86,24,-0.5,1.79,1.74,2.2,2.1
D2,21/08/15,Bielefeld,Braunschweig,0,2,A,0,0,D,2.25,3.25,3.2,2.25,3.2,3.1,2.3,3.3,2.9,2.2,3.1,3.25,2.36,3.3,3.36,2.15,3.1,3.3,2.3,3.3,3.3,39,2.36,2.24,3.5,3.2,3.5,3.19,36,2.13,2.05,1.8,1.73,25,-0.25,2.01,1.94,1.93,1.87
D2,21/08/15,Greuther Furth,Frankfurt FSV,0,2,A,0,1,A,1.62,3.75,5.5,1.67,3.6,5,1.7,3.6,4.7,1.62,3.8,5,1.69,3.94,5.59,1.6,3.75,5,1.7,3.9,5.2,38,1.7,1.64,4.2,3.73,5.59,5.12,35,1.93,1.87,2,1.91,24,-0.75,1.92,1.86,2.02,1.95
D2,21/08/15,Sandhausen,Heidenheim,0,0,D,0,0,D,2.25,3.4,3.1,2.3,3.1,3.1,2.2,3.3,3.1,2.2,3.2,3.2,2.39,3.34,3.25,2.25,3.2,3,2.38,3.4,3.13,39,2.39,2.26,3.4,3.23,3.4,3.09,38,2.13,2.05,1.84,1.74,25,-0.25,2.03,1.96,1.9,1.85
D2,22/08/15,Fortuna Dusseldorf,Freiburg,1,2,A,1,2,A,2.5,3.4,2.7,2.7,3,2.7,2.6,3.2,2.6,2.6,3.2,2.6,2.65,3.38,2.81,2.6,3.1,2.62,2.55,3.4,2.8,39,2.7,2.53,3.5,3.23,2.9,2.69,38,2.07,1.97,1.89,1.81,26,0,1.9,1.84,2.06,1.96
D2,22/08/15,Karlsruhe,Duisburg,2,0,H,1,0,H,1.62,3.75,5.5,1.65,3.8,4.75,1.6,3.7,5.4,1.62,3.6,5.5,1.68,3.82,5.73,1.6,3.5,5.5,1.67,3.8,5.75,39,1.7,1.62,4,3.65,6,5.46,37,2.13,2.04,1.82,1.74,25,-0.75,1.9,1.81,2.1,2.01
D2,23/08/15,Bochum,Nurnberg,2,1,H,1,1,D,2.05,3.6,3.4,2.05,3.25,3.5,2.1,3.3,3.3,2,3.5,3.4,2.09,3.71,3.54,2.05,3.4,3.25,2.05,3.7,3.5,39,2.1,2.02,3.71,3.49,3.6,3.37,36,1.76,1.68,2.24,2.13,26,-0.5,2.11,2.03,1.87,1.79
D2,23/08/15,Munich 1860,Union Berlin,0,0,D,0,0,D,2.38,3.3,2.9,2.3,3.25,3,2.2,3.3,3.1,2.3,3.25,2.9,2.32,3.38,3.29,2.25,3.2,3,2.3,3.3,3.3,39,2.4,2.26,3.5,3.25,3.29,3.06,38,2.07,1.98,1.87,1.79,25,-0.25,2.01,1.94,1.95,1.87
D2,23/08/15,RB Leipzig,St Pauli,0,1,A,0,1,A,1.62,3.75,5.5,1.62,3.9,4.75,1.65,3.6,5.1,1.62,3.75,5,1.67,4.01,5.49,1.65,3.6,4.8,1.67,4,5.25,39,1.7,1.62,4.1,3.78,5.5,5.11,38,1.88,1.81,2.06,1.96,25,-0.75,1.88,1.82,2.08,1.99
D2,24/08/15,Kaiserslautern,Paderborn,1,0,H,1,0,H,1.6,3.8,5.75,1.65,3.8,4.75,1.7,3.6,4.7,1.57,3.75,5.5,1.65,3.99,5.73,1.6,3.75,5,1.65,3.9,5.75,38,1.7,1.6,4.1,3.78,5.75,5.4,36,1.93,1.85,2,1.92,24,-0.75,1.84,1.78,2.13,2.03
D2,28/08/15,Freiburg,Sandhausen,4,1,H,3,0,H,1.83,3.5,4.2,1.85,3.5,4,1.75,3.5,4.5,1.73,3.5,4.5,1.87,3.63,4.64,1.8,3.3,4.33,1.83,3.7,4.5,37,1.87,1.81,3.7,3.48,4.64,4.3,34,2.06,1.98,1.9,1.81,25,-0.5,1.87,1.82,2.1,2
D2,28/08/15,Heidenheim,Kaiserslautern,3,1,H,0,1,A,3.1,3.3,2.3,2.95,3,2.45,2.65,3.3,2.5,2.8,3.2,2.4,3.19,3.34,2.43,2.8,3.2,2.38,3,3.3,2.45,35,3.19,2.94,3.35,3.21,2.5,2.37,32,2.12,2.03,1.82,1.75,22,0.25,1.85,1.78,2.11,2.04
D2,28/08/15,Union Berlin,RB Leipzig,1,1,D,1,0,H,3.4,3.3,2.15,3.2,3.2,2.2,3.1,3.2,2.25,3.1,3.25,2.2,3.46,3.49,2.23,3.2,3.2,2.15,3.3,3.5,2.2,37,3.46,3.23,3.5,3.3,2.25,2.17,35,2,1.94,1.94,1.84,23,0.25,2,1.94,1.95,1.88
D2,29/08/15,Duisburg,Greuther Furth,2,2,D,1,0,H,3.4,3.25,2.15,3,3.2,2.3,2.75,3.3,2.4,3.1,3.1,2.3,3.44,3.33,2.28,3,3.2,2.25,3.3,3.3,2.3,37,3.44,3.17,3.33,3.19,2.4,2.24,34,2.24,2.11,1.77,1.69,24,0.25,1.96,1.89,1.98,1.92
D2,29/08/15,Paderborn,Bielefeld,1,2,A,1,0,H,2.38,3.25,3,2.4,3.2,2.85,2.2,3.2,3.2,2.2,3.1,3.3,2.4,3.32,3.2,2.38,3.1,2.88,2.4,3.3,3.13,37,2.4,2.31,3.33,3.18,3.3,3.05,34,2.14,2.05,1.8,1.74,24,-0.25,2.07,2,1.87,1.82
D2,30/08/15,Braunschweig,Karlsruhe,6,0,H,2,0,H,2.5,3.1,2.9,2.5,3.05,2.85,2.6,3.2,2.6,2.4,3.1,2.9,2.52,3.24,3.09,2.3,3.1,3,2.55,3.2,3,36,2.6,2.43,3.25,3.1,3.09,2.9,28,2.38,2.25,1.7,1.6,23,-0.25,2.18,2.1,1.81,1.74
D2,30/08/15,Frankfurt FSV,St Pauli,1,0,H,0,0,D,2.7,3.2,2.63,2.7,2.95,2.7,2.6,3.2,2.6,2.6,3.2,2.6,2.78,3.37,2.68,2.5,3.25,2.6,2.75,3.4,2.63,35,2.78,2.65,3.4,3.2,2.7,2.59,33,2.03,1.95,1.88,1.81,23,0,2,1.93,1.94,1.88
D2,30/08/15,Nurnberg,Fortuna Dusseldorf,1,0,H,0,0,D,2.1,3.5,3.3,2.2,3.2,3.2,2,3.3,3.6,2.05,3.3,3.4,2.21,3.55,3.39,2.15,3.3,3.1,2.2,3.5,3.3,36,2.21,2.12,3.55,3.35,3.6,3.26,34,1.88,1.79,2.09,1.98,23,-0.25,1.94,1.87,2.01,1.94
D2,31/08/15,Bochum,Munich 1860,1,0,H,0,0,D,1.75,3.75,4.5,1.8,3.5,4.25,1.7,3.6,4.7,1.73,3.5,4.5,1.82,3.8,4.59,1.8,3.5,4,1.83,3.8,4.4,35,1.83,1.75,3.8,3.62,4.75,4.32,32,1.81,1.74,2.16,2.04,22,-0.75,2.11,2.01,1.88,1.81
D2,11/09/15,Kaiserslautern,Freiburg,0,2,A,0,0,D,2.1,3.4,3.4,2.2,3.3,3.1,2.4,3.3,2.75,2.2,3.1,3.4,2.26,3.42,3.43,2.15,3.2,3.2,2.25,3.4,3.3,35,2.27,2.17,3.45,3.28,3.57,3.26,32,2.05,1.98,1.86,1.8,24,-0.25,1.98,1.91,1.99,1.91
D2,11/09/15,RB Leipzig,Paderborn,2,0,H,2,0,H,1.67,3.75,5,1.7,3.7,4.5,1.7,3.6,4.7,1.73,3.5,4.75,1.75,3.88,5.13,1.67,3.6,4.75,1.73,3.9,4.8,35,1.76,1.69,3.9,3.65,5.26,4.82,32,1.92,1.85,2,1.92,24,-0.75,2,1.93,1.97,1.89
D2,11/09/15,Sandhausen,Bochum,1,1,D,1,1,D,3.2,3.4,2.2,2.85,3.2,2.4,2.75,3.3,2.4,3,3.2,2.3,3.24,3.44,2.35,2.88,3.25,2.3,3.1,3.5,2.3,35,3.26,3.01,3.5,3.29,2.37,2.28,32,1.96,1.88,2,1.9,24,0.25,1.91,1.84,2.04,1.98
D2,12/09/15,Bielefeld,Heidenheim,0,0,D,0,0,D,2.25,3.2,3.25,2.3,3.3,2.95,2.4,3.3,2.75,2.3,3,3.3,2.35,3.32,3.36,2.2,3.1,3.2,2.3,3.3,3.3,34,2.35,2.24,3.35,3.18,3.36,3.16,29,2.22,2.15,1.74,1.67,23,-0.25,2,1.95,1.93,1.87
D2,12/09/15,Karlsruhe,Union Berlin,0,3,A,0,1,A,1.83,3.5,4.2,1.85,3.4,4,1.9,3.45,3.8,1.8,3.3,4.75,1.82,3.65,4.95,1.85,3.3,4,1.83,3.6,4.6,34,1.85,1.79,3.65,3.45,4.95,4.39,30,2.11,2.01,1.84,1.76,24,-0.5,1.84,1.79,2.12,2.04
D2,13/09/15,Fortuna Dusseldorf,Munich 1860,3,0,H,2,0,H,2.1,3.4,3.4,2.15,3.25,3.3,2.2,3.3,3.1,2.05,3.1,3.75,2.11,3.44,3.84,2.05,3.25,3.4,2.15,3.4,3.6,34,2.15,2.07,3.44,3.28,3.84,3.46,30,2.11,2,1.87,1.78,23,-0.25,1.86,1.79,2.11,2.04
D2,13/09/15,Frankfurt FSV,Braunschweig,0,3,A,0,1,A,3,3.2,2.38,2.7,3.25,2.5,2.6,3.2,2.6,3,3.1,2.4,3.12,3.27,2.51,3,3.1,2.3,3,3.3,2.5,33,3.12,2.93,3.3,3.15,2.51,2.4,28,2.26,2.16,1.72,1.66,22,0.25,1.81,1.75,2.16,2.08
D2,13/09/15,Greuther Furth,Nurnberg,3,2,H,1,1,D,2.1,3.4,3.4,2.15,3.2,3.3,2.4,3.3,2.75,2.1,3.2,3.5,2.15,3.48,3.67,2.1,3.25,3.25,2.15,3.4,3.5,34,2.2,2.09,3.48,3.3,3.67,3.36,31,2.03,1.95,1.9,1.82,23,-0.25,1.88,1.83,2.07,2
D2,14/09/15,St Pauli,Duisburg,2,0,H,0,0,D,1.67,3.75,5,1.7,3.5,4.9,1.65,3.6,5.1,1.67,3.5,5.5,1.71,3.8,5.6,1.67,3.6,4.8,1.7,3.8,5.25,32,1.71,1.66,3.8,3.61,5.6,5.05,28,2.11,1.99,1.87,1.79,22,-0.75,1.95,1.87,2.01,1.95
D2,18/09/15,Bochum,Fortuna Dusseldorf,1,1,D,1,0,H,1.95,3.6,3.6,2,3.4,3.5,1.9,3.45,3.8,2,3.4,3.6,2.08,3.6,3.74,2,3.4,3.4,2.05,3.6,3.5,39,2.09,2,3.6,3.4,4,3.61,35,1.88,1.8,2.06,1.97,25,-0.5,2.11,2.03,1.84,1.8
D2,18/09/15,Freiburg,Bielefeld,2,2,D,0,1,A,1.7,3.6,5,1.7,3.75,4.5,1.6,3.7,5.4,1.7,3.5,5,1.75,3.75,5.31,1.73,3.4,4.6,1.73,3.75,4.8,33,1.75,1.7,3.8,3.57,5.49,4.92,34,2.12,2.02,1.84,1.76,24,-0.75,1.99,1.92,1.96,1.9
D2,18/09/15,Heidenheim,RB Leipzig,1,1,D,0,1,A,2.75,3.2,2.6,2.75,3,2.6,2.75,3.3,2.4,2.62,3.2,2.62,2.81,3.32,2.72,2.7,3,2.6,2.63,3.4,2.55,39,2.88,2.7,3.4,3.15,2.75,2.6,34,2.25,2.15,1.77,1.68,25,0,1.99,1.92,2.05,1.89
D2,19/09/15,Munich 1860,Kaiserslautern,1,1,D,1,0,H,2.9,3.3,2.4,2.65,3.3,2.5,2.9,3.3,2.3,2.9,3.25,2.4,3.06,3.43,2.46,2.8,3.2,2.38,2.88,3.4,2.45,39,3.06,2.86,3.43,3.24,2.5,2.38,33,2.11,2.03,1.85,1.75,22,0.25,1.81,1.76,2.14,2.08
D2,19/09/15,Nurnberg,Sandhausen,2,0,H,1,0,H,2.1,3.5,3.3,2.1,3.25,3.4,2,3.3,3.6,2.05,3.3,3.5,2.09,3.54,3.77,2.05,3.3,3.3,2.1,3.5,3.5,37,2.12,2.05,3.54,3.34,3.77,3.44,34,2,1.92,1.92,1.85,23,-0.5,2.13,2.06,1.83,1.77
D2,19/09/15,Paderborn,Karlsruhe,2,0,H,0,0,D,2.6,3.2,2.75,2.6,3.1,2.7,2.5,3.3,2.65,2.5,3.25,2.7,2.64,3.39,2.84,2.45,3.2,2.7,2.6,3.3,2.75,37,2.64,2.52,3.4,3.22,2.84,2.7,33,2.13,2.04,1.85,1.74,23,0,1.91,1.84,2.04,1.97
D2,20/09/15,Braunschweig,St Pauli,0,0,D,0,0,D,2,3.5,3.6,2.05,3.4,3.4,2,3.3,3.6,2,3.3,3.75,2.06,3.47,3.97,2.05,3.25,3.4,2.05,3.5,3.6,37,2.08,2.01,3.5,3.32,3.97,3.6,33,2.13,2.04,1.82,1.74,24,-0.5,2.09,2.02,1.87,1.81
D2,20/09/15,Duisburg,Frankfurt FSV,0,1,A,0,1,A,2.5,3.25,2.8,2.4,3.3,2.75,2.4,3.3,2.75,2.38,3.2,3,2.48,3.34,3.1,2.25,3.2,3,2.45,3.3,3,37,2.5,2.37,3.35,3.2,3.1,2.91,32,2.15,2.07,1.8,1.72,23,-0.25,2.13,2.06,1.83,1.77
D2,20/09/15,Union Berlin,Greuther Furth,1,2,A,1,0,H,2.4,3.4,2.8,2.45,3.25,2.75,2.4,3.3,2.75,2.5,3.3,2.75,2.55,3.46,2.91,2.45,3.2,2.7,2.55,3.4,2.8,38,2.55,2.44,3.5,3.29,2.91,2.74,34,2,1.92,1.92,1.85,23,0,1.88,1.82,2.08,2
D2,22/09/15,Bielefeld,Bochum,1,1,D,0,1,A,2.8,3.25,2.5,2.65,3.1,2.65,2.65,3.3,2.5,2.75,3.3,2.5,2.88,3.42,2.59,2.6,3.1,2.62,2.75,3.4,2.55,37,2.94,2.73,3.42,3.21,2.63,2.51,33,2.06,1.99,1.9,1.79,25,0,2.06,1.98,1.89,1.83
D2,22/09/15,Kaiserslautern,Nurnberg,0,3,A,0,1,A,1.85,3.6,4,1.9,3.4,3.9,2,3.3,3.6,1.85,3.5,4.2,1.93,3.67,4.29,1.83,3.4,4,1.9,3.6,4.1,38,2,1.87,3.69,3.45,4.33,3.98,32,1.98,1.92,1.93,1.87,25,-0.5,1.93,1.88,2,1.94
D2,22/09/15,Karlsruhe,Fortuna Dusseldorf,1,1,D,0,0,D,2.38,3.25,3,2.45,3.1,2.85,2.4,3.3,2.75,2.4,3.25,2.9,2.49,3.4,3.03,2.25,3.2,3,2.45,3.4,2.88,37,2.54,2.4,3.4,3.2,3.13,2.88,32,2.11,2.03,1.88,1.76,24,-0.25,2.14,2.08,1.81,1.76
D2,22/09/15,Sandhausen,Munich 1860,1,1,D,1,1,D,2.38,3.25,3,2.4,3.2,2.85,2.4,3.3,2.75,2.38,3.1,3.1,2.44,3.23,3.28,2.45,3.1,2.8,2.38,3.25,3.1,37,2.45,2.35,3.33,3.12,3.28,3.03,32,2.38,2.27,1.7,1.61,24,-0.25,2.09,2.02,1.86,1.8
D2,23/09/15,Duisburg,Braunschweig,0,5,A,0,1,A,4,3.3,1.95,3.7,3.4,1.95,3.6,3.3,2,4,3.4,1.91,4.17,3.59,1.97,3.5,3.3,2,4,3.5,1.95,36,4.17,3.86,3.59,3.36,2,1.91,32,2.07,2,1.87,1.78,24,0.5,1.98,1.91,1.97,1.91
D2,23/09/15,Frankfurt FSV,Union Berlin,3,2,H,0,1,A,2.6,3.2,2.75,2.6,3.1,2.7,2.4,3.3,2.75,2.6,3.2,2.7,2.66,3.41,2.81,2.38,3.2,2.8,2.55,3.4,2.7,36,2.66,2.51,3.41,3.21,2.9,2.7,31,2.11,2.04,1.82,1.75,24,0,1.91,1.84,2.08,1.96
D2,23/09/15,Greuther Furth,Paderborn,3,0,H,1,0,H,1.91,3.4,4,1.95,3.3,3.8,1.9,3.45,3.8,1.85,3.5,3.8,1.89,3.77,4.32,1.91,3.3,3.75,1.87,3.75,4,36,1.95,1.86,3.77,3.49,4.32,3.93,32,1.95,1.87,1.99,1.91,24,-0.5,1.92,1.86,2.05,1.96
D2,23/09/15,St Pauli,Heidenheim,1,0,H,1,0,H,2.25,3.25,3.2,2.35,3.2,2.95,2.2,3.3,3.1,2.3,3.2,3,2.34,3.4,3.29,2.38,3.2,2.8,2.38,3.4,3,36,2.4,2.27,3.4,3.24,3.29,3.04,31,2.13,2.05,1.82,1.75,23,-0.25,2.05,1.96,1.94,1.86
D2,24/09/15,RB Leipzig,Freiburg,1,1,D,0,1,A,2,3.4,3.75,2.1,3.3,3.3,2.3,3.3,2.9,2,3.3,3.8,2.07,3.51,3.88,2.05,3.25,3.4,2.05,3.5,3.6,35,2.3,2.02,3.51,3.33,3.88,3.5,30,2.11,2.02,1.9,1.76,23,-0.5,2.09,2.02,1.87,1.8
D2,25/09/15,Bochum,Kaiserslautern,1,2,A,0,2,A,2.1,3.4,3.4,2.2,3.3,3.1,2.1,3.3,3.3,2.15,3.3,3.3,2.21,3.47,3.52,2.05,3.25,3.4,2.25,3.4,3.3,39,2.25,2.14,3.5,3.32,3.58,3.29,35,2.01,1.93,1.92,1.85,24,-0.25,1.95,1.87,2.01,1.95
D2,25/09/15,Fortuna Dusseldorf,Sandhausen,0,1,A,0,0,D,1.75,3.6,4.75,1.8,3.4,4.25,1.9,3.45,3.8,1.75,3.5,4.5,1.81,3.76,4.84,1.73,3.5,4.4,1.83,3.75,4.4,39,1.9,1.77,3.76,3.54,4.85,4.42,35,2,1.92,1.94,1.86,24,-0.5,1.85,1.79,2.12,2.04
D2,25/09/15,Nurnberg,Bielefeld,2,2,D,0,1,A,1.91,3.4,4,1.95,3.5,3.6,1.9,3.45,3.8,1.95,3.4,3.75,2.02,3.59,3.97,2,3.3,3.5,2.05,3.5,3.75,39,2.05,1.97,3.6,3.41,4,3.67,35,1.98,1.91,1.94,1.86,25,-0.5,2.05,1.99,1.89,1.83
D2,26/09/15,Paderborn,St Pauli,0,0,D,0,0,D,2.38,3.25,3,2.5,3.2,2.75,2.5,3.2,2.75,2.4,3.25,2.8,2.45,3.43,3.07,2.45,3.1,2.8,2.5,3.4,2.9,38,2.5,2.39,3.43,3.23,3.07,2.85,34,2.12,1.97,1.9,1.81,24,0,1.81,1.76,2.17,2.07
D2,26/09/15,Union Berlin,Duisburg,3,2,H,3,0,H,1.57,4,5.5,1.6,4,5,1.6,3.7,5.4,1.6,3.8,5.5,1.65,4.11,5.7,1.6,3.75,5,1.62,4.1,5.5,37,1.65,1.59,4.11,3.86,5.85,5.34,32,1.85,1.73,2.17,2.05,22,-1,2.11,2.04,1.84,1.79
D2,27/09/15,Freiburg,Frankfurt FSV,2,0,H,1,0,H,1.53,4,6,1.6,3.9,5,1.55,3.9,5.6,1.55,3.8,6,1.55,4.21,7.09,1.55,3.8,5.5,1.57,4.2,6,37,1.6,1.52,4.21,3.94,7.09,6,33,1.93,1.84,2.01,1.92,23,-1,2.02,1.95,1.94,1.87
D2,27/09/15,Heidenheim,Karlsruhe,1,1,D,1,0,H,2.2,3.25,3.3,2.3,3.3,2.95,2.3,3.2,3,2.2,3.1,3.3,2.32,3.32,3.41,2.3,3,3.1,2.3,3.3,3.3,37,2.35,2.24,3.32,3.14,3.41,3.17,30,2.25,2.17,1.71,1.64,23,-0.25,2.04,1.94,1.93,1.88
D2,27/09/15,Munich 1860,RB Leipzig,2,2,D,1,1,D,3.5,3.3,2.1,3.25,3.25,2.15,3.3,3.3,2.1,3.5,3.2,2.1,3.65,3.32,2.2,3.2,3,2.25,3.6,3.4,2.15,37,3.65,3.38,3.4,3.22,2.25,2.12,30,2.25,2.13,1.75,1.67,23,0.25,2.07,2,1.88,1.83
D2,28/09/15,Braunschweig,Greuther Furth,0,1,A,0,1,A,2.1,3.4,3.4,2.15,3.25,3.3,2.1,3.3,3.3,2.15,3.3,3.3,2.23,3.4,3.49,2.15,3.2,3.2,2.2,3.4,3.4,36,2.25,2.15,3.4,3.24,3.49,3.27,31,2.07,1.98,1.9,1.79,22,-0.25,1.94,1.88,2,1.93
D2,02/10/15,Bielefeld,Munich 1860,1,1,D,1,1,D,2.3,3.25,3.1,2.3,3.3,2.9,2.4,3.2,2.85,2.25,3.1,3.25,2.34,3.27,3.42,2.25,3.1,3.1,2.3,3.3,3.25,43,2.4,2.26,3.35,3.19,3.42,3.13,37,2.29,2.2,1.69,1.64,24,-0.25,2.01,1.95,1.92,1.86
D2,02/10/15,Frankfurt FSV,Heidenheim,0,4,A,0,3,A,2.88,3.2,2.45,2.7,3.15,2.55,2.6,3.2,2.6,2.8,3.1,2.5,2.95,3.28,2.62,2.88,3.1,2.38,2.88,3.3,2.55,40,2.95,2.79,3.4,3.18,2.62,2.49,36,2.15,2.08,1.81,1.72,24,0,2.09,2,1.87,1.81
D2,02/10/15,Kaiserslautern,Fortuna Dusseldorf,3,0,H,1,0,H,2.05,3.4,3.5,2.1,3.4,3.25,2,3.3,3.6,2.1,3.3,3.4,2.17,3.51,3.59,2.05,3.25,3.4,2.15,3.5,3.5,43,2.17,2.09,3.55,3.36,3.63,3.38,39,2,1.92,1.94,1.86,24,-0.25,1.88,1.83,2.06,1.99
D2,03/10/15,Greuther Furth,Bochum,0,5,A,0,3,A,2.2,3.3,3.25,2.25,3.3,3,2.2,3.2,3.2,2.25,3.3,3,2.35,3.46,3.22,2.15,3.3,3.1,2.38,3.4,3.13,42,2.38,2.22,3.46,3.3,3.35,3.08,38,1.97,1.88,1.96,1.87,24,-0.25,2.03,1.95,1.94,1.87
D2,03/10/15,St Pauli,Sandhausen,1,3,A,0,2,A,2,3.4,3.75,2.05,3.4,3.4,1.9,3.45,3.8,1.95,3.25,4,2.02,3.42,4.2,2.1,3.1,3.4,2.05,3.4,3.9,42,2.1,1.97,3.5,3.3,4.2,3.75,34,2.26,2.16,1.75,1.65,25,-0.5,2.05,1.97,1.9,1.84
D2,04/10/15,Braunschweig,Union Berlin,2,1,H,1,1,D,1.91,3.4,4,2,3.25,3.7,1.9,3.45,3.8,1.91,3.4,3.8,1.98,3.62,4.1,2,3.3,3.5,2,3.6,3.9,40,2,1.92,3.62,3.44,4.1,3.78,37,1.9,1.83,2.02,1.93,24,-0.5,1.98,1.91,1.97,1.91
D2,04/10/15,Karlsruhe,Freiburg,1,1,D,0,0,D,2.9,3.25,2.4,2.7,3.2,2.5,2.75,3.2,2.5,2.9,3.2,2.4,3.05,3.31,2.5,2.7,3.2,2.45,3,3.3,2.5,41,3.05,2.88,3.31,3.17,2.55,2.41,35,2.26,2.14,1.76,1.67,22,0.25,1.83,1.77,2.14,2.07
D2,04/10/15,RB Leipzig,Nurnberg,3,2,H,3,0,H,1.67,3.75,5,1.67,3.75,4.75,1.7,3.6,4.7,1.65,3.8,5,1.68,4,5.55,1.67,3.6,4.75,1.67,4,5.25,40,1.7,1.65,4,3.76,5.55,4.92,37,1.91,1.81,2.05,1.96,23,-0.75,1.94,1.84,2.06,1.98
D2,05/10/15,Duisburg,Paderborn,1,0,H,0,0,D,3.2,3.4,2.2,3,3.3,2.25,3.2,3.2,2.2,3.3,3.3,2.15,3.43,3.46,2.25,3,3.2,2.25,3.3,3.4,2.2,38,3.43,3.17,3.46,3.29,2.28,2.17,34,2.03,1.95,1.9,1.82,22,0.25,2,1.94,1.95,1.88
D2,16/10/15,Fortuna Dusseldorf,Bielefeld,1,0,H,1,0,H,1.95,3.5,3.75,1.95,3.3,3.8,1.9,3.45,3.8,1.95,3.4,3.75,2.04,3.57,3.93,1.91,3.3,3.8,2,3.6,3.8,43,2.06,1.96,3.6,3.42,4,3.69,39,2.05,1.97,1.89,1.79,26,-0.5,2.05,1.96,1.92,1.84
D2,16/10/15,Paderborn,Braunschweig,2,0,H,1,0,H,2.5,3.1,2.9,2.55,3.2,2.65,2.65,3.1,2.65,2.5,3.2,2.8,2.62,3.35,2.9,2.6,3.1,2.6,2.55,3.3,2.9,43,2.65,2.51,3.36,3.18,2.9,2.76,38,2.16,2.05,1.81,1.73,26,0,1.86,1.8,2.09,1.99
D2,16/10/15,Sandhausen,Kaiserslautern,1,0,H,1,0,H,3.2,3.2,2.3,2.95,3.2,2.35,3.1,3.1,2.3,3.1,3.1,2.3,3.22,3.27,2.44,3.1,3.2,2.2,3.2,3.3,2.38,43,3.33,3.06,3.31,3.17,2.44,2.31,38,2.28,2.17,1.71,1.66,25,0.25,1.85,1.81,2.08,2
D2,17/10/15,Nurnberg,Frankfurt FSV,1,1,D,0,0,D,1.7,3.8,4.75,1.75,3.6,4.4,1.75,3.5,4.5,1.7,3.6,4.75,1.75,3.94,5.03,1.73,3.6,4.33,1.75,3.9,4.75,41,1.75,1.7,3.95,3.7,5.03,4.58,35,1.76,1.72,2.16,2.05,23,-0.75,1.97,1.91,1.96,1.9
D2,17/10/15,Union Berlin,St Pauli,3,3,D,2,1,H,2.3,3.3,3.1,2.3,3.3,2.9,2.3,3.2,3,2.3,3.3,3,2.38,3.44,3.18,2.25,3.2,3,2.38,3.4,3.1,42,2.38,2.28,3.44,3.26,3.18,3,37,1.99,1.9,1.95,1.85,24,-0.25,2.04,1.97,1.9,1.82
D2,18/10/15,Bochum,RB Leipzig,0,1,A,0,0,D,2.63,3.3,2.63,2.65,3,2.7,2.6,3.2,2.6,2.62,3.25,2.62,2.72,3.39,2.75,2.5,3.25,2.6,2.75,3.3,2.7,41,2.75,2.6,3.39,3.2,2.75,2.61,37,2.04,1.94,1.91,1.81,25,0,1.98,1.89,1.96,1.89
D2,18/10/15,Freiburg,Greuther Furth,5,2,H,1,0,H,1.85,3.8,3.8,1.9,3.5,3.75,1.8,3.5,4.2,1.91,3.4,3.8,1.94,3.67,4.21,1.91,3.5,3.6,1.9,3.8,4,42,1.96,1.88,3.8,3.51,4.25,3.81,38,1.91,1.83,2.03,1.92,25,-0.5,1.97,1.88,2.01,1.91
D2,18/10/15,Heidenheim,Duisburg,1,0,H,0,0,D,1.53,4,6,1.6,3.75,5.25,1.55,3.9,5.6,1.57,3.8,6,1.61,4.08,6.35,1.55,3.75,5.5,1.6,4,6,43,1.61,1.55,4.08,3.85,6.35,5.79,39,2.03,1.94,1.91,1.82,27,-1,2.09,1.99,1.87,1.81
D2,19/10/15,Munich 1860,Karlsruhe,0,1,A,0,1,A,2.4,3.3,2.9,2.5,3.2,2.7,2.5,3.2,2.75,2.4,3.1,2.9,2.57,3.22,3.08,2.38,3.1,2.88,2.5,3.3,3,40,2.57,2.42,3.3,3.11,3.08,2.89,32,2.33,2.21,1.7,1.62,23,0,1.79,1.74,2.17,2.06
D2,23/10/15,Frankfurt FSV,Bochum,3,2,H,0,2,A,4,3.6,1.85,3.75,3.5,1.9,3.2,3.2,2.2,3.8,3.6,1.85,4.21,3.72,1.93,3.6,3.5,1.91,4,3.7,1.93,39,4.21,3.86,3.72,3.52,2.2,1.89,35,1.9,1.83,2.03,1.93,22,0.5,2,1.94,1.93,1.88
D2,23/10/15,Greuther Furth,Munich 1860,1,0,H,0,0,D,2,3.5,3.6,2.05,3.3,3.5,2,3.3,3.6,2,3.3,3.75,2.06,3.52,3.91,2,3.3,3.5,2.05,3.5,3.75,41,2.1,2,3.52,3.36,3.91,3.61,37,2.07,1.99,1.89,1.78,23,-0.5,2.07,2,1.88,1.81
D2,23/10/15,RB Leipzig,Fortuna Dusseldorf,2,1,H,1,0,H,1.57,3.8,6,1.65,3.7,5,1.6,3.7,5.4,1.62,3.8,5.5,1.66,4.02,5.72,1.65,3.6,4.8,1.65,4,5.4,41,1.66,1.62,4.02,3.77,6,5.24,37,1.92,1.86,2.01,1.9,21,-0.75,1.87,1.8,2.08,2
D2,24/10/15,Duisburg,Nurnberg,0,0,D,0,0,D,3.75,3.4,2,3.5,3.3,2.05,3.3,3.3,2.1,3.6,3.4,2,3.6,3.56,2.14,3.4,3.4,2,3.6,3.5,2.1,41,3.75,3.45,3.56,3.38,2.14,2.04,36,1.91,1.81,2.04,1.95,21,0.5,1.85,1.77,2.15,2.04
D2,24/10/15,Karlsruhe,Kaiserslautern,2,0,H,1,0,H,2.6,3.25,2.7,2.65,3,2.7,2.5,3.2,2.75,2.62,3.2,2.62,2.71,3.4,2.76,2.62,3.1,2.6,2.63,3.4,2.75,41,2.71,2.59,3.4,3.2,2.77,2.65,35,2.11,1.98,1.89,1.78,22,0,1.95,1.87,2,1.92
D2,24/10/15,Union Berlin,Paderborn,0,2,A,0,2,A,2.15,3.3,3.4,2.25,3.2,3.1,2.4,3.3,2.75,2.2,3.3,3.2,2.26,3.53,3.33,2.15,3.3,3.1,2.25,3.4,3.3,41,2.4,2.19,3.53,3.3,3.4,3.14,36,1.91,1.8,2.12,1.96,21,-0.25,1.97,1.9,1.99,1.9
D2,25/10/15,Bielefeld,Sandhausen,0,0,D,0,0,D,2.15,3.3,3.4,2.2,3.25,3.1,2.4,3.3,2.75,2.15,3.1,3.4,2.18,3.34,3.74,2.15,3.2,3.2,2.2,3.3,3.6,40,2.4,2.14,3.35,3.21,3.74,3.35,34,2.31,2.2,1.75,1.63,21,-0.25,1.93,1.84,2.05,1.96
D2,25/10/15,Braunschweig,Heidenheim,1,0,H,0,0,D,2.15,3.2,3.5,2.25,3.3,3,2.1,3.3,3.3,2.2,3.2,3.3,2.27,3.34,3.51,2.25,3.2,3,2.25,3.3,3.4,40,2.3,2.21,3.35,3.23,3.51,3.2,35,2.22,2.11,1.77,1.69,21,-0.25,1.98,1.9,1.98,1.9
D2,25/10/15,St Pauli,Freiburg,1,0,H,0,0,D,3,3.25,2.38,2.9,3.1,2.45,2.75,3.2,2.5,3,3.25,2.3,3.14,3.36,2.45,2.88,3.25,2.3,3,3.3,2.5,40,3.14,2.92,3.36,3.2,2.5,2.37,36,2.05,1.95,1.91,1.82,21,0.25,1.83,1.77,2.13,2.05
D2,30/10/15,Bochum,St Pauli,1,1,D,1,1,D,2,3.5,3.6,2.05,3.3,3.5,2,3.3,3.6,2,3.3,3.6,2.04,3.58,3.91,2.05,3.4,3.25,2.05,3.6,3.6,47,2.12,2,3.65,3.42,3.91,3.6,42,1.94,1.83,2,1.93,29,-0.5,2.06,1.99,1.88,1.82
D2,30/10/15,Fortuna Dusseldorf,Greuther Furth,1,0,H,0,0,D,2.4,3.4,2.8,2.4,3.2,2.85,2.5,3.2,2.75,2.4,3.3,2.8,2.52,3.54,2.89,2.25,3.4,2.88,2.45,3.5,2.9,47,2.53,2.42,3.51,3.32,2.95,2.81,42,1.9,1.81,2.06,1.96,28,-0.25,2.2,2.1,1.82,1.73
D2,30/10/15,Kaiserslautern,Bielefeld,0,2,A,0,0,D,1.91,3.3,4.2,1.95,3.3,3.75,1.9,3.45,3.8,1.95,3.25,4,1.99,3.44,4.31,1.91,3.2,4,2,3.4,4.1,47,2.01,1.93,3.45,3.29,4.35,4.03,40,2.26,2.16,1.75,1.66,29,-0.5,2.01,1.93,1.94,1.88
D2,31/10/15,Heidenheim,Union Berlin,0,2,A,0,1,A,2.1,3.4,3.4,2.1,3.3,3.3,2,3.3,3.6,2.1,3.3,3.4,2.17,3.49,3.59,2.15,3.3,3.1,2.15,3.5,3.4,47,2.2,2.1,3.55,3.34,3.7,3.36,42,2.05,1.93,1.93,1.84,28,-0.25,1.91,1.84,2.05,1.97
D2,31/10/15,Paderborn,Frankfurt FSV,1,1,D,1,0,H,1.67,4,4.75,1.7,3.7,4.6,1.7,3.6,4.7,1.7,3.6,4.75,1.78,3.87,4.93,1.7,3.6,4.5,1.73,4,4.75,45,1.77,1.7,4,3.73,5.16,4.65,39,1.85,1.77,2.11,2.01,26,-0.75,2.01,1.93,1.95,1.89
D2,01/11/15,Freiburg,Braunschweig,2,2,D,2,0,H,1.83,3.5,4.33,1.9,3.5,3.7,1.9,3.45,3.8,1.85,3.3,4.2,1.93,3.5,4.52,1.91,3.3,3.8,1.93,3.5,4.3,46,1.95,1.87,3.6,3.39,4.52,4.08,40,2.16,2.03,1.85,1.75,28,-0.5,1.96,1.88,2.01,1.93
D2,01/11/15,Munich 1860,Duisburg,1,0,H,0,0,D,1.8,3.5,4.5,1.85,3.5,3.9,1.8,3.5,4.2,1.8,3.3,4.5,1.81,3.57,5.16,1.8,3.3,4.33,1.83,3.5,4.8,46,1.85,1.78,3.57,3.41,5.16,4.53,40,2.23,2.11,1.77,1.69,28,-0.5,1.83,1.79,2.12,2.02
D2,01/11/15,Sandhausen,RB Leipzig,1,2,A,1,1,D,4.5,3.5,1.8,4.1,3.3,1.87,3.6,3.3,2,4,3.4,1.85,4.64,3.55,1.89,3.8,3.2,1.95,4.5,3.4,1.91,46,4.64,4.2,3.55,3.35,2,1.86,40,2.21,2.12,1.75,1.68,28,0.5,2.07,1.95,1.91,1.85
D2,02/11/15,Nurnberg,Karlsruhe,0,0,D,0,0,D,2.2,3.3,3.25,2.25,3.2,3.1,2.3,3.3,2.9,2.25,3.2,3.25,2.29,3.37,3.43,2.25,3.2,3,2.3,3.4,3.2,44,2.3,2.21,3.4,3.24,3.43,3.17,38,2.12,2.01,1.83,1.75,25,-0.25,2,1.92,1.97,1.89
D2,06/11/15,Frankfurt FSV,Sandhausen,0,1,A,0,0,D,2.9,3.1,2.5,2.65,3,2.7,2.4,3.2,2.85,2.75,3.1,2.62,2.86,3.28,2.7,2.6,3.1,2.6,2.88,3.25,2.6,41,2.9,2.72,3.28,3.13,2.85,2.6,35,2.25,2.14,1.74,1.68,24,0,2.04,1.95,1.91,1.85
D2,06/11/15,Greuther Furth,Bielefeld,0,0,D,0,0,D,2.4,3.3,2.9,2.3,3.1,3.1,2.3,3.3,2.9,2.4,3.1,3,2.48,3.29,3.16,2.15,3.2,3.2,2.45,3.3,3,42,2.5,2.35,3.35,3.18,3.25,3,36,2.25,2.13,1.8,1.69,23,-0.25,2.12,2.03,1.9,1.79
D2,06/11/15,Karlsruhe,Bochum,3,0,H,1,0,H,2.6,3.2,2.75,2.6,3.1,2.7,2.5,3.2,2.75,2.5,3.25,2.75,2.7,3.35,2.81,2.45,3.2,2.7,2.63,3.3,2.8,42,2.7,2.56,3.37,3.22,2.82,2.7,37,2.1,2.02,1.84,1.76,24,0,1.93,1.86,2,1.94
D2,07/11/15,Duisburg,Freiburg,1,1,D,1,0,H,4.5,3.75,1.73,4.2,3.5,1.8,4.5,3.5,1.75,4.33,3.6,1.8,4.75,3.75,1.83,4,3.5,1.8,4.5,3.75,1.8,42,4.85,4.34,3.75,3.58,1.83,1.77,36,1.96,1.89,1.95,1.88,21,0.75,1.85,1.81,2.09,2.01
D2,07/11/15,Union Berlin,Nurnberg,3,3,D,1,1,D,2.38,3.4,2.88,2.45,3.25,2.75,2.4,3.3,2.75,2.4,3.4,2.75,2.54,3.55,2.86,2.38,3.3,2.75,2.45,3.5,2.9,42,2.54,2.4,3.55,3.37,2.9,2.76,35,1.8,1.71,2.2,2.08,22,0,1.85,1.77,2.12,2.04
D2,08/11/15,Braunschweig,Munich 1860,0,0,D,0,0,D,2,3.4,3.75,2.05,3.4,3.4,1.9,3.45,3.8,2,3.3,3.8,2.05,3.45,4.04,2,3.2,3.6,2.05,3.4,3.9,41,2.05,1.98,3.45,3.27,4.04,3.76,34,2.25,2.15,1.75,1.67,23,-0.5,2.05,1.99,1.88,1.82
D2,08/11/15,Paderborn,Heidenheim,1,1,D,1,0,H,2.25,3.3,3.2,2.3,3.3,2.9,2.2,3.2,3.2,2.3,3.2,3.2,2.34,3.34,3.35,2.25,3.2,3,2.38,3.3,3.2,41,2.38,2.26,3.34,3.19,3.35,3.12,34,2.25,2.13,1.74,1.67,22,-0.25,2.03,1.96,1.93,1.86
D2,08/11/15,RB Leipzig,Kaiserslautern,0,2,A,0,1,A,1.73,3.6,4.75,1.75,3.6,4.33,1.7,3.6,4.7,1.73,3.5,5,1.75,3.73,5.37,1.7,3.4,4.8,1.75,3.7,5,41,1.78,1.72,3.73,3.52,5.37,4.73,35,2.19,2.09,1.8,1.71,22,-0.75,2.04,1.97,1.92,1.85
D2,09/11/15,St Pauli,Fortuna Dusseldorf,4,0,H,2,0,H,2.25,3.25,3.25,2.2,3.3,3.1,2,3.3,3.6,2.2,3.3,3.25,2.25,3.45,3.45,2.15,3.1,3.3,2.25,3.4,3.3,40,2.25,2.17,3.45,3.25,3.6,3.25,34,2.14,2.05,1.81,1.74,21,-0.25,1.95,1.89,1.99,1.92
D2,20/11/15,Bochum,Union Berlin,1,1,D,1,1,D,1.85,3.8,3.8,1.91,3.3,3.9,1.9,3.45,3.8,1.91,3.6,3.6,1.99,3.78,3.88,1.91,3.5,3.6,2,3.8,3.6,43,2,1.93,3.85,3.59,3.95,3.66,36,1.68,1.63,2.38,2.23,25,-0.5,2.01,1.95,1.92,1.87
D2,20/11/15,Fortuna Dusseldorf,Duisburg,1,1,D,0,0,D,1.83,3.4,4.5,1.8,3.4,4.3,1.8,3.5,4.2,1.85,3.4,4.33,1.89,3.55,4.65,1.73,3.4,4.6,1.87,3.6,4.4,43,1.9,1.82,3.7,3.41,4.7,4.35,37,2.15,2.04,1.87,1.75,25,-0.5,1.9,1.84,2.03,1.98
D2,20/11/15,Sandhausen,Karlsruhe,3,1,H,2,0,H,2.9,3.2,2.45,2.7,3.1,2.6,2.6,3.2,2.6,3,3,2.5,3.13,3.14,2.58,2.8,3,2.5,3,3.2,2.55,43,3.22,2.94,3.25,3.05,2.64,2.49,31,2.58,2.45,1.6,1.52,24,0,2.16,2.08,1.84,1.76
D2,21/11/15,Bielefeld,RB Leipzig,0,1,A,0,1,A,3.5,3.3,2.1,3.4,3.1,2.15,3.3,3.3,2.1,3.5,3.25,2.1,3.87,3.31,2.15,3.3,3.1,2.15,3.6,3.3,2.15,43,3.87,3.52,3.35,3.2,2.17,2.1,32,2.34,2.21,1.72,1.63,22,0.25,2.11,2.04,1.87,1.8
D2,21/11/15,Munich 1860,St Pauli,2,0,H,0,0,D,2.7,3.4,2.5,2.75,3,2.6,2.6,3.2,2.6,2.7,3.1,2.62,2.87,3.3,2.68,2.6,3,2.7,2.75,3.4,2.63,43,2.87,2.69,3.4,3.15,2.8,2.6,31,2.32,2.2,1.7,1.63,26,0,2.03,1.95,1.94,1.86
D2,22/11/15,Freiburg,Paderborn,4,1,H,3,0,H,1.8,3.3,4.75,1.87,3.5,3.9,1.8,3.5,4.2,1.85,3.5,4,1.93,3.7,4.24,1.91,3.3,3.8,1.9,3.7,4.1,42,1.92,1.86,3.7,3.46,4.75,4.05,37,1.98,1.85,2.02,1.91,24,-0.5,1.92,1.86,2.03,1.95
D2,22/11/15,Heidenheim,Greuther Furth,1,2,A,0,1,A,2.3,3.4,3,2.4,3.2,2.85,2.3,3.3,2.9,2.38,3.2,3,2.44,3.27,3.23,2.25,3.2,3,2.38,3.4,3.1,42,2.5,2.34,3.4,3.18,3.23,3,35,2.28,2.13,1.75,1.68,23,0,1.77,1.69,2.25,2.16
D2,22/11/15,Kaiserslautern,Frankfurt FSV,1,1,D,0,1,A,1.57,4.2,5.25,1.6,3.75,5.25,1.6,3.7,5.4,1.57,3.8,6,1.59,4.12,6.5,1.6,3.75,5,1.57,4.2,6,40,1.6,1.55,4.2,3.87,6.5,5.76,35,1.98,1.9,1.95,1.86,24,-1,2.08,1.98,1.9,1.84
D2,23/11/15,Nurnberg,Braunschweig,2,1,H,1,0,H,1.95,3.4,3.8,2.1,3.2,3.4,2.1,3.3,3.3,2,3.4,3.6,2.06,3.58,3.84,2,3.3,3.5,2.1,3.5,3.6,41,2.1,2.03,3.58,3.35,3.84,3.52,35,2.06,1.97,1.89,1.8,23,-0.5,2.12,2.03,1.86,1.79
