iteration	kellyBetNumber	probBetNumber	naiveBank	trainPrecision	naiveBetNumber	model	kellyBank	epoch	opt	modconfig	testRatio	TFconfig	testPrecision	kellyROI	naiveROI	probROI	probBank	threshold	db	nValidation	nTest	nTrain	log	option_file	shuffle	tStart	logPath	Tmax	Tmin	verbose
0	0	0	-4.36	0.64654600090849	16	RankingModel	0	1	{"threshold":30,"db":"db/wta_database","nTest":500,"tStart":"1990-01-01","nValidation":200,"verbose":"false","shuffle":"true","option_file":"__launches/22_May_2016_02:15:02_1.lua","logPath":"./results/tennis_wta","Tmax":"2060-01-01","Tmin":"2006-01-01","nTrain":80000}	{"stepEpoch":1,"module_name":"RankingModel","nClasses":2,"maxEpoch":3}	0.432	{"threshold":30,"dTrainStart":"2006-1-16","dTrainEnd":"2010-11-22","dTestEnd":"2010-11-8","dValidationEnd":"2010-12-6","nValidation":200,"tStart":"1990-01-01","shuffle":"true","nTrain":57238,"nTest":500}	0.61111111111111	0	-0.2725	0	0	30	db/wta_database	200	500	80000	[]	__launches/22_May_2016_02:15:02_1.lua	true	1990-01-01	./results/tennis_wta	2060-01-01	2006-01-01	false
1	0	0	-4.36	0.64654600090849	16	RankingModel	0	2	{"threshold":30,"db":"db/wta_database","nTest":500,"tStart":"1990-01-01","nValidation":200,"verbose":"false","shuffle":"true","option_file":"__launches/22_May_2016_02:15:02_1.lua","logPath":"./results/tennis_wta","Tmax":"2060-01-01","Tmin":"2006-01-01","nTrain":80000}	{"stepEpoch":1,"module_name":"RankingModel","nClasses":2,"maxEpoch":3}	0.432	{"threshold":30,"dTrainStart":"2006-1-16","dTrainEnd":"2010-11-22","dTestEnd":"2010-11-8","dValidationEnd":"2010-12-6","nValidation":200,"tStart":"1990-01-01","shuffle":"true","nTrain":57238,"nTest":500}	0.61111111111111	0	-0.2725	0	0	30	db/wta_database	200	500	80000	[]	__launches/22_May_2016_02:15:02_1.lua	true	1990-01-01	./results/tennis_wta	2060-01-01	2006-01-01	false
