iteration	epoch	opt	modconfig	testPrecision	naiveBetNumber	trainPrecision	TFconfig	naiveROI	trainLoss	naiveBank	model	testRatio	threshold	db	nValidation	nTest	nTrain	log	option_file	shuffle	tStart	logPath	Tmax	Tmin	verbose
0	5	{"threshold":30,"db":"db/wta_database","nTest":600,"tStart":"1990-01-01","nValidation":200,"verbose":"false","shuffle":"true","option_file":"__launches/22_May_2016_02:16:17_1.lua","logPath":"./results/tennis_wta","Tmax":"2060-01-01","Tmin":"2008-01-01","nTrain":80000}	{"jSize":30,"learningRate":0.001,"nClasses":2,"batchSize":50,"weightDecay":0,"alg":"adagrad","momentum":0,"initValues":0.1,"features":{"country":true,"age":true,"surface":true,"level":true,"round":true},"learningRateDecay":0}	0.50847457627119	176	0.53630117065368	{"threshold":30,"dTrainStart":"2008-1-1","dTrainEnd":"2011-6-13","dTestEnd":"2011-6-20","dValidationEnd":"2011-6-20","nValidation":200,"tStart":"1990-01-01","shuffle":"true","nTrain":55012,"nTest":600}	-0.25954545454545	0.69109324081765	-45.68	FeaturesSubModel	0.59	30	db/wta_database	200	600	80000	[]	__launches/22_May_2016_02:16:17_1.lua	true	1990-01-01	./results/tennis_wta	2060-01-01	2008-01-01	false
1	30	{"threshold":30,"db":"db/wta_database","nTest":600,"tStart":"1990-01-01","nValidation":200,"verbose":"false","shuffle":"true","option_file":"__launches/22_May_2016_02:16:17_1.lua","logPath":"./results/tennis_wta","Tmax":"2060-01-01","Tmin":"2008-01-01","nTrain":80000}	{"jSize":30,"learningRate":0.001,"nClasses":2,"batchSize":50,"weightDecay":0,"alg":"adagrad","momentum":0,"initValues":0.1,"features":{"country":true,"age":true,"surface":true,"level":true,"round":true},"learningRateDecay":0}	0.71751412429379	176	0.70680942339853	{"threshold":30,"dTrainStart":"2008-1-1","dTrainEnd":"2011-6-13","dTestEnd":"2011-6-20","dValidationEnd":"2011-6-20","nValidation":200,"tStart":"1990-01-01","shuffle":"true","nTrain":55012,"nTest":600}	0.20454545454546	0.6381633226884	36	FeaturesSubModel	0.59	30	db/wta_database	200	600	80000	[]	__launches/22_May_2016_02:16:17_1.lua	true	1990-01-01	./results/tennis_wta	2060-01-01	2008-01-01	false
2	55	{"threshold":30,"db":"db/wta_database","nTest":600,"tStart":"1990-01-01","nValidation":200,"verbose":"false","shuffle":"true","option_file":"__launches/22_May_2016_02:16:17_1.lua","logPath":"./results/tennis_wta","Tmax":"2060-01-01","Tmin":"2008-01-01","nTrain":80000}	{"jSize":30,"learningRate":0.001,"nClasses":2,"batchSize":50,"weightDecay":0,"alg":"adagrad","momentum":0,"initValues":0.1,"features":{"country":true,"age":true,"surface":true,"level":true,"round":true},"learningRateDecay":0}	0.94632768361582	176	0.92668872246055	{"threshold":30,"dTrainStart":"2008-1-1","dTrainEnd":"2011-6-13","dTestEnd":"2011-6-20","dValidationEnd":"2011-6-20","nValidation":200,"tStart":"1990-01-01","shuffle":"true","nTrain":55012,"nTest":600}	0.52744318181818	0.3966449306565	92.83	FeaturesSubModel	0.59	30	db/wta_database	200	600	80000	[]	__launches/22_May_2016_02:16:17_1.lua	true	1990-01-01	./results/tennis_wta	2060-01-01	2008-01-01	false
3	80	{"threshold":30,"db":"db/wta_database","nTest":600,"tStart":"1990-01-01","nValidation":200,"verbose":"false","shuffle":"true","option_file":"__launches/22_May_2016_02:16:17_1.lua","logPath":"./results/tennis_wta","Tmax":"2060-01-01","Tmin":"2008-01-01","nTrain":80000}	{"jSize":30,"learningRate":0.001,"nClasses":2,"batchSize":50,"weightDecay":0,"alg":"adagrad","momentum":0,"initValues":0.1,"features":{"country":true,"age":true,"surface":true,"level":true,"round":true},"learningRateDecay":0}	0.94915254237288	176	0.9439576819603	{"threshold":30,"dTrainStart":"2008-1-1","dTrainEnd":"2011-6-13","dTestEnd":"2011-6-20","dValidationEnd":"2011-6-20","nValidation":200,"tStart":"1990-01-01","shuffle":"true","nTrain":55012,"nTest":600}	0.52744318181818	0.37510069883684	92.83	FeaturesSubModel	0.59	30	db/wta_database	200	600	80000	[]	__launches/22_May_2016_02:16:17_1.lua	true	1990-01-01	./results/tennis_wta	2060-01-01	2008-01-01	false
4	105	{"threshold":30,"db":"db/wta_database","nTest":600,"tStart":"1990-01-01","nValidation":200,"verbose":"false","shuffle":"true","option_file":"__launches/22_May_2016_02:16:17_1.lua","logPath":"./results/tennis_wta","Tmax":"2060-01-01","Tmin":"2008-01-01","nTrain":80000}	{"jSize":30,"learningRate":0.001,"nClasses":2,"batchSize":50,"weightDecay":0,"alg":"adagrad","momentum":0,"initValues":0.1,"features":{"country":true,"age":true,"surface":true,"level":true,"round":true},"learningRateDecay":0}	0.95480225988701	176	0.94846578928234	{"threshold":30,"dTrainStart":"2008-1-1","dTrainEnd":"2011-6-13","dTestEnd":"2011-6-20","dValidationEnd":"2011-6-20","nValidation":200,"tStart":"1990-01-01","shuffle":"true","nTrain":55012,"nTest":600}	0.53676136363636	0.36946481545298	94.47	FeaturesSubModel	0.59	30	db/wta_database	200	600	80000	[]	__launches/22_May_2016_02:16:17_1.lua	true	1990-01-01	./results/tennis_wta	2060-01-01	2008-01-01	false
5	130	{"threshold":30,"db":"db/wta_database","nTest":600,"tStart":"1990-01-01","nValidation":200,"verbose":"false","shuffle":"true","option_file":"__launches/22_May_2016_02:16:17_1.lua","logPath":"./results/tennis_wta","Tmax":"2060-01-01","Tmin":"2008-01-01","nTrain":80000}	{"jSize":30,"learningRate":0.001,"nClasses":2,"batchSize":50,"weightDecay":0,"alg":"adagrad","momentum":0,"initValues":0.1,"features":{"country":true,"age":true,"surface":true,"level":true,"round":true},"learningRateDecay":0}	0.94915254237288	176	0.95142877917545	{"threshold":30,"dTrainStart":"2008-1-1","dTrainEnd":"2011-6-13","dTestEnd":"2011-6-20","dValidationEnd":"2011-6-20","nValidation":200,"tStart":"1990-01-01","shuffle":"true","nTrain":55012,"nTest":600}	0.53676136363636	0.36624240779737	94.47	FeaturesSubModel	0.59	30	db/wta_database	200	600	80000	[]	__launches/22_May_2016_02:16:17_1.lua	true	1990-01-01	./results/tennis_wta	2060-01-01	2008-01-01	false
6	155	{"threshold":30,"db":"db/wta_database","nTest":600,"tStart":"1990-01-01","nValidation":200,"verbose":"false","shuffle":"true","option_file":"__launches/22_May_2016_02:16:17_1.lua","logPath":"./results/tennis_wta","Tmax":"2060-01-01","Tmin":"2008-01-01","nTrain":80000}	{"jSize":30,"learningRate":0.001,"nClasses":2,"batchSize":50,"weightDecay":0,"alg":"adagrad","momentum":0,"initValues":0.1,"features":{"country":true,"age":true,"surface":true,"level":true,"round":true},"learningRateDecay":0}	0.94067796610169	176	0.95384643350542	{"threshold":30,"dTrainStart":"2008-1-1","dTrainEnd":"2011-6-13","dTestEnd":"2011-6-20","dValidationEnd":"2011-6-20","nValidation":200,"tStart":"1990-01-01","shuffle":"true","nTrain":55012,"nTest":600}	0.49869318181818	0.36412743079806	87.77	FeaturesSubModel	0.59	30	db/wta_database	200	600	80000	[]	__launches/22_May_2016_02:16:17_1.lua	true	1990-01-01	./results/tennis_wta	2060-01-01	2008-01-01	false
7	180	{"threshold":30,"db":"db/wta_database","nTest":600,"tStart":"1990-01-01","nValidation":200,"verbose":"false","shuffle":"true","option_file":"__launches/22_May_2016_02:16:17_1.lua","logPath":"./results/tennis_wta","Tmax":"2060-01-01","Tmin":"2008-01-01","nTrain":80000}	{"jSize":30,"learningRate":0.001,"nClasses":2,"batchSize":50,"weightDecay":0,"alg":"adagrad","momentum":0,"initValues":0.1,"features":{"country":true,"age":true,"surface":true,"level":true,"round":true},"learningRateDecay":0}	0.94067796610169	176	0.95479168181488	{"threshold":30,"dTrainStart":"2008-1-1","dTrainEnd":"2011-6-13","dTestEnd":"2011-6-20","dValidationEnd":"2011-6-20","nValidation":200,"tStart":"1990-01-01","shuffle":"true","nTrain":55012,"nTest":600}	0.50801136363636	0.3626817163056	89.41	FeaturesSubModel	0.59	30	db/wta_database	200	600	80000	[]	__launches/22_May_2016_02:16:17_1.lua	true	1990-01-01	./results/tennis_wta	2060-01-01	2008-01-01	false
8	205	{"threshold":30,"db":"db/wta_database","nTest":600,"tStart":"1990-01-01","nValidation":200,"verbose":"false","shuffle":"true","option_file":"__launches/22_May_2016_02:16:17_1.lua","logPath":"./results/tennis_wta","Tmax":"2060-01-01","Tmin":"2008-01-01","nTrain":80000}	{"jSize":30,"learningRate":0.001,"nClasses":2,"batchSize":50,"weightDecay":0,"alg":"adagrad","momentum":0,"initValues":0.1,"features":{"country":true,"age":true,"surface":true,"level":true,"round":true},"learningRateDecay":0}	0.93502824858757	176	0.95515523885698	{"threshold":30,"dTrainStart":"2008-1-1","dTrainEnd":"2011-6-13","dTestEnd":"2011-6-20","dValidationEnd":"2011-6-20","nValidation":200,"tStart":"1990-01-01","shuffle":"true","nTrain":55012,"nTest":600}	0.49136363636364	0.36165522203987	86.48	FeaturesSubModel	0.59	30	db/wta_database	200	600	80000	[]	__launches/22_May_2016_02:16:17_1.lua	true	1990-01-01	./results/tennis_wta	2060-01-01	2008-01-01	false
9	230	{"threshold":30,"db":"db/wta_database","nTest":600,"tStart":"1990-01-01","nValidation":200,"verbose":"false","shuffle":"true","option_file":"__launches/22_May_2016_02:16:17_1.lua","logPath":"./results/tennis_wta","Tmax":"2060-01-01","Tmin":"2008-01-01","nTrain":80000}	{"jSize":30,"learningRate":0.001,"nClasses":2,"batchSize":50,"weightDecay":0,"alg":"adagrad","momentum":0,"initValues":0.1,"features":{"country":true,"age":true,"surface":true,"level":true,"round":true},"learningRateDecay":0}	0.93220338983051	176	0.95613684287065	{"threshold":30,"dTrainStart":"2008-1-1","dTrainEnd":"2011-6-13","dTestEnd":"2011-6-20","dValidationEnd":"2011-6-20","nValidation":200,"tStart":"1990-01-01","shuffle":"true","nTrain":55012,"nTest":600}	0.49869318181818	0.36077528952454	87.77	FeaturesSubModel	0.59	30	db/wta_database	200	600	80000	[]	__launches/22_May_2016_02:16:17_1.lua	true	1990-01-01	./results/tennis_wta	2060-01-01	2008-01-01	false
10	255	{"threshold":30,"db":"db/wta_database","nTest":600,"tStart":"1990-01-01","nValidation":200,"verbose":"false","shuffle":"true","option_file":"__launches/22_May_2016_02:16:17_1.lua","logPath":"./results/tennis_wta","Tmax":"2060-01-01","Tmin":"2008-01-01","nTrain":80000}	{"jSize":30,"learningRate":0.001,"nClasses":2,"batchSize":50,"weightDecay":0,"alg":"adagrad","momentum":0,"initValues":0.1,"features":{"country":true,"age":true,"surface":true,"level":true,"round":true},"learningRateDecay":0}	0.93220338983051	176	0.95640951065222	{"threshold":30,"dTrainStart":"2008-1-1","dTrainEnd":"2011-6-13","dTestEnd":"2011-6-20","dValidationEnd":"2011-6-20","nValidation":200,"tStart":"1990-01-01","shuffle":"true","nTrain":55012,"nTest":600}	0.48875	0.359987446167	86.02	FeaturesSubModel	0.59	30	db/wta_database	200	600	80000	[]	__launches/22_May_2016_02:16:17_1.lua	true	1990-01-01	./results/tennis_wta	2060-01-01	2008-01-01	false
11	280	{"threshold":30,"db":"db/wta_database","nTest":600,"tStart":"1990-01-01","nValidation":200,"verbose":"false","shuffle":"true","option_file":"__launches/22_May_2016_02:16:17_1.lua","logPath":"./results/tennis_wta","Tmax":"2060-01-01","Tmin":"2008-01-01","nTrain":80000}	{"jSize":30,"learningRate":0.001,"nClasses":2,"batchSize":50,"weightDecay":0,"alg":"adagrad","momentum":0,"initValues":0.1,"features":{"country":true,"age":true,"surface":true,"level":true,"round":true},"learningRateDecay":0}	0.93220338983051	176	0.95682760125064	{"threshold":30,"dTrainStart":"2008-1-1","dTrainEnd":"2011-6-13","dTestEnd":"2011-6-20","dValidationEnd":"2011-6-20","nValidation":200,"tStart":"1990-01-01","shuffle":"true","nTrain":55012,"nTest":600}	0.49198863636364	0.35939426626656	86.59	FeaturesSubModel	0.59	30	db/wta_database	200	600	80000	[]	__launches/22_May_2016_02:16:17_1.lua	true	1990-01-01	./results/tennis_wta	2060-01-01	2008-01-01	false
12	305	{"threshold":30,"db":"db/wta_database","nTest":600,"tStart":"1990-01-01","nValidation":200,"verbose":"false","shuffle":"true","option_file":"__launches/22_May_2016_02:16:17_1.lua","logPath":"./results/tennis_wta","Tmax":"2060-01-01","Tmin":"2008-01-01","nTrain":80000}	{"jSize":30,"learningRate":0.001,"nClasses":2,"batchSize":50,"weightDecay":0,"alg":"adagrad","momentum":0,"initValues":0.1,"features":{"country":true,"age":true,"surface":true,"level":true,"round":true},"learningRateDecay":0}	0.92655367231638	176	0.95731840325747	{"threshold":30,"dTrainStart":"2008-1-1","dTrainEnd":"2011-6-13","dTestEnd":"2011-6-20","dValidationEnd":"2011-6-20","nValidation":200,"tStart":"1990-01-01","shuffle":"true","nTrain":55012,"nTest":600}	0.48204545454546	0.35864107836699	84.84	FeaturesSubModel	0.59	30	db/wta_database	200	600	80000	[]	__launches/22_May_2016_02:16:17_1.lua	true	1990-01-01	./results/tennis_wta	2060-01-01	2008-01-01	false
13	330	{"threshold":30,"db":"db/wta_database","nTest":600,"tStart":"1990-01-01","nValidation":200,"verbose":"false","shuffle":"true","option_file":"__launches/22_May_2016_02:16:17_1.lua","logPath":"./results/tennis_wta","Tmax":"2060-01-01","Tmin":"2008-01-01","nTrain":80000}	{"jSize":30,"learningRate":0.001,"nClasses":2,"batchSize":50,"weightDecay":0,"alg":"adagrad","momentum":0,"initValues":0.1,"features":{"country":true,"age":true,"surface":true,"level":true,"round":true},"learningRateDecay":0}	0.92372881355932	176	0.9577910274122	{"threshold":30,"dTrainStart":"2008-1-1","dTrainEnd":"2011-6-13","dTestEnd":"2011-6-20","dValidationEnd":"2011-6-20","nValidation":200,"tStart":"1990-01-01","shuffle":"true","nTrain":55012,"nTest":600}	0.48204545454546	0.35816647315278	84.84	FeaturesSubModel	0.59	30	db/wta_database	200	600	80000	[]	__launches/22_May_2016_02:16:17_1.lua	true	1990-01-01	./results/tennis_wta	2060-01-01	2008-01-01	false
14	355	{"threshold":30,"db":"db/wta_database","nTest":600,"tStart":"1990-01-01","nValidation":200,"verbose":"false","shuffle":"true","option_file":"__launches/22_May_2016_02:16:17_1.lua","logPath":"./results/tennis_wta","Tmax":"2060-01-01","Tmin":"2008-01-01","nTrain":80000}	{"jSize":30,"learningRate":0.001,"nClasses":2,"batchSize":50,"weightDecay":0,"alg":"adagrad","momentum":0,"initValues":0.1,"features":{"country":true,"age":true,"surface":true,"level":true,"round":true},"learningRateDecay":0}	0.92937853107345	176	0.95802733948957	{"threshold":30,"dTrainStart":"2008-1-1","dTrainEnd":"2011-6-13","dTestEnd":"2011-6-20","dValidationEnd":"2011-6-20","nValidation":200,"tStart":"1990-01-01","shuffle":"true","nTrain":55012,"nTest":600}	0.48875	0.35776471795578	86.02	FeaturesSubModel	0.59	30	db/wta_database	200	600	80000	[]	__launches/22_May_2016_02:16:17_1.lua	true	1990-01-01	./results/tennis_wta	2060-01-01	2008-01-01	false
15	380	{"threshold":30,"db":"db/wta_database","nTest":600,"tStart":"1990-01-01","nValidation":200,"verbose":"false","shuffle":"true","option_file":"__launches/22_May_2016_02:16:17_1.lua","logPath":"./results/tennis_wta","Tmax":"2060-01-01","Tmin":"2008-01-01","nTrain":80000}	{"jSize":30,"learningRate":0.001,"nClasses":2,"batchSize":50,"weightDecay":0,"alg":"adagrad","momentum":0,"initValues":0.1,"features":{"country":true,"age":true,"surface":true,"level":true,"round":true},"learningRateDecay":0}	0.92655367231638	176	0.95855449720061	{"threshold":30,"dTrainStart":"2008-1-1","dTrainEnd":"2011-6-13","dTestEnd":"2011-6-20","dValidationEnd":"2011-6-20","nValidation":200,"tStart":"1990-01-01","shuffle":"true","nTrain":55012,"nTest":600}	0.49198863636364	0.35719796471379	86.59	FeaturesSubModel	0.59	30	db/wta_database	200	600	80000	[]	__launches/22_May_2016_02:16:17_1.lua	true	1990-01-01	./results/tennis_wta	2060-01-01	2008-01-01	false
16	405	{"threshold":30,"db":"db/wta_database","nTest":600,"tStart":"1990-01-01","nValidation":200,"verbose":"false","shuffle":"true","option_file":"__launches/22_May_2016_02:16:17_1.lua","logPath":"./results/tennis_wta","Tmax":"2060-01-01","Tmin":"2008-01-01","nTrain":80000}	{"jSize":30,"learningRate":0.001,"nClasses":2,"batchSize":50,"weightDecay":0,"alg":"adagrad","momentum":0,"initValues":0.1,"features":{"country":true,"age":true,"surface":true,"level":true,"round":true},"learningRateDecay":0}	0.93220338983051	176	0.95860903075693	{"threshold":30,"dTrainStart":"2008-1-1","dTrainEnd":"2011-6-13","dTestEnd":"2011-6-20","dValidationEnd":"2011-6-20","nValidation":200,"tStart":"1990-01-01","shuffle":"true","nTrain":55012,"nTest":600}	0.48875	0.35676161138084	86.02	FeaturesSubModel	0.59	30	db/wta_database	200	600	80000	[]	__launches/22_May_2016_02:16:17_1.lua	true	1990-01-01	./results/tennis_wta	2060-01-01	2008-01-01	false
17	430	{"threshold":30,"db":"db/wta_database","nTest":600,"tStart":"1990-01-01","nValidation":200,"verbose":"false","shuffle":"true","option_file":"__launches/22_May_2016_02:16:17_1.lua","logPath":"./results/tennis_wta","Tmax":"2060-01-01","Tmin":"2008-01-01","nTrain":80000}	{"jSize":30,"learningRate":0.001,"nClasses":2,"batchSize":50,"weightDecay":0,"alg":"adagrad","momentum":0,"initValues":0.1,"features":{"country":true,"age":true,"surface":true,"level":true,"round":true},"learningRateDecay":0}	0.92937853107345	176	0.95889987639061	{"threshold":30,"dTrainStart":"2008-1-1","dTrainEnd":"2011-6-13","dTestEnd":"2011-6-20","dValidationEnd":"2011-6-20","nValidation":200,"tStart":"1990-01-01","shuffle":"true","nTrain":55012,"nTest":600}	0.48875	0.35636750198672	86.02	FeaturesSubModel	0.59	30	db/wta_database	200	600	80000	[]	__launches/22_May_2016_02:16:17_1.lua	true	1990-01-01	./results/tennis_wta	2060-01-01	2008-01-01	false
18	455	{"threshold":30,"db":"db/wta_database","nTest":600,"tStart":"1990-01-01","nValidation":200,"verbose":"false","shuffle":"true","option_file":"__launches/22_May_2016_02:16:17_1.lua","logPath":"./results/tennis_wta","Tmax":"2060-01-01","Tmin":"2008-01-01","nTrain":80000}	{"jSize":30,"learningRate":0.001,"nClasses":2,"batchSize":50,"weightDecay":0,"alg":"adagrad","momentum":0,"initValues":0.1,"features":{"country":true,"age":true,"surface":true,"level":true,"round":true},"learningRateDecay":0}	0.92937853107345	176	0.95920889987639	{"threshold":30,"dTrainStart":"2008-1-1","dTrainEnd":"2011-6-13","dTestEnd":"2011-6-20","dValidationEnd":"2011-6-20","nValidation":200,"tStart":"1990-01-01","shuffle":"true","nTrain":55012,"nTest":600}	0.49869318181818	0.3562054202307	87.77	FeaturesSubModel	0.59	30	db/wta_database	200	600	80000	[]	__launches/22_May_2016_02:16:17_1.lua	true	1990-01-01	./results/tennis_wta	2060-01-01	2008-01-01	false
19	480	{"threshold":30,"db":"db/wta_database","nTest":600,"tStart":"1990-01-01","nValidation":200,"verbose":"false","shuffle":"true","option_file":"__launches/22_May_2016_02:16:17_1.lua","logPath":"./results/tennis_wta","Tmax":"2060-01-01","Tmin":"2008-01-01","nTrain":80000}	{"jSize":30,"learningRate":0.001,"nClasses":2,"batchSize":50,"weightDecay":0,"alg":"adagrad","momentum":0,"initValues":0.1,"features":{"country":true,"age":true,"surface":true,"level":true,"round":true},"learningRateDecay":0}	0.92937853107345	176	0.95911801061587	{"threshold":30,"dTrainStart":"2008-1-1","dTrainEnd":"2011-6-13","dTestEnd":"2011-6-20","dValidationEnd":"2011-6-20","nValidation":200,"tStart":"1990-01-01","shuffle":"true","nTrain":55012,"nTest":600}	0.49869318181818	0.35562206196291	87.77	FeaturesSubModel	0.59	30	db/wta_database	200	600	80000	[]	__launches/22_May_2016_02:16:17_1.lua	true	1990-01-01	./results/tennis_wta	2060-01-01	2008-01-01	false
20	505	{"threshold":30,"db":"db/wta_database","nTest":600,"tStart":"1990-01-01","nValidation":200,"verbose":"false","shuffle":"true","option_file":"__launches/22_May_2016_02:16:17_1.lua","logPath":"./results/tennis_wta","Tmax":"2060-01-01","Tmin":"2008-01-01","nTrain":80000}	{"jSize":30,"learningRate":0.001,"nClasses":2,"batchSize":50,"weightDecay":0,"alg":"adagrad","momentum":0,"initValues":0.1,"features":{"country":true,"age":true,"surface":true,"level":true,"round":true},"learningRateDecay":0}	0.92372881355932	176	0.95931796698902	{"threshold":30,"dTrainStart":"2008-1-1","dTrainEnd":"2011-6-13","dTestEnd":"2011-6-20","dValidationEnd":"2011-6-20","nValidation":200,"tStart":"1990-01-01","shuffle":"true","nTrain":55012,"nTest":600}	0.48204545454546	0.35546003324735	84.84	FeaturesSubModel	0.59	30	db/wta_database	200	600	80000	[]	__launches/22_May_2016_02:16:17_1.lua	true	1990-01-01	./results/tennis_wta	2060-01-01	2008-01-01	false
21	530	{"threshold":30,"db":"db/wta_database","nTest":600,"tStart":"1990-01-01","nValidation":200,"verbose":"false","shuffle":"true","option_file":"__launches/22_May_2016_02:16:17_1.lua","logPath":"./results/tennis_wta","Tmax":"2060-01-01","Tmin":"2008-01-01","nTrain":80000}	{"jSize":30,"learningRate":0.001,"nClasses":2,"batchSize":50,"weightDecay":0,"alg":"adagrad","momentum":0,"initValues":0.1,"features":{"country":true,"age":true,"surface":true,"level":true,"round":true},"learningRateDecay":0}	0.92372881355932	176	0.95931796698902	{"threshold":30,"dTrainStart":"2008-1-1","dTrainEnd":"2011-6-13","dTestEnd":"2011-6-20","dValidationEnd":"2011-6-20","nValidation":200,"tStart":"1990-01-01","shuffle":"true","nTrain":55012,"nTest":600}	0.48204545454546	0.35526770917662	84.84	FeaturesSubModel	0.59	30	db/wta_database	200	600	80000	[]	__launches/22_May_2016_02:16:17_1.lua	true	1990-01-01	./results/tennis_wta	2060-01-01	2008-01-01	false
22	555	{"threshold":30,"db":"db/wta_database","nTest":600,"tStart":"1990-01-01","nValidation":200,"verbose":"false","shuffle":"true","option_file":"__launches/22_May_2016_02:16:17_1.lua","logPath":"./results/tennis_wta","Tmax":"2060-01-01","Tmin":"2008-01-01","nTrain":80000}	{"jSize":30,"learningRate":0.001,"nClasses":2,"batchSize":50,"weightDecay":0,"alg":"adagrad","momentum":0,"initValues":0.1,"features":{"country":true,"age":true,"surface":true,"level":true,"round":true},"learningRateDecay":0}	0.92937853107345	176	0.95968152403112	{"threshold":30,"dTrainStart":"2008-1-1","dTrainEnd":"2011-6-13","dTestEnd":"2011-6-20","dValidationEnd":"2011-6-20","nValidation":200,"tStart":"1990-01-01","shuffle":"true","nTrain":55012,"nTest":600}	0.49869318181818	0.35490052422103	87.77	FeaturesSubModel	0.59	30	db/wta_database	200	600	80000	[]	__launches/22_May_2016_02:16:17_1.lua	true	1990-01-01	./results/tennis_wta	2060-01-01	2008-01-01	false
23	580	{"threshold":30,"db":"db/wta_database","nTest":600,"tStart":"1990-01-01","nValidation":200,"verbose":"false","shuffle":"true","option_file":"__launches/22_May_2016_02:16:17_1.lua","logPath":"./results/tennis_wta","Tmax":"2060-01-01","Tmin":"2008-01-01","nTrain":80000}	{"jSize":30,"learningRate":0.001,"nClasses":2,"batchSize":50,"weightDecay":0,"alg":"adagrad","momentum":0,"initValues":0.1,"features":{"country":true,"age":true,"surface":true,"level":true,"round":true},"learningRateDecay":0}	0.92090395480226	176	0.95986330255217	{"threshold":30,"dTrainStart":"2008-1-1","dTrainEnd":"2011-6-13","dTestEnd":"2011-6-20","dValidationEnd":"2011-6-20","nValidation":200,"tStart":"1990-01-01","shuffle":"true","nTrain":55012,"nTest":600}	0.48204545454546	0.35477903792031	84.84	FeaturesSubModel	0.59	30	db/wta_database	200	600	80000	[]	__launches/22_May_2016_02:16:17_1.lua	true	1990-01-01	./results/tennis_wta	2060-01-01	2008-01-01	false
24	605	{"threshold":30,"db":"db/wta_database","nTest":600,"tStart":"1990-01-01","nValidation":200,"verbose":"false","shuffle":"true","option_file":"__launches/22_May_2016_02:16:17_1.lua","logPath":"./results/tennis_wta","Tmax":"2060-01-01","Tmin":"2008-01-01","nTrain":80000}	{"jSize":30,"learningRate":0.001,"nClasses":2,"batchSize":50,"weightDecay":0,"alg":"adagrad","momentum":0,"initValues":0.1,"features":{"country":true,"age":true,"surface":true,"level":true,"round":true},"learningRateDecay":0}	0.92655367231638	176	0.96002690322112	{"threshold":30,"dTrainStart":"2008-1-1","dTrainEnd":"2011-6-13","dTestEnd":"2011-6-20","dValidationEnd":"2011-6-20","nValidation":200,"tStart":"1990-01-01","shuffle":"true","nTrain":55012,"nTest":600}	0.49869318181818	0.35448014603327	87.77	FeaturesSubModel	0.59	30	db/wta_database	200	600	80000	[]	__launches/22_May_2016_02:16:17_1.lua	true	1990-01-01	./results/tennis_wta	2060-01-01	2008-01-01	false
25	630	{"threshold":30,"db":"db/wta_database","nTest":600,"tStart":"1990-01-01","nValidation":200,"verbose":"false","shuffle":"true","option_file":"__launches/22_May_2016_02:16:17_1.lua","logPath":"./results/tennis_wta","Tmax":"2060-01-01","Tmin":"2008-01-01","nTrain":80000}	{"jSize":30,"learningRate":0.001,"nClasses":2,"batchSize":50,"weightDecay":0,"alg":"adagrad","momentum":0,"initValues":0.1,"features":{"country":true,"age":true,"surface":true,"level":true,"round":true},"learningRateDecay":0}	0.92937853107345	176	0.96004508107322	{"threshold":30,"dTrainStart":"2008-1-1","dTrainEnd":"2011-6-13","dTestEnd":"2011-6-20","dValidationEnd":"2011-6-20","nValidation":200,"tStart":"1990-01-01","shuffle":"true","nTrain":55012,"nTest":600}	0.51846590909091	0.35456989228665	91.25	FeaturesSubModel	0.59	30	db/wta_database	200	600	80000	[]	__launches/22_May_2016_02:16:17_1.lua	true	1990-01-01	./results/tennis_wta	2060-01-01	2008-01-01	false
26	655	{"threshold":30,"db":"db/wta_database","nTest":600,"tStart":"1990-01-01","nValidation":200,"verbose":"false","shuffle":"true","option_file":"__launches/22_May_2016_02:16:17_1.lua","logPath":"./results/tennis_wta","Tmax":"2060-01-01","Tmin":"2008-01-01","nTrain":80000}	{"jSize":30,"learningRate":0.001,"nClasses":2,"batchSize":50,"weightDecay":0,"alg":"adagrad","momentum":0,"initValues":0.1,"features":{"country":true,"age":true,"surface":true,"level":true,"round":true},"learningRateDecay":0}	0.92655367231638	176	0.9599723696648	{"threshold":30,"dTrainStart":"2008-1-1","dTrainEnd":"2011-6-13","dTestEnd":"2011-6-20","dValidationEnd":"2011-6-20","nValidation":200,"tStart":"1990-01-01","shuffle":"true","nTrain":55012,"nTest":600}	0.49806818181818	0.35406447695227	87.66	FeaturesSubModel	0.59	30	db/wta_database	200	600	80000	[]	__launches/22_May_2016_02:16:17_1.lua	true	1990-01-01	./results/tennis_wta	2060-01-01	2008-01-01	false
27	680	{"threshold":30,"db":"db/wta_database","nTest":600,"tStart":"1990-01-01","nValidation":200,"verbose":"false","shuffle":"true","option_file":"__launches/22_May_2016_02:16:17_1.lua","logPath":"./results/tennis_wta","Tmax":"2060-01-01","Tmin":"2008-01-01","nTrain":80000}	{"jSize":30,"learningRate":0.001,"nClasses":2,"batchSize":50,"weightDecay":0,"alg":"adagrad","momentum":0,"initValues":0.1,"features":{"country":true,"age":true,"surface":true,"level":true,"round":true},"learningRateDecay":0}	0.92655367231638	176	0.96037228241111	{"threshold":30,"dTrainStart":"2008-1-1","dTrainEnd":"2011-6-13","dTestEnd":"2011-6-20","dValidationEnd":"2011-6-20","nValidation":200,"tStart":"1990-01-01","shuffle":"true","nTrain":55012,"nTest":600}	0.51153409090909	0.35397479949391	90.03	FeaturesSubModel	0.59	30	db/wta_database	200	600	80000	[]	__launches/22_May_2016_02:16:17_1.lua	true	1990-01-01	./results/tennis_wta	2060-01-01	2008-01-01	false
28	705	{"threshold":30,"db":"db/wta_database","nTest":600,"tStart":"1990-01-01","nValidation":200,"verbose":"false","shuffle":"true","option_file":"__launches/22_May_2016_02:16:17_1.lua","logPath":"./results/tennis_wta","Tmax":"2060-01-01","Tmin":"2008-01-01","nTrain":80000}	{"jSize":30,"learningRate":0.001,"nClasses":2,"batchSize":50,"weightDecay":0,"alg":"adagrad","momentum":0,"initValues":0.1,"features":{"country":true,"age":true,"surface":true,"level":true,"round":true},"learningRateDecay":0}	0.92372881355932	176	0.96037228241111	{"threshold":30,"dTrainStart":"2008-1-1","dTrainEnd":"2011-6-13","dTestEnd":"2011-6-20","dValidationEnd":"2011-6-20","nValidation":200,"tStart":"1990-01-01","shuffle":"true","nTrain":55012,"nTest":600}	0.49176136363636	0.35381794666383	86.55	FeaturesSubModel	0.59	30	db/wta_database	200	600	80000	[]	__launches/22_May_2016_02:16:17_1.lua	true	1990-01-01	./results/tennis_wta	2060-01-01	2008-01-01	false
29	730	{"threshold":30,"db":"db/wta_database","nTest":600,"tStart":"1990-01-01","nValidation":200,"verbose":"false","shuffle":"true","option_file":"__launches/22_May_2016_02:16:17_1.lua","logPath":"./results/tennis_wta","Tmax":"2060-01-01","Tmin":"2008-01-01","nTrain":80000}	{"jSize":30,"learningRate":0.001,"nClasses":2,"batchSize":50,"weightDecay":0,"alg":"adagrad","momentum":0,"initValues":0.1,"features":{"country":true,"age":true,"surface":true,"level":true,"round":true},"learningRateDecay":0}	0.92090395480226	176	0.96051770522795	{"threshold":30,"dTrainStart":"2008-1-1","dTrainEnd":"2011-6-13","dTestEnd":"2011-6-20","dValidationEnd":"2011-6-20","nValidation":200,"tStart":"1990-01-01","shuffle":"true","nTrain":55012,"nTest":600}	0.48505681818182	0.35379768087372	85.37	FeaturesSubModel	0.59	30	db/wta_database	200	600	80000	[]	__launches/22_May_2016_02:16:17_1.lua	true	1990-01-01	./results/tennis_wta	2060-01-01	2008-01-01	false
30	755	{"threshold":30,"db":"db/wta_database","nTest":600,"tStart":"1990-01-01","nValidation":200,"verbose":"false","shuffle":"true","option_file":"__launches/22_May_2016_02:16:17_1.lua","logPath":"./results/tennis_wta","Tmax":"2060-01-01","Tmin":"2008-01-01","nTrain":80000}	{"jSize":30,"learningRate":0.001,"nClasses":2,"batchSize":50,"weightDecay":0,"alg":"adagrad","momentum":0,"initValues":0.1,"features":{"country":true,"age":true,"surface":true,"level":true,"round":true},"learningRateDecay":0}	0.92372881355932	176	0.96060859448848	{"threshold":30,"dTrainStart":"2008-1-1","dTrainEnd":"2011-6-13","dTestEnd":"2011-6-20","dValidationEnd":"2011-6-20","nValidation":200,"tStart":"1990-01-01","shuffle":"true","nTrain":55012,"nTest":600}	0.50159090909091	0.35365884178103	88.28	FeaturesSubModel	0.59	30	db/wta_database	200	600	80000	[]	__launches/22_May_2016_02:16:17_1.lua	true	1990-01-01	./results/tennis_wta	2060-01-01	2008-01-01	false
31	780	{"threshold":30,"db":"db/wta_database","nTest":600,"tStart":"1990-01-01","nValidation":200,"verbose":"false","shuffle":"true","option_file":"__launches/22_May_2016_02:16:17_1.lua","logPath":"./results/tennis_wta","Tmax":"2060-01-01","Tmin":"2008-01-01","nTrain":80000}	{"jSize":30,"learningRate":0.001,"nClasses":2,"batchSize":50,"weightDecay":0,"alg":"adagrad","momentum":0,"initValues":0.1,"features":{"country":true,"age":true,"surface":true,"level":true,"round":true},"learningRateDecay":0}	0.92372881355932	176	0.960699483749	{"threshold":30,"dTrainStart":"2008-1-1","dTrainEnd":"2011-6-13","dTestEnd":"2011-6-20","dValidationEnd":"2011-6-20","nValidation":200,"tStart":"1990-01-01","shuffle":"true","nTrain":55012,"nTest":600}	0.49176136363636	0.35336834452982	86.55	FeaturesSubModel	0.59	30	db/wta_database	200	600	80000	[]	__launches/22_May_2016_02:16:17_1.lua	true	1990-01-01	./results/tennis_wta	2060-01-01	2008-01-01	false
32	805	{"threshold":30,"db":"db/wta_database","nTest":600,"tStart":"1990-01-01","nValidation":200,"verbose":"false","shuffle":"true","option_file":"__launches/22_May_2016_02:16:17_1.lua","logPath":"./results/tennis_wta","Tmax":"2060-01-01","Tmin":"2008-01-01","nTrain":80000}	{"jSize":30,"learningRate":0.001,"nClasses":2,"batchSize":50,"weightDecay":0,"alg":"adagrad","momentum":0,"initValues":0.1,"features":{"country":true,"age":true,"surface":true,"level":true,"round":true},"learningRateDecay":0}	0.92090395480226	176	0.96109939649531	{"threshold":30,"dTrainStart":"2008-1-1","dTrainEnd":"2011-6-13","dTestEnd":"2011-6-20","dValidationEnd":"2011-6-20","nValidation":200,"tStart":"1990-01-01","shuffle":"true","nTrain":55012,"nTest":600}	0.48181818181818	0.35324487542989	84.8	FeaturesSubModel	0.59	30	db/wta_database	200	600	80000	[]	__launches/22_May_2016_02:16:17_1.lua	true	1990-01-01	./results/tennis_wta	2060-01-01	2008-01-01	false
33	830	{"threshold":30,"db":"db/wta_database","nTest":600,"tStart":"1990-01-01","nValidation":200,"verbose":"false","shuffle":"true","option_file":"__launches/22_May_2016_02:16:17_1.lua","logPath":"./results/tennis_wta","Tmax":"2060-01-01","Tmin":"2008-01-01","nTrain":80000}	{"jSize":30,"learningRate":0.001,"nClasses":2,"batchSize":50,"weightDecay":0,"alg":"adagrad","momentum":0,"initValues":0.1,"features":{"country":true,"age":true,"surface":true,"level":true,"round":true},"learningRateDecay":0}	0.92655367231638	176	0.96082672871374	{"threshold":30,"dTrainStart":"2008-1-1","dTrainEnd":"2011-6-13","dTestEnd":"2011-6-20","dValidationEnd":"2011-6-20","nValidation":200,"tStart":"1990-01-01","shuffle":"true","nTrain":55012,"nTest":600}	0.51153409090909	0.35318128421247	90.03	FeaturesSubModel	0.59	30	db/wta_database	200	600	80000	[]	__launches/22_May_2016_02:16:17_1.lua	true	1990-01-01	./results/tennis_wta	2060-01-01	2008-01-01	false
34	855	{"threshold":30,"db":"db/wta_database","nTest":600,"tStart":"1990-01-01","nValidation":200,"verbose":"false","shuffle":"true","option_file":"__launches/22_May_2016_02:16:17_1.lua","logPath":"./results/tennis_wta","Tmax":"2060-01-01","Tmin":"2008-01-01","nTrain":80000}	{"jSize":30,"learningRate":0.001,"nClasses":2,"batchSize":50,"weightDecay":0,"alg":"adagrad","momentum":0,"initValues":0.1,"features":{"country":true,"age":true,"surface":true,"level":true,"round":true},"learningRateDecay":0}	0.92372881355932	176	0.96111757434742	{"threshold":30,"dTrainStart":"2008-1-1","dTrainEnd":"2011-6-13","dTestEnd":"2011-6-20","dValidationEnd":"2011-6-20","nValidation":200,"tStart":"1990-01-01","shuffle":"true","nTrain":55012,"nTest":600}	0.48181818181818	0.35298075827189	84.8	FeaturesSubModel	0.59	30	db/wta_database	200	600	80000	[]	__launches/22_May_2016_02:16:17_1.lua	true	1990-01-01	./results/tennis_wta	2060-01-01	2008-01-01	false
35	880	{"threshold":30,"db":"db/wta_database","nTest":600,"tStart":"1990-01-01","nValidation":200,"verbose":"false","shuffle":"true","option_file":"__launches/22_May_2016_02:16:17_1.lua","logPath":"./results/tennis_wta","Tmax":"2060-01-01","Tmin":"2008-01-01","nTrain":80000}	{"jSize":30,"learningRate":0.001,"nClasses":2,"batchSize":50,"weightDecay":0,"alg":"adagrad","momentum":0,"initValues":0.1,"features":{"country":true,"age":true,"surface":true,"level":true,"round":true},"learningRateDecay":0}	0.92655367231638	176	0.96097215153058	{"threshold":30,"dTrainStart":"2008-1-1","dTrainEnd":"2011-6-13","dTestEnd":"2011-6-20","dValidationEnd":"2011-6-20","nValidation":200,"tStart":"1990-01-01","shuffle":"true","nTrain":55012,"nTest":600}	0.51153409090909	0.35291118589617	90.03	FeaturesSubModel	0.59	30	db/wta_database	200	600	80000	[]	__launches/22_May_2016_02:16:17_1.lua	true	1990-01-01	./results/tennis_wta	2060-01-01	2008-01-01	false
36	905	{"threshold":30,"db":"db/wta_database","nTest":600,"tStart":"1990-01-01","nValidation":200,"verbose":"false","shuffle":"true","option_file":"__launches/22_May_2016_02:16:17_1.lua","logPath":"./results/tennis_wta","Tmax":"2060-01-01","Tmin":"2008-01-01","nTrain":80000}	{"jSize":30,"learningRate":0.001,"nClasses":2,"batchSize":50,"weightDecay":0,"alg":"adagrad","momentum":0,"initValues":0.1,"features":{"country":true,"age":true,"surface":true,"level":true,"round":true},"learningRateDecay":0}	0.92090395480226	176	0.96117210790373	{"threshold":30,"dTrainStart":"2008-1-1","dTrainEnd":"2011-6-13","dTestEnd":"2011-6-20","dValidationEnd":"2011-6-20","nValidation":200,"tStart":"1990-01-01","shuffle":"true","nTrain":55012,"nTest":600}	0.47875	0.35279633303342	84.26	FeaturesSubModel	0.59	30	db/wta_database	200	600	80000	[]	__launches/22_May_2016_02:16:17_1.lua	true	1990-01-01	./results/tennis_wta	2060-01-01	2008-01-01	false
37	930	{"threshold":30,"db":"db/wta_database","nTest":600,"tStart":"1990-01-01","nValidation":200,"verbose":"false","shuffle":"true","option_file":"__launches/22_May_2016_02:16:17_1.lua","logPath":"./results/tennis_wta","Tmax":"2060-01-01","Tmin":"2008-01-01","nTrain":80000}	{"jSize":30,"learningRate":0.001,"nClasses":2,"batchSize":50,"weightDecay":0,"alg":"adagrad","momentum":0,"initValues":0.1,"features":{"country":true,"age":true,"surface":true,"level":true,"round":true},"learningRateDecay":0}	0.92372881355932	176	0.96126299716426	{"threshold":30,"dTrainStart":"2008-1-1","dTrainEnd":"2011-6-13","dTestEnd":"2011-6-20","dValidationEnd":"2011-6-20","nValidation":200,"tStart":"1990-01-01","shuffle":"true","nTrain":55012,"nTest":600}	0.49914772727273	0.35251838408844	87.85	FeaturesSubModel	0.59	30	db/wta_database	200	600	80000	[]	__launches/22_May_2016_02:16:17_1.lua	true	1990-01-01	./results/tennis_wta	2060-01-01	2008-01-01	false
38	955	{"threshold":30,"db":"db/wta_database","nTest":600,"tStart":"1990-01-01","nValidation":200,"verbose":"false","shuffle":"true","option_file":"__launches/22_May_2016_02:16:17_1.lua","logPath":"./results/tennis_wta","Tmax":"2060-01-01","Tmin":"2008-01-01","nTrain":80000}	{"jSize":30,"learningRate":0.001,"nClasses":2,"batchSize":50,"weightDecay":0,"alg":"adagrad","momentum":0,"initValues":0.1,"features":{"country":true,"age":true,"surface":true,"level":true,"round":true},"learningRateDecay":0}	0.92372881355932	176	0.96129935286847	{"threshold":30,"dTrainStart":"2008-1-1","dTrainEnd":"2011-6-13","dTestEnd":"2011-6-20","dValidationEnd":"2011-6-20","nValidation":200,"tStart":"1990-01-01","shuffle":"true","nTrain":55012,"nTest":600}	0.48869318181818	0.35246432509394	86.01	FeaturesSubModel	0.59	30	db/wta_database	200	600	80000	[]	__launches/22_May_2016_02:16:17_1.lua	true	1990-01-01	./results/tennis_wta	2060-01-01	2008-01-01	false
39	980	{"threshold":30,"db":"db/wta_database","nTest":600,"tStart":"1990-01-01","nValidation":200,"verbose":"false","shuffle":"true","option_file":"__launches/22_May_2016_02:16:17_1.lua","logPath":"./results/tennis_wta","Tmax":"2060-01-01","Tmin":"2008-01-01","nTrain":80000}	{"jSize":30,"learningRate":0.001,"nClasses":2,"batchSize":50,"weightDecay":0,"alg":"adagrad","momentum":0,"initValues":0.1,"features":{"country":true,"age":true,"surface":true,"level":true,"round":true},"learningRateDecay":0}	0.92372881355932	176	0.96149930924162	{"threshold":30,"dTrainStart":"2008-1-1","dTrainEnd":"2011-6-13","dTestEnd":"2011-6-20","dValidationEnd":"2011-6-20","nValidation":200,"tStart":"1990-01-01","shuffle":"true","nTrain":55012,"nTest":600}	0.49852272727273	0.35237837411647	87.74	FeaturesSubModel	0.59	30	db/wta_database	200	600	80000	[]	__launches/22_May_2016_02:16:17_1.lua	true	1990-01-01	./results/tennis_wta	2060-01-01	2008-01-01	false
40	1005	{"threshold":30,"db":"db/wta_database","nTest":600,"tStart":"1990-01-01","nValidation":200,"verbose":"false","shuffle":"true","option_file":"__launches/22_May_2016_02:16:17_1.lua","logPath":"./results/tennis_wta","Tmax":"2060-01-01","Tmin":"2008-01-01","nTrain":80000}	{"jSize":30,"learningRate":0.001,"nClasses":2,"batchSize":50,"weightDecay":0,"alg":"adagrad","momentum":0,"initValues":0.1,"features":{"country":true,"age":true,"surface":true,"level":true,"round":true},"learningRateDecay":0}	0.92372881355932	176	0.9614265978332	{"threshold":30,"dTrainStart":"2008-1-1","dTrainEnd":"2011-6-13","dTestEnd":"2011-6-20","dValidationEnd":"2011-6-20","nValidation":200,"tStart":"1990-01-01","shuffle":"true","nTrain":55012,"nTest":600}	0.47875	0.3523331684443	84.26	FeaturesSubModel	0.59	30	db/wta_database	200	600	80000	[]	__launches/22_May_2016_02:16:17_1.lua	true	1990-01-01	./results/tennis_wta	2060-01-01	2008-01-01	false
41	1030	{"threshold":30,"db":"db/wta_database","nTest":600,"tStart":"1990-01-01","nValidation":200,"verbose":"false","shuffle":"true","option_file":"__launches/22_May_2016_02:16:17_1.lua","logPath":"./results/tennis_wta","Tmax":"2060-01-01","Tmin":"2008-01-01","nTrain":80000}	{"jSize":30,"learningRate":0.001,"nClasses":2,"batchSize":50,"weightDecay":0,"alg":"adagrad","momentum":0,"initValues":0.1,"features":{"country":true,"age":true,"surface":true,"level":true,"round":true},"learningRateDecay":0}	0.92090395480226	176	0.96153566494583	{"threshold":30,"dTrainStart":"2008-1-1","dTrainEnd":"2011-6-13","dTestEnd":"2011-6-20","dValidationEnd":"2011-6-20","nValidation":200,"tStart":"1990-01-01","shuffle":"true","nTrain":55012,"nTest":600}	0.48920454545455	0.35234112584375	86.1	FeaturesSubModel	0.59	30	db/wta_database	200	600	80000	[]	__launches/22_May_2016_02:16:17_1.lua	true	1990-01-01	./results/tennis_wta	2060-01-01	2008-01-01	false
42	1055	{"threshold":30,"db":"db/wta_database","nTest":600,"tStart":"1990-01-01","nValidation":200,"verbose":"false","shuffle":"true","option_file":"__launches/22_May_2016_02:16:17_1.lua","logPath":"./results/tennis_wta","Tmax":"2060-01-01","Tmin":"2008-01-01","nTrain":80000}	{"jSize":30,"learningRate":0.001,"nClasses":2,"batchSize":50,"weightDecay":0,"alg":"adagrad","momentum":0,"initValues":0.1,"features":{"country":true,"age":true,"surface":true,"level":true,"round":true},"learningRateDecay":0}	0.92090395480226	176	0.96159019850214	{"threshold":30,"dTrainStart":"2008-1-1","dTrainEnd":"2011-6-13","dTestEnd":"2011-6-20","dValidationEnd":"2011-6-20","nValidation":200,"tStart":"1990-01-01","shuffle":"true","nTrain":55012,"nTest":600}	0.48505681818182	0.35224712446037	85.37	FeaturesSubModel	0.59	30	db/wta_database	200	600	80000	[]	__launches/22_May_2016_02:16:17_1.lua	true	1990-01-01	./results/tennis_wta	2060-01-01	2008-01-01	false
43	1080	{"threshold":30,"db":"db/wta_database","nTest":600,"tStart":"1990-01-01","nValidation":200,"verbose":"false","shuffle":"true","option_file":"__launches/22_May_2016_02:16:17_1.lua","logPath":"./results/tennis_wta","Tmax":"2060-01-01","Tmin":"2008-01-01","nTrain":80000}	{"jSize":30,"learningRate":0.001,"nClasses":2,"batchSize":50,"weightDecay":0,"alg":"adagrad","momentum":0,"initValues":0.1,"features":{"country":true,"age":true,"surface":true,"level":true,"round":true},"learningRateDecay":0}	0.91525423728814	176	0.96177197702319	{"threshold":30,"dTrainStart":"2008-1-1","dTrainEnd":"2011-6-13","dTestEnd":"2011-6-20","dValidationEnd":"2011-6-20","nValidation":200,"tStart":"1990-01-01","shuffle":"true","nTrain":55012,"nTest":600}	0.46272727272727	0.35212145371053	81.44	FeaturesSubModel	0.59	30	db/wta_database	200	600	80000	[]	__launches/22_May_2016_02:16:17_1.lua	true	1990-01-01	./results/tennis_wta	2060-01-01	2008-01-01	false
44	1105	{"threshold":30,"db":"db/wta_database","nTest":600,"tStart":"1990-01-01","nValidation":200,"verbose":"false","shuffle":"true","option_file":"__launches/22_May_2016_02:16:17_1.lua","logPath":"./results/tennis_wta","Tmax":"2060-01-01","Tmin":"2008-01-01","nTrain":80000}	{"jSize":30,"learningRate":0.001,"nClasses":2,"batchSize":50,"weightDecay":0,"alg":"adagrad","momentum":0,"initValues":0.1,"features":{"country":true,"age":true,"surface":true,"level":true,"round":true},"learningRateDecay":0}	0.9180790960452	176	0.96164473205846	{"threshold":30,"dTrainStart":"2008-1-1","dTrainEnd":"2011-6-13","dTestEnd":"2011-6-20","dValidationEnd":"2011-6-20","nValidation":200,"tStart":"1990-01-01","shuffle":"true","nTrain":55012,"nTest":600}	0.4825	0.35206426087002	84.92	FeaturesSubModel	0.59	30	db/wta_database	200	600	80000	[]	__launches/22_May_2016_02:16:17_1.lua	true	1990-01-01	./results/tennis_wta	2060-01-01	2008-01-01	false
45	1130	{"threshold":30,"db":"db/wta_database","nTest":600,"tStart":"1990-01-01","nValidation":200,"verbose":"false","shuffle":"true","option_file":"__launches/22_May_2016_02:16:17_1.lua","logPath":"./results/tennis_wta","Tmax":"2060-01-01","Tmin":"2008-01-01","nTrain":80000}	{"jSize":30,"learningRate":0.001,"nClasses":2,"batchSize":50,"weightDecay":0,"alg":"adagrad","momentum":0,"initValues":0.1,"features":{"country":true,"age":true,"surface":true,"level":true,"round":true},"learningRateDecay":0}	0.92372881355932	176	0.96175379917109	{"threshold":30,"dTrainStart":"2008-1-1","dTrainEnd":"2011-6-13","dTestEnd":"2011-6-20","dValidationEnd":"2011-6-20","nValidation":200,"tStart":"1990-01-01","shuffle":"true","nTrain":55012,"nTest":600}	0.48869318181818	0.35193314152811	86.01	FeaturesSubModel	0.59	30	db/wta_database	200	600	80000	[]	__launches/22_May_2016_02:16:17_1.lua	true	1990-01-01	./results/tennis_wta	2060-01-01	2008-01-01	false
46	1155	{"threshold":30,"db":"db/wta_database","nTest":600,"tStart":"1990-01-01","nValidation":200,"verbose":"false","shuffle":"true","option_file":"__launches/22_May_2016_02:16:17_1.lua","logPath":"./results/tennis_wta","Tmax":"2060-01-01","Tmin":"2008-01-01","nTrain":80000}	{"jSize":30,"learningRate":0.001,"nClasses":2,"batchSize":50,"weightDecay":0,"alg":"adagrad","momentum":0,"initValues":0.1,"features":{"country":true,"age":true,"surface":true,"level":true,"round":true},"learningRateDecay":0}	0.91525423728814	176	0.96186286628372	{"threshold":30,"dTrainStart":"2008-1-1","dTrainEnd":"2011-6-13","dTestEnd":"2011-6-20","dValidationEnd":"2011-6-20","nValidation":200,"tStart":"1990-01-01","shuffle":"true","nTrain":55012,"nTest":600}	0.46272727272727	0.35171890858048	81.44	FeaturesSubModel	0.59	30	db/wta_database	200	600	80000	[]	__launches/22_May_2016_02:16:17_1.lua	true	1990-01-01	./results/tennis_wta	2060-01-01	2008-01-01	false
47	1180	{"threshold":30,"db":"db/wta_database","nTest":600,"tStart":"1990-01-01","nValidation":200,"verbose":"false","shuffle":"true","option_file":"__launches/22_May_2016_02:16:17_1.lua","logPath":"./results/tennis_wta","Tmax":"2060-01-01","Tmin":"2008-01-01","nTrain":80000}	{"jSize":30,"learningRate":0.001,"nClasses":2,"batchSize":50,"weightDecay":0,"alg":"adagrad","momentum":0,"initValues":0.1,"features":{"country":true,"age":true,"surface":true,"level":true,"round":true},"learningRateDecay":0}	0.92090395480226	176	0.96173562131898	{"threshold":30,"dTrainStart":"2008-1-1","dTrainEnd":"2011-6-13","dTestEnd":"2011-6-20","dValidationEnd":"2011-6-20","nValidation":200,"tStart":"1990-01-01","shuffle":"true","nTrain":55012,"nTest":600}	0.48198863636364	0.3517899718575	84.83	FeaturesSubModel	0.59	30	db/wta_database	200	600	80000	[]	__launches/22_May_2016_02:16:17_1.lua	true	1990-01-01	./results/tennis_wta	2060-01-01	2008-01-01	false
48	1205	{"threshold":30,"db":"db/wta_database","nTest":600,"tStart":"1990-01-01","nValidation":200,"verbose":"false","shuffle":"true","option_file":"__launches/22_May_2016_02:16:17_1.lua","logPath":"./results/tennis_wta","Tmax":"2060-01-01","Tmin":"2008-01-01","nTrain":80000}	{"jSize":30,"learningRate":0.001,"nClasses":2,"batchSize":50,"weightDecay":0,"alg":"adagrad","momentum":0,"initValues":0.1,"features":{"country":true,"age":true,"surface":true,"level":true,"round":true},"learningRateDecay":0}	0.92372881355932	176	0.96188104413582	{"threshold":30,"dTrainStart":"2008-1-1","dTrainEnd":"2011-6-13","dTestEnd":"2011-6-20","dValidationEnd":"2011-6-20","nValidation":200,"tStart":"1990-01-01","shuffle":"true","nTrain":55012,"nTest":600}	0.49181818181818	0.35168165876434	86.56	FeaturesSubModel	0.59	30	db/wta_database	200	600	80000	[]	__launches/22_May_2016_02:16:17_1.lua	true	1990-01-01	./results/tennis_wta	2060-01-01	2008-01-01	false
49	1230	{"threshold":30,"db":"db/wta_database","nTest":600,"tStart":"1990-01-01","nValidation":200,"verbose":"false","shuffle":"true","option_file":"__launches/22_May_2016_02:16:17_1.lua","logPath":"./results/tennis_wta","Tmax":"2060-01-01","Tmin":"2008-01-01","nTrain":80000}	{"jSize":30,"learningRate":0.001,"nClasses":2,"batchSize":50,"weightDecay":0,"alg":"adagrad","momentum":0,"initValues":0.1,"features":{"country":true,"age":true,"surface":true,"level":true,"round":true},"learningRateDecay":0}	0.92655367231638	176	0.96199011124845	{"threshold":30,"dTrainStart":"2008-1-1","dTrainEnd":"2011-6-13","dTestEnd":"2011-6-20","dValidationEnd":"2011-6-20","nValidation":200,"tStart":"1990-01-01","shuffle":"true","nTrain":55012,"nTest":600}	0.48869318181818	0.35169009583466	86.01	FeaturesSubModel	0.59	30	db/wta_database	200	600	80000	[]	__launches/22_May_2016_02:16:17_1.lua	true	1990-01-01	./results/tennis_wta	2060-01-01	2008-01-01	false
50	1255	{"threshold":30,"db":"db/wta_database","nTest":600,"tStart":"1990-01-01","nValidation":200,"verbose":"false","shuffle":"true","option_file":"__launches/22_May_2016_02:16:17_1.lua","logPath":"./results/tennis_wta","Tmax":"2060-01-01","Tmin":"2008-01-01","nTrain":80000}	{"jSize":30,"learningRate":0.001,"nClasses":2,"batchSize":50,"weightDecay":0,"alg":"adagrad","momentum":0,"initValues":0.1,"features":{"country":true,"age":true,"surface":true,"level":true,"round":true},"learningRateDecay":0}	0.92372881355932	176	0.96193557769214	{"threshold":30,"dTrainStart":"2008-1-1","dTrainEnd":"2011-6-13","dTestEnd":"2011-6-20","dValidationEnd":"2011-6-20","nValidation":200,"tStart":"1990-01-01","shuffle":"true","nTrain":55012,"nTest":600}	0.49852272727273	0.35162323245097	87.74	FeaturesSubModel	0.59	30	db/wta_database	200	600	80000	[]	__launches/22_May_2016_02:16:17_1.lua	true	1990-01-01	./results/tennis_wta	2060-01-01	2008-01-01	false
51	1280	{"threshold":30,"db":"db/wta_database","nTest":600,"tStart":"1990-01-01","nValidation":200,"verbose":"false","shuffle":"true","option_file":"__launches/22_May_2016_02:16:17_1.lua","logPath":"./results/tennis_wta","Tmax":"2060-01-01","Tmin":"2008-01-01","nTrain":80000}	{"jSize":30,"learningRate":0.001,"nClasses":2,"batchSize":50,"weightDecay":0,"alg":"adagrad","momentum":0,"initValues":0.1,"features":{"country":true,"age":true,"surface":true,"level":true,"round":true},"learningRateDecay":0}	0.92655367231638	176	0.96195375554424	{"threshold":30,"dTrainStart":"2008-1-1","dTrainEnd":"2011-6-13","dTestEnd":"2011-6-20","dValidationEnd":"2011-6-20","nValidation":200,"tStart":"1990-01-01","shuffle":"true","nTrain":55012,"nTest":600}	0.49852272727273	0.35154731049219	87.74	FeaturesSubModel	0.59	30	db/wta_database	200	600	80000	[]	__launches/22_May_2016_02:16:17_1.lua	true	1990-01-01	./results/tennis_wta	2060-01-01	2008-01-01	false
52	1305	{"threshold":30,"db":"db/wta_database","nTest":600,"tStart":"1990-01-01","nValidation":200,"verbose":"false","shuffle":"true","option_file":"__launches/22_May_2016_02:16:17_1.lua","logPath":"./results/tennis_wta","Tmax":"2060-01-01","Tmin":"2008-01-01","nTrain":80000}	{"jSize":30,"learningRate":0.001,"nClasses":2,"batchSize":50,"weightDecay":0,"alg":"adagrad","momentum":0,"initValues":0.1,"features":{"country":true,"age":true,"surface":true,"level":true,"round":true},"learningRateDecay":0}	0.92655367231638	176	0.96199011124845	{"threshold":30,"dTrainStart":"2008-1-1","dTrainEnd":"2011-6-13","dTestEnd":"2011-6-20","dValidationEnd":"2011-6-20","nValidation":200,"tStart":"1990-01-01","shuffle":"true","nTrain":55012,"nTest":600}	0.50846590909091	0.35163005864436	89.49	FeaturesSubModel	0.59	30	db/wta_database	200	600	80000	[]	__launches/22_May_2016_02:16:17_1.lua	true	1990-01-01	./results/tennis_wta	2060-01-01	2008-01-01	false
53	1330	{"threshold":30,"db":"db/wta_database","nTest":600,"tStart":"1990-01-01","nValidation":200,"verbose":"false","shuffle":"true","option_file":"__launches/22_May_2016_02:16:17_1.lua","logPath":"./results/tennis_wta","Tmax":"2060-01-01","Tmin":"2008-01-01","nTrain":80000}	{"jSize":30,"learningRate":0.001,"nClasses":2,"batchSize":50,"weightDecay":0,"alg":"adagrad","momentum":0,"initValues":0.1,"features":{"country":true,"age":true,"surface":true,"level":true,"round":true},"learningRateDecay":0}	0.92655367231638	176	0.96195375554424	{"threshold":30,"dTrainStart":"2008-1-1","dTrainEnd":"2011-6-13","dTestEnd":"2011-6-20","dValidationEnd":"2011-6-20","nValidation":200,"tStart":"1990-01-01","shuffle":"true","nTrain":55012,"nTest":600}	0.50846590909091	0.35158501893669	89.49	FeaturesSubModel	0.59	30	db/wta_database	200	600	80000	[]	__launches/22_May_2016_02:16:17_1.lua	true	1990-01-01	./results/tennis_wta	2060-01-01	2008-01-01	false
54	1355	{"threshold":30,"db":"db/wta_database","nTest":600,"tStart":"1990-01-01","nValidation":200,"verbose":"false","shuffle":"true","option_file":"__launches/22_May_2016_02:16:17_1.lua","logPath":"./results/tennis_wta","Tmax":"2060-01-01","Tmin":"2008-01-01","nTrain":80000}	{"jSize":30,"learningRate":0.001,"nClasses":2,"batchSize":50,"weightDecay":0,"alg":"adagrad","momentum":0,"initValues":0.1,"features":{"country":true,"age":true,"surface":true,"level":true,"round":true},"learningRateDecay":0}	0.92372881355932	176	0.96197193339635	{"threshold":30,"dTrainStart":"2008-1-1","dTrainEnd":"2011-6-13","dTestEnd":"2011-6-20","dValidationEnd":"2011-6-20","nValidation":200,"tStart":"1990-01-01","shuffle":"true","nTrain":55012,"nTest":600}	0.48869318181818	0.35159107818124	86.01	FeaturesSubModel	0.59	30	db/wta_database	200	600	80000	[]	__launches/22_May_2016_02:16:17_1.lua	true	1990-01-01	./results/tennis_wta	2060-01-01	2008-01-01	false
55	1380	{"threshold":30,"db":"db/wta_database","nTest":600,"tStart":"1990-01-01","nValidation":200,"verbose":"false","shuffle":"true","option_file":"__launches/22_May_2016_02:16:17_1.lua","logPath":"./results/tennis_wta","Tmax":"2060-01-01","Tmin":"2008-01-01","nTrain":80000}	{"jSize":30,"learningRate":0.001,"nClasses":2,"batchSize":50,"weightDecay":0,"alg":"adagrad","momentum":0,"initValues":0.1,"features":{"country":true,"age":true,"surface":true,"level":true,"round":true},"learningRateDecay":0}	0.92372881355932	176	0.96200828910056	{"threshold":30,"dTrainStart":"2008-1-1","dTrainEnd":"2011-6-13","dTestEnd":"2011-6-20","dValidationEnd":"2011-6-20","nValidation":200,"tStart":"1990-01-01","shuffle":"true","nTrain":55012,"nTest":600}	0.49852272727273	0.35148912412458	87.74	FeaturesSubModel	0.59	30	db/wta_database	200	600	80000	[]	__launches/22_May_2016_02:16:17_1.lua	true	1990-01-01	./results/tennis_wta	2060-01-01	2008-01-01	false
56	1405	{"threshold":30,"db":"db/wta_database","nTest":600,"tStart":"1990-01-01","nValidation":200,"verbose":"false","shuffle":"true","option_file":"__launches/22_May_2016_02:16:17_1.lua","logPath":"./results/tennis_wta","Tmax":"2060-01-01","Tmin":"2008-01-01","nTrain":80000}	{"jSize":30,"learningRate":0.001,"nClasses":2,"batchSize":50,"weightDecay":0,"alg":"adagrad","momentum":0,"initValues":0.1,"features":{"country":true,"age":true,"surface":true,"level":true,"round":true},"learningRateDecay":0}	0.92655367231638	176	0.96195375554424	{"threshold":30,"dTrainStart":"2008-1-1","dTrainEnd":"2011-6-13","dTestEnd":"2011-6-20","dValidationEnd":"2011-6-20","nValidation":200,"tStart":"1990-01-01","shuffle":"true","nTrain":55012,"nTest":600}	0.50846590909091	0.35150041202708	89.49	FeaturesSubModel	0.59	30	db/wta_database	200	600	80000	[]	__launches/22_May_2016_02:16:17_1.lua	true	1990-01-01	./results/tennis_wta	2060-01-01	2008-01-01	false
57	1430	{"threshold":30,"db":"db/wta_database","nTest":600,"tStart":"1990-01-01","nValidation":200,"verbose":"false","shuffle":"true","option_file":"__launches/22_May_2016_02:16:17_1.lua","logPath":"./results/tennis_wta","Tmax":"2060-01-01","Tmin":"2008-01-01","nTrain":80000}	{"jSize":30,"learningRate":0.001,"nClasses":2,"batchSize":50,"weightDecay":0,"alg":"adagrad","momentum":0,"initValues":0.1,"features":{"country":true,"age":true,"surface":true,"level":true,"round":true},"learningRateDecay":0}	0.92655367231638	176	0.96195375554424	{"threshold":30,"dTrainStart":"2008-1-1","dTrainEnd":"2011-6-13","dTestEnd":"2011-6-20","dValidationEnd":"2011-6-20","nValidation":200,"tStart":"1990-01-01","shuffle":"true","nTrain":55012,"nTest":600}	0.50846590909091	0.35143002966651	89.49	FeaturesSubModel	0.59	30	db/wta_database	200	600	80000	[]	__launches/22_May_2016_02:16:17_1.lua	true	1990-01-01	./results/tennis_wta	2060-01-01	2008-01-01	false
58	1455	{"threshold":30,"db":"db/wta_database","nTest":600,"tStart":"1990-01-01","nValidation":200,"verbose":"false","shuffle":"true","option_file":"__launches/22_May_2016_02:16:17_1.lua","logPath":"./results/tennis_wta","Tmax":"2060-01-01","Tmin":"2008-01-01","nTrain":80000}	{"jSize":30,"learningRate":0.001,"nClasses":2,"batchSize":50,"weightDecay":0,"alg":"adagrad","momentum":0,"initValues":0.1,"features":{"country":true,"age":true,"surface":true,"level":true,"round":true},"learningRateDecay":0}	0.92655367231638	176	0.96200828910056	{"threshold":30,"dTrainStart":"2008-1-1","dTrainEnd":"2011-6-13","dTestEnd":"2011-6-20","dValidationEnd":"2011-6-20","nValidation":200,"tStart":"1990-01-01","shuffle":"true","nTrain":55012,"nTest":600}	0.50846590909091	0.35147678726781	89.49	FeaturesSubModel	0.59	30	db/wta_database	200	600	80000	[]	__launches/22_May_2016_02:16:17_1.lua	true	1990-01-01	./results/tennis_wta	2060-01-01	2008-01-01	false
