iteration	epoch	opt	modconfig	testPrecision	naiveBetNumber	trainPrecision	TFconfig	naiveROI	trainLoss	naiveBank	model	testRatio	threshold	db	nValidation	nTest	nTrain	log	option_file	shuffle	tStart	logPath	Tmax	Tmin	verbose
0	5	{"threshold":30,"db":"db/wta_database","nTest":600,"tStart":"1990-01-01","nValidation":200,"verbose":"false","shuffle":"true","option_file":"__launches/22_May_2016_02:16:22_1.lua","logPath":"./results/tennis_wta","Tmax":"2060-01-01","Tmin":"2010-01-01","nTrain":80000}	{"jSize":30,"learningRate":0.001,"nClasses":2,"batchSize":50,"alg":"adagrad","model":"MatrixFactBiModel","momentum":0,"initValues":0.1,"weightDecay":0,"learningRateDecay":0}	0.57429718875502	68	0.70378691278564	{"threshold":30,"dTrainStart":"2010-1-11","dTrainEnd":"2012-6-18","dTestEnd":"2012-6-18","dValidationEnd":"2012-6-18","nValidation":200,"tStart":"1990-01-01","shuffle":"true","nTrain":49407,"nTest":600}	-0.21235294117647	0.61964691057024	-14.44	MatrixFactBiModel	0.415	30	db/wta_database	200	600	80000	[]	__launches/22_May_2016_02:16:22_1.lua	true	1990-01-01	./results/tennis_wta	2060-01-01	2010-01-01	false
1	30	{"threshold":30,"db":"db/wta_database","nTest":600,"tStart":"1990-01-01","nValidation":200,"verbose":"false","shuffle":"true","option_file":"__launches/22_May_2016_02:16:22_1.lua","logPath":"./results/tennis_wta","Tmax":"2060-01-01","Tmin":"2010-01-01","nTrain":80000}	{"jSize":30,"learningRate":0.001,"nClasses":2,"batchSize":50,"alg":"adagrad","model":"MatrixFactBiModel","momentum":0,"initValues":0.1,"weightDecay":0,"learningRateDecay":0}	0.59437751004016	68	0.71827878640678	{"threshold":30,"dTrainStart":"2010-1-11","dTrainEnd":"2012-6-18","dTestEnd":"2012-6-18","dValidationEnd":"2012-6-18","nValidation":200,"tStart":"1990-01-01","shuffle":"true","nTrain":49407,"nTest":600}	-0.14941176470588	0.60361650688837	-10.16	MatrixFactBiModel	0.415	30	db/wta_database	200	600	80000	[]	__launches/22_May_2016_02:16:22_1.lua	true	1990-01-01	./results/tennis_wta	2060-01-01	2010-01-01	false
2	55	{"threshold":30,"db":"db/wta_database","nTest":600,"tStart":"1990-01-01","nValidation":200,"verbose":"false","shuffle":"true","option_file":"__launches/22_May_2016_02:16:22_1.lua","logPath":"./results/tennis_wta","Tmax":"2060-01-01","Tmin":"2010-01-01","nTrain":80000}	{"jSize":30,"learningRate":0.001,"nClasses":2,"batchSize":50,"alg":"adagrad","model":"MatrixFactBiModel","momentum":0,"initValues":0.1,"weightDecay":0,"learningRateDecay":0}	0.59437751004016	68	0.72358167870949	{"threshold":30,"dTrainStart":"2010-1-11","dTrainEnd":"2012-6-18","dTestEnd":"2012-6-18","dValidationEnd":"2012-6-18","nValidation":200,"tStart":"1990-01-01","shuffle":"true","nTrain":49407,"nTest":600}	-0.17279411764706	0.59271519143346	-11.75	MatrixFactBiModel	0.415	30	db/wta_database	200	600	80000	[]	__launches/22_May_2016_02:16:22_1.lua	true	1990-01-01	./results/tennis_wta	2060-01-01	2010-01-01	false
3	80	{"threshold":30,"db":"db/wta_database","nTest":600,"tStart":"1990-01-01","nValidation":200,"verbose":"false","shuffle":"true","option_file":"__launches/22_May_2016_02:16:22_1.lua","logPath":"./results/tennis_wta","Tmax":"2060-01-01","Tmin":"2010-01-01","nTrain":80000}	{"jSize":30,"learningRate":0.001,"nClasses":2,"batchSize":50,"alg":"adagrad","model":"MatrixFactBiModel","momentum":0,"initValues":0.1,"weightDecay":0,"learningRateDecay":0}	0.63052208835341	68	0.73218369866618	{"threshold":30,"dTrainStart":"2010-1-11","dTrainEnd":"2012-6-18","dTestEnd":"2012-6-18","dValidationEnd":"2012-6-18","nValidation":200,"tStart":"1990-01-01","shuffle":"true","nTrain":49407,"nTest":600}	-0.10014705882353	0.58744611630665	-6.81	MatrixFactBiModel	0.415	30	db/wta_database	200	600	80000	[]	__launches/22_May_2016_02:16:22_1.lua	true	1990-01-01	./results/tennis_wta	2060-01-01	2010-01-01	false
4	105	{"threshold":30,"db":"db/wta_database","nTest":600,"tStart":"1990-01-01","nValidation":200,"verbose":"false","shuffle":"true","option_file":"__launches/22_May_2016_02:16:22_1.lua","logPath":"./results/tennis_wta","Tmax":"2060-01-01","Tmin":"2010-01-01","nTrain":80000}	{"jSize":30,"learningRate":0.001,"nClasses":2,"batchSize":50,"alg":"adagrad","model":"MatrixFactBiModel","momentum":0,"initValues":0.1,"weightDecay":0,"learningRateDecay":0}	0.60642570281124	68	0.73704130993584	{"threshold":30,"dTrainStart":"2010-1-11","dTrainEnd":"2012-6-18","dTestEnd":"2012-6-18","dValidationEnd":"2012-6-18","nValidation":200,"tStart":"1990-01-01","shuffle":"true","nTrain":49407,"nTest":600}	-0.076323529411765	0.58242810067866	-5.19	MatrixFactBiModel	0.415	30	db/wta_database	200	600	80000	[]	__launches/22_May_2016_02:16:22_1.lua	true	1990-01-01	./results/tennis_wta	2060-01-01	2010-01-01	false
5	130	{"threshold":30,"db":"db/wta_database","nTest":600,"tStart":"1990-01-01","nValidation":200,"verbose":"false","shuffle":"true","option_file":"__launches/22_May_2016_02:16:22_1.lua","logPath":"./results/tennis_wta","Tmax":"2060-01-01","Tmin":"2010-01-01","nTrain":80000}	{"jSize":30,"learningRate":0.001,"nClasses":2,"batchSize":50,"alg":"adagrad","model":"MatrixFactBiModel","momentum":0,"initValues":0.1,"weightDecay":0,"learningRateDecay":0}	0.58232931726908	68	0.74238468233246	{"threshold":30,"dTrainStart":"2010-1-11","dTrainEnd":"2012-6-18","dTestEnd":"2012-6-18","dValidationEnd":"2012-6-18","nValidation":200,"tStart":"1990-01-01","shuffle":"true","nTrain":49407,"nTest":600}	-0.13602941176471	0.57608306559969	-9.25	MatrixFactBiModel	0.415	30	db/wta_database	200	600	80000	[]	__launches/22_May_2016_02:16:22_1.lua	true	1990-01-01	./results/tennis_wta	2060-01-01	2010-01-01	false
6	155	{"threshold":30,"db":"db/wta_database","nTest":600,"tStart":"1990-01-01","nValidation":200,"verbose":"false","shuffle":"true","option_file":"__launches/22_May_2016_02:16:22_1.lua","logPath":"./results/tennis_wta","Tmax":"2060-01-01","Tmin":"2010-01-01","nTrain":80000}	{"jSize":30,"learningRate":0.001,"nClasses":2,"batchSize":50,"alg":"adagrad","model":"MatrixFactBiModel","momentum":0,"initValues":0.1,"weightDecay":0,"learningRateDecay":0}	0.62248995983936	68	0.7481935758091	{"threshold":30,"dTrainStart":"2010-1-11","dTrainEnd":"2012-6-18","dTestEnd":"2012-6-18","dValidationEnd":"2012-6-18","nValidation":200,"tStart":"1990-01-01","shuffle":"true","nTrain":49407,"nTest":600}	-0.08	0.57089495523448	-5.44	MatrixFactBiModel	0.415	30	db/wta_database	200	600	80000	[]	__launches/22_May_2016_02:16:22_1.lua	true	1990-01-01	./results/tennis_wta	2060-01-01	2010-01-01	false
7	180	{"threshold":30,"db":"db/wta_database","nTest":600,"tStart":"1990-01-01","nValidation":200,"verbose":"false","shuffle":"true","option_file":"__launches/22_May_2016_02:16:22_1.lua","logPath":"./results/tennis_wta","Tmax":"2060-01-01","Tmin":"2010-01-01","nTrain":80000}	{"jSize":30,"learningRate":0.001,"nClasses":2,"batchSize":50,"alg":"adagrad","model":"MatrixFactBiModel","momentum":0,"initValues":0.1,"weightDecay":0,"learningRateDecay":0}	0.6144578313253	68	0.75124982289959	{"threshold":30,"dTrainStart":"2010-1-11","dTrainEnd":"2012-6-18","dTestEnd":"2012-6-18","dValidationEnd":"2012-6-18","nValidation":200,"tStart":"1990-01-01","shuffle":"true","nTrain":49407,"nTest":600}	-0.10661764705882	0.56605343437035	-7.25	MatrixFactBiModel	0.415	30	db/wta_database	200	600	80000	[]	__launches/22_May_2016_02:16:22_1.lua	true	1990-01-01	./results/tennis_wta	2060-01-01	2010-01-01	false
8	205	{"threshold":30,"db":"db/wta_database","nTest":600,"tStart":"1990-01-01","nValidation":200,"verbose":"false","shuffle":"true","option_file":"__launches/22_May_2016_02:16:22_1.lua","logPath":"./results/tennis_wta","Tmax":"2060-01-01","Tmin":"2010-01-01","nTrain":80000}	{"jSize":30,"learningRate":0.001,"nClasses":2,"batchSize":50,"alg":"adagrad","model":"MatrixFactBiModel","momentum":0,"initValues":0.1,"weightDecay":0,"learningRateDecay":0}	0.64658634538153	68	0.75307142712571	{"threshold":30,"dTrainStart":"2010-1-11","dTrainEnd":"2012-6-18","dTestEnd":"2012-6-18","dValidationEnd":"2012-6-18","nValidation":200,"tStart":"1990-01-01","shuffle":"true","nTrain":49407,"nTest":600}	-0.053676470588236	0.56482682762093	-3.65	MatrixFactBiModel	0.415	30	db/wta_database	200	600	80000	[]	__launches/22_May_2016_02:16:22_1.lua	true	1990-01-01	./results/tennis_wta	2060-01-01	2010-01-01	false
9	230	{"threshold":30,"db":"db/wta_database","nTest":600,"tStart":"1990-01-01","nValidation":200,"verbose":"false","shuffle":"true","option_file":"__launches/22_May_2016_02:16:22_1.lua","logPath":"./results/tennis_wta","Tmax":"2060-01-01","Tmin":"2010-01-01","nTrain":80000}	{"jSize":30,"learningRate":0.001,"nClasses":2,"batchSize":50,"alg":"adagrad","model":"MatrixFactBiModel","momentum":0,"initValues":0.1,"weightDecay":0,"learningRateDecay":0}	0.61044176706827	68	0.75529783229097	{"threshold":30,"dTrainStart":"2010-1-11","dTrainEnd":"2012-6-18","dTestEnd":"2012-6-18","dValidationEnd":"2012-6-18","nValidation":200,"tStart":"1990-01-01","shuffle":"true","nTrain":49407,"nTest":600}	-0.1025	0.56213137233277	-6.97	MatrixFactBiModel	0.415	30	db/wta_database	200	600	80000	[]	__launches/22_May_2016_02:16:22_1.lua	true	1990-01-01	./results/tennis_wta	2060-01-01	2010-01-01	false
10	255	{"threshold":30,"db":"db/wta_database","nTest":600,"tStart":"1990-01-01","nValidation":200,"verbose":"false","shuffle":"true","option_file":"__launches/22_May_2016_02:16:22_1.lua","logPath":"./results/tennis_wta","Tmax":"2060-01-01","Tmin":"2010-01-01","nTrain":80000}	{"jSize":30,"learningRate":0.001,"nClasses":2,"batchSize":50,"alg":"adagrad","model":"MatrixFactBiModel","momentum":0,"initValues":0.1,"weightDecay":0,"learningRateDecay":0}	0.59437751004016	68	0.7577266379258	{"threshold":30,"dTrainStart":"2010-1-11","dTrainEnd":"2012-6-18","dTestEnd":"2012-6-18","dValidationEnd":"2012-6-18","nValidation":200,"tStart":"1990-01-01","shuffle":"true","nTrain":49407,"nTest":600}	-0.13926470588235	0.55979373682056	-9.47	MatrixFactBiModel	0.415	30	db/wta_database	200	600	80000	[]	__launches/22_May_2016_02:16:22_1.lua	true	1990-01-01	./results/tennis_wta	2060-01-01	2010-01-01	false
11	280	{"threshold":30,"db":"db/wta_database","nTest":600,"tStart":"1990-01-01","nValidation":200,"verbose":"false","shuffle":"true","option_file":"__launches/22_May_2016_02:16:22_1.lua","logPath":"./results/tennis_wta","Tmax":"2060-01-01","Tmin":"2010-01-01","nTrain":80000}	{"jSize":30,"learningRate":0.001,"nClasses":2,"batchSize":50,"alg":"adagrad","model":"MatrixFactBiModel","momentum":0,"initValues":0.1,"weightDecay":0,"learningRateDecay":0}	0.60642570281124	68	0.76234136863198	{"threshold":30,"dTrainStart":"2010-1-11","dTrainEnd":"2012-6-18","dTestEnd":"2012-6-18","dValidationEnd":"2012-6-18","nValidation":200,"tStart":"1990-01-01","shuffle":"true","nTrain":49407,"nTest":600}	-0.099264705882353	0.5551357769529	-6.75	MatrixFactBiModel	0.415	30	db/wta_database	200	600	80000	[]	__launches/22_May_2016_02:16:22_1.lua	true	1990-01-01	./results/tennis_wta	2060-01-01	2010-01-01	false
12	305	{"threshold":30,"db":"db/wta_database","nTest":600,"tStart":"1990-01-01","nValidation":200,"verbose":"false","shuffle":"true","option_file":"__launches/22_May_2016_02:16:22_1.lua","logPath":"./results/tennis_wta","Tmax":"2060-01-01","Tmin":"2010-01-01","nTrain":80000}	{"jSize":30,"learningRate":0.001,"nClasses":2,"batchSize":50,"alg":"adagrad","model":"MatrixFactBiModel","momentum":0,"initValues":0.1,"weightDecay":0,"learningRateDecay":0}	0.6144578313253	68	0.76404153257636	{"threshold":30,"dTrainStart":"2010-1-11","dTrainEnd":"2012-6-18","dTestEnd":"2012-6-18","dValidationEnd":"2012-6-18","nValidation":200,"tStart":"1990-01-01","shuffle":"true","nTrain":49407,"nTest":600}	-0.14985294117647	0.55278330299071	-10.19	MatrixFactBiModel	0.415	30	db/wta_database	200	600	80000	[]	__launches/22_May_2016_02:16:22_1.lua	true	1990-01-01	./results/tennis_wta	2060-01-01	2010-01-01	false
13	330	{"threshold":30,"db":"db/wta_database","nTest":600,"tStart":"1990-01-01","nValidation":200,"verbose":"false","shuffle":"true","option_file":"__launches/22_May_2016_02:16:22_1.lua","logPath":"./results/tennis_wta","Tmax":"2060-01-01","Tmin":"2010-01-01","nTrain":80000}	{"jSize":30,"learningRate":0.001,"nClasses":2,"batchSize":50,"alg":"adagrad","model":"MatrixFactBiModel","momentum":0,"initValues":0.1,"weightDecay":0,"learningRateDecay":0}	0.62248995983936	68	0.76689537919728	{"threshold":30,"dTrainStart":"2010-1-11","dTrainEnd":"2012-6-18","dTestEnd":"2012-6-18","dValidationEnd":"2012-6-18","nValidation":200,"tStart":"1990-01-01","shuffle":"true","nTrain":49407,"nTest":600}	-0.10279411764706	0.55051025174817	-6.99	MatrixFactBiModel	0.415	30	db/wta_database	200	600	80000	[]	__launches/22_May_2016_02:16:22_1.lua	true	1990-01-01	./results/tennis_wta	2060-01-01	2010-01-01	false
14	355	{"threshold":30,"db":"db/wta_database","nTest":600,"tStart":"1990-01-01","nValidation":200,"verbose":"false","shuffle":"true","option_file":"__launches/22_May_2016_02:16:22_1.lua","logPath":"./results/tennis_wta","Tmax":"2060-01-01","Tmin":"2010-01-01","nTrain":80000}	{"jSize":30,"learningRate":0.001,"nClasses":2,"batchSize":50,"alg":"adagrad","model":"MatrixFactBiModel","momentum":0,"initValues":0.1,"weightDecay":0,"learningRateDecay":0}	0.63453815261044	68	0.76829194243731	{"threshold":30,"dTrainStart":"2010-1-11","dTrainEnd":"2012-6-18","dTestEnd":"2012-6-18","dValidationEnd":"2012-6-18","nValidation":200,"tStart":"1990-01-01","shuffle":"true","nTrain":49407,"nTest":600}	-0.081764705882353	0.54830823756797	-5.56	MatrixFactBiModel	0.415	30	db/wta_database	200	600	80000	[]	__launches/22_May_2016_02:16:22_1.lua	true	1990-01-01	./results/tennis_wta	2060-01-01	2010-01-01	false
15	380	{"threshold":30,"db":"db/wta_database","nTest":600,"tStart":"1990-01-01","nValidation":200,"verbose":"false","shuffle":"true","option_file":"__launches/22_May_2016_02:16:22_1.lua","logPath":"./results/tennis_wta","Tmax":"2060-01-01","Tmin":"2010-01-01","nTrain":80000}	{"jSize":30,"learningRate":0.001,"nClasses":2,"batchSize":50,"alg":"adagrad","model":"MatrixFactBiModel","momentum":0,"initValues":0.1,"weightDecay":0,"learningRateDecay":0}	0.6144578313253	68	0.76970874572429	{"threshold":30,"dTrainStart":"2010-1-11","dTrainEnd":"2012-6-18","dTestEnd":"2012-6-18","dValidationEnd":"2012-6-18","nValidation":200,"tStart":"1990-01-01","shuffle":"true","nTrain":49407,"nTest":600}	-0.078529411764706	0.54668280880361	-5.34	MatrixFactBiModel	0.415	30	db/wta_database	200	600	80000	[]	__launches/22_May_2016_02:16:22_1.lua	true	1990-01-01	./results/tennis_wta	2060-01-01	2010-01-01	false
16	405	{"threshold":30,"db":"db/wta_database","nTest":600,"tStart":"1990-01-01","nValidation":200,"verbose":"false","shuffle":"true","option_file":"__launches/22_May_2016_02:16:22_1.lua","logPath":"./results/tennis_wta","Tmax":"2060-01-01","Tmin":"2010-01-01","nTrain":80000}	{"jSize":30,"learningRate":0.001,"nClasses":2,"batchSize":50,"alg":"adagrad","model":"MatrixFactBiModel","momentum":0,"initValues":0.1,"weightDecay":0,"learningRateDecay":0}	0.6144578313253	68	0.77300787337827	{"threshold":30,"dTrainStart":"2010-1-11","dTrainEnd":"2012-6-18","dTestEnd":"2012-6-18","dValidationEnd":"2012-6-18","nValidation":200,"tStart":"1990-01-01","shuffle":"true","nTrain":49407,"nTest":600}	-0.074411764705882	0.54416587913415	-5.06	MatrixFactBiModel	0.415	30	db/wta_database	200	600	80000	[]	__launches/22_May_2016_02:16:22_1.lua	true	1990-01-01	./results/tennis_wta	2060-01-01	2010-01-01	false
17	430	{"threshold":30,"db":"db/wta_database","nTest":600,"tStart":"1990-01-01","nValidation":200,"verbose":"false","shuffle":"true","option_file":"__launches/22_May_2016_02:16:22_1.lua","logPath":"./results/tennis_wta","Tmax":"2060-01-01","Tmin":"2010-01-01","nTrain":80000}	{"jSize":30,"learningRate":0.001,"nClasses":2,"batchSize":50,"alg":"adagrad","model":"MatrixFactBiModel","momentum":0,"initValues":0.1,"weightDecay":0,"learningRateDecay":0}	0.6144578313253	68	0.77420203614872	{"threshold":30,"dTrainStart":"2010-1-11","dTrainEnd":"2012-6-18","dTestEnd":"2012-6-18","dValidationEnd":"2012-6-18","nValidation":200,"tStart":"1990-01-01","shuffle":"true","nTrain":49407,"nTest":600}	-0.041911764705882	0.54225630032926	-2.85	MatrixFactBiModel	0.415	30	db/wta_database	200	600	80000	[]	__launches/22_May_2016_02:16:22_1.lua	true	1990-01-01	./results/tennis_wta	2060-01-01	2010-01-01	false
18	455	{"threshold":30,"db":"db/wta_database","nTest":600,"tStart":"1990-01-01","nValidation":200,"verbose":"false","shuffle":"true","option_file":"__launches/22_May_2016_02:16:22_1.lua","logPath":"./results/tennis_wta","Tmax":"2060-01-01","Tmin":"2010-01-01","nTrain":80000}	{"jSize":30,"learningRate":0.001,"nClasses":2,"batchSize":50,"alg":"adagrad","model":"MatrixFactBiModel","momentum":0,"initValues":0.1,"weightDecay":0,"learningRateDecay":0}	0.63855421686747	68	0.77513307830874	{"threshold":30,"dTrainStart":"2010-1-11","dTrainEnd":"2012-6-18","dTestEnd":"2012-6-18","dValidationEnd":"2012-6-18","nValidation":200,"tStart":"1990-01-01","shuffle":"true","nTrain":49407,"nTest":600}	-0.082352941176471	0.54116394189983	-5.6	MatrixFactBiModel	0.415	30	db/wta_database	200	600	80000	[]	__launches/22_May_2016_02:16:22_1.lua	true	1990-01-01	./results/tennis_wta	2060-01-01	2010-01-01	false
19	480	{"threshold":30,"db":"db/wta_database","nTest":600,"tStart":"1990-01-01","nValidation":200,"verbose":"false","shuffle":"true","option_file":"__launches/22_May_2016_02:16:22_1.lua","logPath":"./results/tennis_wta","Tmax":"2060-01-01","Tmin":"2010-01-01","nTrain":80000}	{"jSize":30,"learningRate":0.001,"nClasses":2,"batchSize":50,"alg":"adagrad","model":"MatrixFactBiModel","momentum":0,"initValues":0.1,"weightDecay":0,"learningRateDecay":0}	0.6144578313253	68	0.77754164389661	{"threshold":30,"dTrainStart":"2010-1-11","dTrainEnd":"2012-6-18","dTestEnd":"2012-6-18","dValidationEnd":"2012-6-18","nValidation":200,"tStart":"1990-01-01","shuffle":"true","nTrain":49407,"nTest":600}	-0.061764705882353	0.53870553230448	-4.2	MatrixFactBiModel	0.415	30	db/wta_database	200	600	80000	[]	__launches/22_May_2016_02:16:22_1.lua	true	1990-01-01	./results/tennis_wta	2060-01-01	2010-01-01	false
20	505	{"threshold":30,"db":"db/wta_database","nTest":600,"tStart":"1990-01-01","nValidation":200,"verbose":"false","shuffle":"true","option_file":"__launches/22_May_2016_02:16:22_1.lua","logPath":"./results/tennis_wta","Tmax":"2060-01-01","Tmin":"2010-01-01","nTrain":80000}	{"jSize":30,"learningRate":0.001,"nClasses":2,"batchSize":50,"alg":"adagrad","model":"MatrixFactBiModel","momentum":0,"initValues":0.1,"weightDecay":0,"learningRateDecay":0}	0.60642570281124	68	0.77835124577489	{"threshold":30,"dTrainStart":"2010-1-11","dTrainEnd":"2012-6-18","dTestEnd":"2012-6-18","dValidationEnd":"2012-6-18","nValidation":200,"tStart":"1990-01-01","shuffle":"true","nTrain":49407,"nTest":600}	-0.078676470588235	0.53674988225274	-5.35	MatrixFactBiModel	0.415	30	db/wta_database	200	600	80000	[]	__launches/22_May_2016_02:16:22_1.lua	true	1990-01-01	./results/tennis_wta	2060-01-01	2010-01-01	false
21	530	{"threshold":30,"db":"db/wta_database","nTest":600,"tStart":"1990-01-01","nValidation":200,"verbose":"false","shuffle":"true","option_file":"__launches/22_May_2016_02:16:22_1.lua","logPath":"./results/tennis_wta","Tmax":"2060-01-01","Tmin":"2010-01-01","nTrain":80000}	{"jSize":30,"learningRate":0.001,"nClasses":2,"batchSize":50,"alg":"adagrad","model":"MatrixFactBiModel","momentum":0,"initValues":0.1,"weightDecay":0,"learningRateDecay":0}	0.63052208835341	68	0.78061813103406	{"threshold":30,"dTrainStart":"2010-1-11","dTrainEnd":"2012-6-18","dTestEnd":"2012-6-18","dValidationEnd":"2012-6-18","nValidation":200,"tStart":"1990-01-01","shuffle":"true","nTrain":49407,"nTest":600}	-0.012058823529412	0.53559344675241	-0.81999999999999	MatrixFactBiModel	0.415	30	db/wta_database	200	600	80000	[]	__launches/22_May_2016_02:16:22_1.lua	true	1990-01-01	./results/tennis_wta	2060-01-01	2010-01-01	false
22	555	{"threshold":30,"db":"db/wta_database","nTest":600,"tStart":"1990-01-01","nValidation":200,"verbose":"false","shuffle":"true","option_file":"__launches/22_May_2016_02:16:22_1.lua","logPath":"./results/tennis_wta","Tmax":"2060-01-01","Tmin":"2010-01-01","nTrain":80000}	{"jSize":30,"learningRate":0.001,"nClasses":2,"batchSize":50,"alg":"adagrad","model":"MatrixFactBiModel","momentum":0,"initValues":0.1,"weightDecay":0,"learningRateDecay":0}	0.62650602409639	68	0.78189325399235	{"threshold":30,"dTrainStart":"2010-1-11","dTrainEnd":"2012-6-18","dTestEnd":"2012-6-18","dValidationEnd":"2012-6-18","nValidation":200,"tStart":"1990-01-01","shuffle":"true","nTrain":49407,"nTest":600}	-0.14323529411765	0.53479573809108	-9.74	MatrixFactBiModel	0.415	30	db/wta_database	200	600	80000	[]	__launches/22_May_2016_02:16:22_1.lua	true	1990-01-01	./results/tennis_wta	2060-01-01	2010-01-01	false
23	580	{"threshold":30,"db":"db/wta_database","nTest":600,"tStart":"1990-01-01","nValidation":200,"verbose":"false","shuffle":"true","option_file":"__launches/22_May_2016_02:16:22_1.lua","logPath":"./results/tennis_wta","Tmax":"2060-01-01","Tmin":"2010-01-01","nTrain":80000}	{"jSize":30,"learningRate":0.001,"nClasses":2,"batchSize":50,"alg":"adagrad","model":"MatrixFactBiModel","momentum":0,"initValues":0.1,"weightDecay":0,"learningRateDecay":0}	0.61044176706827	68	0.78335053737325	{"threshold":30,"dTrainStart":"2010-1-11","dTrainEnd":"2012-6-18","dTestEnd":"2012-6-18","dValidationEnd":"2012-6-18","nValidation":200,"tStart":"1990-01-01","shuffle":"true","nTrain":49407,"nTest":600}	-0.17205882352941	0.53252845426088	-11.7	MatrixFactBiModel	0.415	30	db/wta_database	200	600	80000	[]	__launches/22_May_2016_02:16:22_1.lua	true	1990-01-01	./results/tennis_wta	2060-01-01	2010-01-01	false
24	605	{"threshold":30,"db":"db/wta_database","nTest":600,"tStart":"1990-01-01","nValidation":200,"verbose":"false","shuffle":"true","option_file":"__launches/22_May_2016_02:16:22_1.lua","logPath":"./results/tennis_wta","Tmax":"2060-01-01","Tmin":"2010-01-01","nTrain":80000}	{"jSize":30,"learningRate":0.001,"nClasses":2,"batchSize":50,"alg":"adagrad","model":"MatrixFactBiModel","momentum":0,"initValues":0.1,"weightDecay":0,"learningRateDecay":0}	0.59839357429719	68	0.78488878094197	{"threshold":30,"dTrainStart":"2010-1-11","dTrainEnd":"2012-6-18","dTestEnd":"2012-6-18","dValidationEnd":"2012-6-18","nValidation":200,"tStart":"1990-01-01","shuffle":"true","nTrain":49407,"nTest":600}	-0.14544117647059	0.53052004315313	-9.89	MatrixFactBiModel	0.415	30	db/wta_database	200	600	80000	[]	__launches/22_May_2016_02:16:22_1.lua	true	1990-01-01	./results/tennis_wta	2060-01-01	2010-01-01	false
25	630	{"threshold":30,"db":"db/wta_database","nTest":600,"tStart":"1990-01-01","nValidation":200,"verbose":"false","shuffle":"true","option_file":"__launches/22_May_2016_02:16:22_1.lua","logPath":"./results/tennis_wta","Tmax":"2060-01-01","Tmin":"2010-01-01","nTrain":80000}	{"jSize":30,"learningRate":0.001,"nClasses":2,"batchSize":50,"alg":"adagrad","model":"MatrixFactBiModel","momentum":0,"initValues":0.1,"weightDecay":0,"learningRateDecay":0}	0.6144578313253	68	0.78533406197502	{"threshold":30,"dTrainStart":"2010-1-11","dTrainEnd":"2012-6-18","dTestEnd":"2012-6-18","dValidationEnd":"2012-6-18","nValidation":200,"tStart":"1990-01-01","shuffle":"true","nTrain":49407,"nTest":600}	-0.081764705882353	0.5304704161573	-5.56	MatrixFactBiModel	0.415	30	db/wta_database	200	600	80000	[]	__launches/22_May_2016_02:16:22_1.lua	true	1990-01-01	./results/tennis_wta	2060-01-01	2010-01-01	false
26	655	{"threshold":30,"db":"db/wta_database","nTest":600,"tStart":"1990-01-01","nValidation":200,"verbose":"false","shuffle":"true","option_file":"__launches/22_May_2016_02:16:22_1.lua","logPath":"./results/tennis_wta","Tmax":"2060-01-01","Tmin":"2010-01-01","nTrain":80000}	{"jSize":30,"learningRate":0.001,"nClasses":2,"batchSize":50,"alg":"adagrad","model":"MatrixFactBiModel","momentum":0,"initValues":0.1,"weightDecay":0,"learningRateDecay":0}	0.62248995983936	68	0.78794502803247	{"threshold":30,"dTrainStart":"2010-1-11","dTrainEnd":"2012-6-18","dTestEnd":"2012-6-18","dValidationEnd":"2012-6-18","nValidation":200,"tStart":"1990-01-01","shuffle":"true","nTrain":49407,"nTest":600}	-0.00029411764705856	0.52812769308165	-0.019999999999982	MatrixFactBiModel	0.415	30	db/wta_database	200	600	80000	[]	__launches/22_May_2016_02:16:22_1.lua	true	1990-01-01	./results/tennis_wta	2060-01-01	2010-01-01	false
27	680	{"threshold":30,"db":"db/wta_database","nTest":600,"tStart":"1990-01-01","nValidation":200,"verbose":"false","shuffle":"true","option_file":"__launches/22_May_2016_02:16:22_1.lua","logPath":"./results/tennis_wta","Tmax":"2060-01-01","Tmin":"2010-01-01","nTrain":80000}	{"jSize":30,"learningRate":0.001,"nClasses":2,"batchSize":50,"alg":"adagrad","model":"MatrixFactBiModel","momentum":0,"initValues":0.1,"weightDecay":0,"learningRateDecay":0}	0.61044176706827	68	0.79075839455948	{"threshold":30,"dTrainStart":"2010-1-11","dTrainEnd":"2012-6-18","dTestEnd":"2012-6-18","dValidationEnd":"2012-6-18","nValidation":200,"tStart":"1990-01-01","shuffle":"true","nTrain":49407,"nTest":600}	-0.17191176470588	0.52605552403573	-11.69	MatrixFactBiModel	0.415	30	db/wta_database	200	600	80000	[]	__launches/22_May_2016_02:16:22_1.lua	true	1990-01-01	./results/tennis_wta	2060-01-01	2010-01-01	false
28	705	{"threshold":30,"db":"db/wta_database","nTest":600,"tStart":"1990-01-01","nValidation":200,"verbose":"false","shuffle":"true","option_file":"__launches/22_May_2016_02:16:22_1.lua","logPath":"./results/tennis_wta","Tmax":"2060-01-01","Tmin":"2010-01-01","nTrain":80000}	{"jSize":30,"learningRate":0.001,"nClasses":2,"batchSize":50,"alg":"adagrad","model":"MatrixFactBiModel","momentum":0,"initValues":0.1,"weightDecay":0,"learningRateDecay":0}	0.61044176706827	68	0.78802598822029	{"threshold":30,"dTrainStart":"2010-1-11","dTrainEnd":"2012-6-18","dTestEnd":"2012-6-18","dValidationEnd":"2012-6-18","nValidation":200,"tStart":"1990-01-01","shuffle":"true","nTrain":49407,"nTest":600}	-0.0086764705882351	0.5271693023064	-0.58999999999999	MatrixFactBiModel	0.415	30	db/wta_database	200	600	80000	[]	__launches/22_May_2016_02:16:22_1.lua	true	1990-01-01	./results/tennis_wta	2060-01-01	2010-01-01	false
29	730	{"threshold":30,"db":"db/wta_database","nTest":600,"tStart":"1990-01-01","nValidation":200,"verbose":"false","shuffle":"true","option_file":"__launches/22_May_2016_02:16:22_1.lua","logPath":"./results/tennis_wta","Tmax":"2060-01-01","Tmin":"2010-01-01","nTrain":80000}	{"jSize":30,"learningRate":0.001,"nClasses":2,"batchSize":50,"alg":"adagrad","model":"MatrixFactBiModel","momentum":0,"initValues":0.1,"weightDecay":0,"learningRateDecay":0}	0.61847389558233	68	0.78992855263424	{"threshold":30,"dTrainStart":"2010-1-11","dTrainEnd":"2012-6-18","dTestEnd":"2012-6-18","dValidationEnd":"2012-6-18","nValidation":200,"tStart":"1990-01-01","shuffle":"true","nTrain":49407,"nTest":600}	0.00073529411764744	0.5267904365206	0.050000000000026	MatrixFactBiModel	0.415	30	db/wta_database	200	600	80000	[]	__launches/22_May_2016_02:16:22_1.lua	true	1990-01-01	./results/tennis_wta	2060-01-01	2010-01-01	false
30	755	{"threshold":30,"db":"db/wta_database","nTest":600,"tStart":"1990-01-01","nValidation":200,"verbose":"false","shuffle":"true","option_file":"__launches/22_May_2016_02:16:22_1.lua","logPath":"./results/tennis_wta","Tmax":"2060-01-01","Tmin":"2010-01-01","nTrain":80000}	{"jSize":30,"learningRate":0.001,"nClasses":2,"batchSize":50,"alg":"adagrad","model":"MatrixFactBiModel","momentum":0,"initValues":0.1,"weightDecay":0,"learningRateDecay":0}	0.62248995983936	68	0.79053575404295	{"threshold":30,"dTrainStart":"2010-1-11","dTrainEnd":"2012-6-18","dTestEnd":"2012-6-18","dValidationEnd":"2012-6-18","nValidation":200,"tStart":"1990-01-01","shuffle":"true","nTrain":49407,"nTest":600}	-0.063235294117647	0.52463098992791	-4.3	MatrixFactBiModel	0.415	30	db/wta_database	200	600	80000	[]	__launches/22_May_2016_02:16:22_1.lua	true	1990-01-01	./results/tennis_wta	2060-01-01	2010-01-01	false
31	780	{"threshold":30,"db":"db/wta_database","nTest":600,"tStart":"1990-01-01","nValidation":200,"verbose":"false","shuffle":"true","option_file":"__launches/22_May_2016_02:16:22_1.lua","logPath":"./results/tennis_wta","Tmax":"2060-01-01","Tmin":"2010-01-01","nTrain":80000}	{"jSize":30,"learningRate":0.001,"nClasses":2,"batchSize":50,"alg":"adagrad","model":"MatrixFactBiModel","momentum":0,"initValues":0.1,"weightDecay":0,"learningRateDecay":0}	0.59839357429719	68	0.79175015686036	{"threshold":30,"dTrainStart":"2010-1-11","dTrainEnd":"2012-6-18","dTestEnd":"2012-6-18","dValidationEnd":"2012-6-18","nValidation":200,"tStart":"1990-01-01","shuffle":"true","nTrain":49407,"nTest":600}	-0.10441176470588	0.52424627884332	-7.1	MatrixFactBiModel	0.415	30	db/wta_database	200	600	80000	[]	__launches/22_May_2016_02:16:22_1.lua	true	1990-01-01	./results/tennis_wta	2060-01-01	2010-01-01	false
32	805	{"threshold":30,"db":"db/wta_database","nTest":600,"tStart":"1990-01-01","nValidation":200,"verbose":"false","shuffle":"true","option_file":"__launches/22_May_2016_02:16:22_1.lua","logPath":"./results/tennis_wta","Tmax":"2060-01-01","Tmin":"2010-01-01","nTrain":80000}	{"jSize":30,"learningRate":0.001,"nClasses":2,"batchSize":50,"alg":"adagrad","model":"MatrixFactBiModel","momentum":0,"initValues":0.1,"weightDecay":0,"learningRateDecay":0}	0.61044176706827	68	0.79345032080474	{"threshold":30,"dTrainStart":"2010-1-11","dTrainEnd":"2012-6-18","dTestEnd":"2012-6-18","dValidationEnd":"2012-6-18","nValidation":200,"tStart":"1990-01-01","shuffle":"true","nTrain":49407,"nTest":600}	-0.11455882352941	0.52277473630705	-7.79	MatrixFactBiModel	0.415	30	db/wta_database	200	600	80000	[]	__launches/22_May_2016_02:16:22_1.lua	true	1990-01-01	./results/tennis_wta	2060-01-01	2010-01-01	false
33	830	{"threshold":30,"db":"db/wta_database","nTest":600,"tStart":"1990-01-01","nValidation":200,"verbose":"false","shuffle":"true","option_file":"__launches/22_May_2016_02:16:22_1.lua","logPath":"./results/tennis_wta","Tmax":"2060-01-01","Tmin":"2010-01-01","nTrain":80000}	{"jSize":30,"learningRate":0.001,"nClasses":2,"batchSize":50,"alg":"adagrad","model":"MatrixFactBiModel","momentum":0,"initValues":0.1,"weightDecay":0,"learningRateDecay":0}	0.61847389558233	68	0.79387536179084	{"threshold":30,"dTrainStart":"2010-1-11","dTrainEnd":"2012-6-18","dTestEnd":"2012-6-18","dValidationEnd":"2012-6-18","nValidation":200,"tStart":"1990-01-01","shuffle":"true","nTrain":49407,"nTest":600}	-0.088088235294118	0.52237942854907	-5.99	MatrixFactBiModel	0.415	30	db/wta_database	200	600	80000	[]	__launches/22_May_2016_02:16:22_1.lua	true	1990-01-01	./results/tennis_wta	2060-01-01	2010-01-01	false
34	855	{"threshold":30,"db":"db/wta_database","nTest":600,"tStart":"1990-01-01","nValidation":200,"verbose":"false","shuffle":"true","option_file":"__launches/22_May_2016_02:16:22_1.lua","logPath":"./results/tennis_wta","Tmax":"2060-01-01","Tmin":"2010-01-01","nTrain":80000}	{"jSize":30,"learningRate":0.001,"nClasses":2,"batchSize":50,"alg":"adagrad","model":"MatrixFactBiModel","momentum":0,"initValues":0.1,"weightDecay":0,"learningRateDecay":0}	0.60642570281124	68	0.79444208310563	{"threshold":30,"dTrainStart":"2010-1-11","dTrainEnd":"2012-6-18","dTestEnd":"2012-6-18","dValidationEnd":"2012-6-18","nValidation":200,"tStart":"1990-01-01","shuffle":"true","nTrain":49407,"nTest":600}	-0.12147058823529	0.52083472722	-8.26	MatrixFactBiModel	0.415	30	db/wta_database	200	600	80000	[]	__launches/22_May_2016_02:16:22_1.lua	true	1990-01-01	./results/tennis_wta	2060-01-01	2010-01-01	false
35	880	{"threshold":30,"db":"db/wta_database","nTest":600,"tStart":"1990-01-01","nValidation":200,"verbose":"false","shuffle":"true","option_file":"__launches/22_May_2016_02:16:22_1.lua","logPath":"./results/tennis_wta","Tmax":"2060-01-01","Tmin":"2010-01-01","nTrain":80000}	{"jSize":30,"learningRate":0.001,"nClasses":2,"batchSize":50,"alg":"adagrad","model":"MatrixFactBiModel","momentum":0,"initValues":0.1,"weightDecay":0,"learningRateDecay":0}	0.59437751004016	68	0.79616248709697	{"threshold":30,"dTrainStart":"2010-1-11","dTrainEnd":"2012-6-18","dTestEnd":"2012-6-18","dValidationEnd":"2012-6-18","nValidation":200,"tStart":"1990-01-01","shuffle":"true","nTrain":49407,"nTest":600}	-0.061764705882353	0.51982595684313	-4.2	MatrixFactBiModel	0.415	30	db/wta_database	200	600	80000	[]	__launches/22_May_2016_02:16:22_1.lua	true	1990-01-01	./results/tennis_wta	2060-01-01	2010-01-01	false
36	905	{"threshold":30,"db":"db/wta_database","nTest":600,"tStart":"1990-01-01","nValidation":200,"verbose":"false","shuffle":"true","option_file":"__launches/22_May_2016_02:16:22_1.lua","logPath":"./results/tennis_wta","Tmax":"2060-01-01","Tmin":"2010-01-01","nTrain":80000}	{"jSize":30,"learningRate":0.001,"nClasses":2,"batchSize":50,"alg":"adagrad","model":"MatrixFactBiModel","momentum":0,"initValues":0.1,"weightDecay":0,"learningRateDecay":0}	0.62650602409639	68	0.79691136883438	{"threshold":30,"dTrainStart":"2010-1-11","dTrainEnd":"2012-6-18","dTestEnd":"2012-6-18","dValidationEnd":"2012-6-18","nValidation":200,"tStart":"1990-01-01","shuffle":"true","nTrain":49407,"nTest":600}	-0.021176470588235	0.51954086311697	-1.44	MatrixFactBiModel	0.415	30	db/wta_database	200	600	80000	[]	__launches/22_May_2016_02:16:22_1.lua	true	1990-01-01	./results/tennis_wta	2060-01-01	2010-01-01	false
37	930	{"threshold":30,"db":"db/wta_database","nTest":600,"tStart":"1990-01-01","nValidation":200,"verbose":"false","shuffle":"true","option_file":"__launches/22_May_2016_02:16:22_1.lua","logPath":"./results/tennis_wta","Tmax":"2060-01-01","Tmin":"2010-01-01","nTrain":80000}	{"jSize":30,"learningRate":0.001,"nClasses":2,"batchSize":50,"alg":"adagrad","model":"MatrixFactBiModel","momentum":0,"initValues":0.1,"weightDecay":0,"learningRateDecay":0}	0.6144578313253	68	0.79666848827089	{"threshold":30,"dTrainStart":"2010-1-11","dTrainEnd":"2012-6-18","dTestEnd":"2012-6-18","dValidationEnd":"2012-6-18","nValidation":200,"tStart":"1990-01-01","shuffle":"true","nTrain":49407,"nTest":600}	-0.115	0.51889415493211	-7.82	MatrixFactBiModel	0.415	30	db/wta_database	200	600	80000	[]	__launches/22_May_2016_02:16:22_1.lua	true	1990-01-01	./results/tennis_wta	2060-01-01	2010-01-01	false
38	955	{"threshold":30,"db":"db/wta_database","nTest":600,"tStart":"1990-01-01","nValidation":200,"verbose":"false","shuffle":"true","option_file":"__launches/22_May_2016_02:16:22_1.lua","logPath":"./results/tennis_wta","Tmax":"2060-01-01","Tmin":"2010-01-01","nTrain":80000}	{"jSize":30,"learningRate":0.001,"nClasses":2,"batchSize":50,"alg":"adagrad","model":"MatrixFactBiModel","momentum":0,"initValues":0.1,"weightDecay":0,"learningRateDecay":0}	0.62248995983936	68	0.79899609367094	{"threshold":30,"dTrainStart":"2010-1-11","dTrainEnd":"2012-6-18","dTestEnd":"2012-6-18","dValidationEnd":"2012-6-18","nValidation":200,"tStart":"1990-01-01","shuffle":"true","nTrain":49407,"nTest":600}	-0.079705882352941	0.51615812179808	-5.42	MatrixFactBiModel	0.415	30	db/wta_database	200	600	80000	[]	__launches/22_May_2016_02:16:22_1.lua	true	1990-01-01	./results/tennis_wta	2060-01-01	2010-01-01	false
39	980	{"threshold":30,"db":"db/wta_database","nTest":600,"tStart":"1990-01-01","nValidation":200,"verbose":"false","shuffle":"true","option_file":"__launches/22_May_2016_02:16:22_1.lua","logPath":"./results/tennis_wta","Tmax":"2060-01-01","Tmin":"2010-01-01","nTrain":80000}	{"jSize":30,"learningRate":0.001,"nClasses":2,"batchSize":50,"alg":"adagrad","model":"MatrixFactBiModel","momentum":0,"initValues":0.1,"weightDecay":0,"learningRateDecay":0}	0.61847389558233	68	0.79940089461008	{"threshold":30,"dTrainStart":"2010-1-11","dTrainEnd":"2012-6-18","dTestEnd":"2012-6-18","dValidationEnd":"2012-6-18","nValidation":200,"tStart":"1990-01-01","shuffle":"true","nTrain":49407,"nTest":600}	-0.15485294117647	0.51608357359812	-10.53	MatrixFactBiModel	0.415	30	db/wta_database	200	600	80000	[]	__launches/22_May_2016_02:16:22_1.lua	true	1990-01-01	./results/tennis_wta	2060-01-01	2010-01-01	false
40	1005	{"threshold":30,"db":"db/wta_database","nTest":600,"tStart":"1990-01-01","nValidation":200,"verbose":"false","shuffle":"true","option_file":"__launches/22_May_2016_02:16:22_1.lua","logPath":"./results/tennis_wta","Tmax":"2060-01-01","Tmin":"2010-01-01","nTrain":80000}	{"jSize":30,"learningRate":0.001,"nClasses":2,"batchSize":50,"alg":"adagrad","model":"MatrixFactBiModel","momentum":0,"initValues":0.1,"weightDecay":0,"learningRateDecay":0}	0.61044176706827	68	0.80128321897707	{"threshold":30,"dTrainStart":"2010-1-11","dTrainEnd":"2012-6-18","dTestEnd":"2012-6-18","dValidationEnd":"2012-6-18","nValidation":200,"tStart":"1990-01-01","shuffle":"true","nTrain":49407,"nTest":600}	-0.18735294117647	0.51337862990511	-12.74	MatrixFactBiModel	0.415	30	db/wta_database	200	600	80000	[]	__launches/22_May_2016_02:16:22_1.lua	true	1990-01-01	./results/tennis_wta	2060-01-01	2010-01-01	false
41	1030	{"threshold":30,"db":"db/wta_database","nTest":600,"tStart":"1990-01-01","nValidation":200,"verbose":"false","shuffle":"true","option_file":"__launches/22_May_2016_02:16:22_1.lua","logPath":"./results/tennis_wta","Tmax":"2060-01-01","Tmin":"2010-01-01","nTrain":80000}	{"jSize":30,"learningRate":0.001,"nClasses":2,"batchSize":50,"alg":"adagrad","model":"MatrixFactBiModel","momentum":0,"initValues":0.1,"weightDecay":0,"learningRateDecay":0}	0.60240963855422	68	0.8006557775214	{"threshold":30,"dTrainStart":"2010-1-11","dTrainEnd":"2012-6-18","dTestEnd":"2012-6-18","dValidationEnd":"2012-6-18","nValidation":200,"tStart":"1990-01-01","shuffle":"true","nTrain":49407,"nTest":600}	-0.16647058823529	0.51463410347201	-11.32	MatrixFactBiModel	0.415	30	db/wta_database	200	600	80000	[]	__launches/22_May_2016_02:16:22_1.lua	true	1990-01-01	./results/tennis_wta	2060-01-01	2010-01-01	false
42	1055	{"threshold":30,"db":"db/wta_database","nTest":600,"tStart":"1990-01-01","nValidation":200,"verbose":"false","shuffle":"true","option_file":"__launches/22_May_2016_02:16:22_1.lua","logPath":"./results/tennis_wta","Tmax":"2060-01-01","Tmin":"2010-01-01","nTrain":80000}	{"jSize":30,"learningRate":0.001,"nClasses":2,"batchSize":50,"alg":"adagrad","model":"MatrixFactBiModel","momentum":0,"initValues":0.1,"weightDecay":0,"learningRateDecay":0}	0.61847389558233	68	0.80168801991621	{"threshold":30,"dTrainStart":"2010-1-11","dTrainEnd":"2012-6-18","dTestEnd":"2012-6-18","dValidationEnd":"2012-6-18","nValidation":200,"tStart":"1990-01-01","shuffle":"true","nTrain":49407,"nTest":600}	-0.10323529411765	0.5137645960348	-7.02	MatrixFactBiModel	0.415	30	db/wta_database	200	600	80000	[]	__launches/22_May_2016_02:16:22_1.lua	true	1990-01-01	./results/tennis_wta	2060-01-01	2010-01-01	false
43	1080	{"threshold":30,"db":"db/wta_database","nTest":600,"tStart":"1990-01-01","nValidation":200,"verbose":"false","shuffle":"true","option_file":"__launches/22_May_2016_02:16:22_1.lua","logPath":"./results/tennis_wta","Tmax":"2060-01-01","Tmin":"2010-01-01","nTrain":80000}	{"jSize":30,"learningRate":0.001,"nClasses":2,"batchSize":50,"alg":"adagrad","model":"MatrixFactBiModel","momentum":0,"initValues":0.1,"weightDecay":0,"learningRateDecay":0}	0.6144578313253	68	0.80363106442407	{"threshold":30,"dTrainStart":"2010-1-11","dTrainEnd":"2012-6-18","dTestEnd":"2012-6-18","dValidationEnd":"2012-6-18","nValidation":200,"tStart":"1990-01-01","shuffle":"true","nTrain":49407,"nTest":600}	-0.15794117647059	0.51063818823471	-10.74	MatrixFactBiModel	0.415	30	db/wta_database	200	600	80000	[]	__launches/22_May_2016_02:16:22_1.lua	true	1990-01-01	./results/tennis_wta	2060-01-01	2010-01-01	false
44	1105	{"threshold":30,"db":"db/wta_database","nTest":600,"tStart":"1990-01-01","nValidation":200,"verbose":"false","shuffle":"true","option_file":"__launches/22_May_2016_02:16:22_1.lua","logPath":"./results/tennis_wta","Tmax":"2060-01-01","Tmin":"2010-01-01","nTrain":80000}	{"jSize":30,"learningRate":0.001,"nClasses":2,"batchSize":50,"alg":"adagrad","model":"MatrixFactBiModel","momentum":0,"initValues":0.1,"weightDecay":0,"learningRateDecay":0}	0.60642570281124	68	0.80565506911976	{"threshold":30,"dTrainStart":"2010-1-11","dTrainEnd":"2012-6-18","dTestEnd":"2012-6-18","dValidationEnd":"2012-6-18","nValidation":200,"tStart":"1990-01-01","shuffle":"true","nTrain":49407,"nTest":600}	-0.052941176470588	0.50955311846918	-3.6	MatrixFactBiModel	0.415	30	db/wta_database	200	600	80000	[]	__launches/22_May_2016_02:16:22_1.lua	true	1990-01-01	./results/tennis_wta	2060-01-01	2010-01-01	false
45	1130	{"threshold":30,"db":"db/wta_database","nTest":600,"tStart":"1990-01-01","nValidation":200,"verbose":"false","shuffle":"true","option_file":"__launches/22_May_2016_02:16:22_1.lua","logPath":"./results/tennis_wta","Tmax":"2060-01-01","Tmin":"2010-01-01","nTrain":80000}	{"jSize":30,"learningRate":0.001,"nClasses":2,"batchSize":50,"alg":"adagrad","model":"MatrixFactBiModel","momentum":0,"initValues":0.1,"weightDecay":0,"learningRateDecay":0}	0.62248995983936	68	0.80583722954237	{"threshold":30,"dTrainStart":"2010-1-11","dTrainEnd":"2012-6-18","dTestEnd":"2012-6-18","dValidationEnd":"2012-6-18","nValidation":200,"tStart":"1990-01-01","shuffle":"true","nTrain":49407,"nTest":600}	-0.052352941176471	0.5095583763511	-3.56	MatrixFactBiModel	0.415	30	db/wta_database	200	600	80000	[]	__launches/22_May_2016_02:16:22_1.lua	true	1990-01-01	./results/tennis_wta	2060-01-01	2010-01-01	false
46	1155	{"threshold":30,"db":"db/wta_database","nTest":600,"tStart":"1990-01-01","nValidation":200,"verbose":"false","shuffle":"true","option_file":"__launches/22_May_2016_02:16:22_1.lua","logPath":"./results/tennis_wta","Tmax":"2060-01-01","Tmin":"2010-01-01","nTrain":80000}	{"jSize":30,"learningRate":0.001,"nClasses":2,"batchSize":50,"alg":"adagrad","model":"MatrixFactBiModel","momentum":0,"initValues":0.1,"weightDecay":0,"learningRateDecay":0}	0.6144578313253	68	0.80693019207805	{"threshold":30,"dTrainStart":"2010-1-11","dTrainEnd":"2012-6-18","dTestEnd":"2012-6-18","dValidationEnd":"2012-6-18","nValidation":200,"tStart":"1990-01-01","shuffle":"true","nTrain":49407,"nTest":600}	-0.072205882352941	0.50907282624996	-4.91	MatrixFactBiModel	0.415	30	db/wta_database	200	600	80000	[]	__launches/22_May_2016_02:16:22_1.lua	true	1990-01-01	./results/tennis_wta	2060-01-01	2010-01-01	false
47	1180	{"threshold":30,"db":"db/wta_database","nTest":600,"tStart":"1990-01-01","nValidation":200,"verbose":"false","shuffle":"true","option_file":"__launches/22_May_2016_02:16:22_1.lua","logPath":"./results/tennis_wta","Tmax":"2060-01-01","Tmin":"2010-01-01","nTrain":80000}	{"jSize":30,"learningRate":0.001,"nClasses":2,"batchSize":50,"alg":"adagrad","model":"MatrixFactBiModel","momentum":0,"initValues":0.1,"weightDecay":0,"learningRateDecay":0}	0.61847389558233	68	0.80780051409719	{"threshold":30,"dTrainStart":"2010-1-11","dTrainEnd":"2012-6-18","dTestEnd":"2012-6-18","dValidationEnd":"2012-6-18","nValidation":200,"tStart":"1990-01-01","shuffle":"true","nTrain":49407,"nTest":600}	-0.072205882352941	0.50685131062266	-4.91	MatrixFactBiModel	0.415	30	db/wta_database	200	600	80000	[]	__launches/22_May_2016_02:16:22_1.lua	true	1990-01-01	./results/tennis_wta	2060-01-01	2010-01-01	false
48	1205	{"threshold":30,"db":"db/wta_database","nTest":600,"tStart":"1990-01-01","nValidation":200,"verbose":"false","shuffle":"true","option_file":"__launches/22_May_2016_02:16:22_1.lua","logPath":"./results/tennis_wta","Tmax":"2060-01-01","Tmin":"2010-01-01","nTrain":80000}	{"jSize":30,"learningRate":0.001,"nClasses":2,"batchSize":50,"alg":"adagrad","model":"MatrixFactBiModel","momentum":0,"initValues":0.1,"weightDecay":0,"learningRateDecay":0}	0.60642570281124	68	0.80792195437893	{"threshold":30,"dTrainStart":"2010-1-11","dTrainEnd":"2012-6-18","dTestEnd":"2012-6-18","dValidationEnd":"2012-6-18","nValidation":200,"tStart":"1990-01-01","shuffle":"true","nTrain":49407,"nTest":600}	-0.041029411764706	0.50774503410428	-2.79	MatrixFactBiModel	0.415	30	db/wta_database	200	600	80000	[]	__launches/22_May_2016_02:16:22_1.lua	true	1990-01-01	./results/tennis_wta	2060-01-01	2010-01-01	false
49	1230	{"threshold":30,"db":"db/wta_database","nTest":600,"tStart":"1990-01-01","nValidation":200,"verbose":"false","shuffle":"true","option_file":"__launches/22_May_2016_02:16:22_1.lua","logPath":"./results/tennis_wta","Tmax":"2060-01-01","Tmin":"2010-01-01","nTrain":80000}	{"jSize":30,"learningRate":0.001,"nClasses":2,"batchSize":50,"alg":"adagrad","model":"MatrixFactBiModel","momentum":0,"initValues":0.1,"weightDecay":0,"learningRateDecay":0}	0.58232931726908	68	0.80867083611634	{"threshold":30,"dTrainStart":"2010-1-11","dTrainEnd":"2012-6-18","dTestEnd":"2012-6-18","dValidationEnd":"2012-6-18","nValidation":200,"tStart":"1990-01-01","shuffle":"true","nTrain":49407,"nTest":600}	-0.19073529411765	0.50629268436882	-12.97	MatrixFactBiModel	0.415	30	db/wta_database	200	600	80000	[]	__launches/22_May_2016_02:16:22_1.lua	true	1990-01-01	./results/tennis_wta	2060-01-01	2010-01-01	false
50	1255	{"threshold":30,"db":"db/wta_database","nTest":600,"tStart":"1990-01-01","nValidation":200,"verbose":"false","shuffle":"true","option_file":"__launches/22_May_2016_02:16:22_1.lua","logPath":"./results/tennis_wta","Tmax":"2060-01-01","Tmin":"2010-01-01","nTrain":80000}	{"jSize":30,"learningRate":0.001,"nClasses":2,"batchSize":50,"alg":"adagrad","model":"MatrixFactBiModel","momentum":0,"initValues":0.1,"weightDecay":0,"learningRateDecay":0}	0.61847389558233	68	0.80919707733722	{"threshold":30,"dTrainStart":"2010-1-11","dTrainEnd":"2012-6-18","dTestEnd":"2012-6-18","dValidationEnd":"2012-6-18","nValidation":200,"tStart":"1990-01-01","shuffle":"true","nTrain":49407,"nTest":600}	-0.038970588235294	0.50556377183561	-2.65	MatrixFactBiModel	0.415	30	db/wta_database	200	600	80000	[]	__launches/22_May_2016_02:16:22_1.lua	true	1990-01-01	./results/tennis_wta	2060-01-01	2010-01-01	false
51	1280	{"threshold":30,"db":"db/wta_database","nTest":600,"tStart":"1990-01-01","nValidation":200,"verbose":"false","shuffle":"true","option_file":"__launches/22_May_2016_02:16:22_1.lua","logPath":"./results/tennis_wta","Tmax":"2060-01-01","Tmin":"2010-01-01","nTrain":80000}	{"jSize":30,"learningRate":0.001,"nClasses":2,"batchSize":50,"alg":"adagrad","model":"MatrixFactBiModel","momentum":0,"initValues":0.1,"weightDecay":0,"learningRateDecay":0}	0.63453815261044	68	0.81033051996681	{"threshold":30,"dTrainStart":"2010-1-11","dTrainEnd":"2012-6-18","dTestEnd":"2012-6-18","dValidationEnd":"2012-6-18","nValidation":200,"tStart":"1990-01-01","shuffle":"true","nTrain":49407,"nTest":600}	0.001029411764706	0.50466798821178	0.070000000000007	MatrixFactBiModel	0.415	30	db/wta_database	200	600	80000	[]	__launches/22_May_2016_02:16:22_1.lua	true	1990-01-01	./results/tennis_wta	2060-01-01	2010-01-01	false
52	1305	{"threshold":30,"db":"db/wta_database","nTest":600,"tStart":"1990-01-01","nValidation":200,"verbose":"false","shuffle":"true","option_file":"__launches/22_May_2016_02:16:22_1.lua","logPath":"./results/tennis_wta","Tmax":"2060-01-01","Tmin":"2010-01-01","nTrain":80000}	{"jSize":30,"learningRate":0.001,"nClasses":2,"batchSize":50,"alg":"adagrad","model":"MatrixFactBiModel","momentum":0,"initValues":0.1,"weightDecay":0,"learningRateDecay":0}	0.61847389558233	68	0.8110389216103	{"threshold":30,"dTrainStart":"2010-1-11","dTrainEnd":"2012-6-18","dTestEnd":"2012-6-18","dValidationEnd":"2012-6-18","nValidation":200,"tStart":"1990-01-01","shuffle":"true","nTrain":49407,"nTest":600}	-0.093676470588235	0.5043929579622	-6.37	MatrixFactBiModel	0.415	30	db/wta_database	200	600	80000	[]	__launches/22_May_2016_02:16:22_1.lua	true	1990-01-01	./results/tennis_wta	2060-01-01	2010-01-01	false
53	1330	{"threshold":30,"db":"db/wta_database","nTest":600,"tStart":"1990-01-01","nValidation":200,"verbose":"false","shuffle":"true","option_file":"__launches/22_May_2016_02:16:22_1.lua","logPath":"./results/tennis_wta","Tmax":"2060-01-01","Tmin":"2010-01-01","nTrain":80000}	{"jSize":30,"learningRate":0.001,"nClasses":2,"batchSize":50,"alg":"adagrad","model":"MatrixFactBiModel","momentum":0,"initValues":0.1,"weightDecay":0,"learningRateDecay":0}	0.61044176706827	68	0.81225332442771	{"threshold":30,"dTrainStart":"2010-1-11","dTrainEnd":"2012-6-18","dTestEnd":"2012-6-18","dValidationEnd":"2012-6-18","nValidation":200,"tStart":"1990-01-01","shuffle":"true","nTrain":49407,"nTest":600}	-0.083529411764706	0.50323285659562	-5.68	MatrixFactBiModel	0.415	30	db/wta_database	200	600	80000	[]	__launches/22_May_2016_02:16:22_1.lua	true	1990-01-01	./results/tennis_wta	2060-01-01	2010-01-01	false
54	1355	{"threshold":30,"db":"db/wta_database","nTest":600,"tStart":"1990-01-01","nValidation":200,"verbose":"false","shuffle":"true","option_file":"__launches/22_May_2016_02:16:22_1.lua","logPath":"./results/tennis_wta","Tmax":"2060-01-01","Tmin":"2010-01-01","nTrain":80000}	{"jSize":30,"learningRate":0.001,"nClasses":2,"batchSize":50,"alg":"adagrad","model":"MatrixFactBiModel","momentum":0,"initValues":0.1,"weightDecay":0,"learningRateDecay":0}	0.61044176706827	68	0.81229380452163	{"threshold":30,"dTrainStart":"2010-1-11","dTrainEnd":"2012-6-18","dTestEnd":"2012-6-18","dValidationEnd":"2012-6-18","nValidation":200,"tStart":"1990-01-01","shuffle":"true","nTrain":49407,"nTest":600}	-0.051470588235294	0.50276822975065	-3.5	MatrixFactBiModel	0.415	30	db/wta_database	200	600	80000	[]	__launches/22_May_2016_02:16:22_1.lua	true	1990-01-01	./results/tennis_wta	2060-01-01	2010-01-01	false
55	1380	{"threshold":30,"db":"db/wta_database","nTest":600,"tStart":"1990-01-01","nValidation":200,"verbose":"false","shuffle":"true","option_file":"__launches/22_May_2016_02:16:22_1.lua","logPath":"./results/tennis_wta","Tmax":"2060-01-01","Tmin":"2010-01-01","nTrain":80000}	{"jSize":30,"learningRate":0.001,"nClasses":2,"batchSize":50,"alg":"adagrad","model":"MatrixFactBiModel","momentum":0,"initValues":0.1,"weightDecay":0,"learningRateDecay":0}	0.61847389558233	68	0.81391300827818	{"threshold":30,"dTrainStart":"2010-1-11","dTrainEnd":"2012-6-18","dTestEnd":"2012-6-18","dValidationEnd":"2012-6-18","nValidation":200,"tStart":"1990-01-01","shuffle":"true","nTrain":49407,"nTest":600}	0.067647058823529	0.50202783282366	4.6	MatrixFactBiModel	0.415	30	db/wta_database	200	600	80000	[]	__launches/22_May_2016_02:16:22_1.lua	true	1990-01-01	./results/tennis_wta	2060-01-01	2010-01-01	false
56	1405	{"threshold":30,"db":"db/wta_database","nTest":600,"tStart":"1990-01-01","nValidation":200,"verbose":"false","shuffle":"true","option_file":"__launches/22_May_2016_02:16:22_1.lua","logPath":"./results/tennis_wta","Tmax":"2060-01-01","Tmin":"2010-01-01","nTrain":80000}	{"jSize":30,"learningRate":0.001,"nClasses":2,"batchSize":50,"alg":"adagrad","model":"MatrixFactBiModel","momentum":0,"initValues":0.1,"weightDecay":0,"learningRateDecay":0}	0.61847389558233	68	0.81369036776165	{"threshold":30,"dTrainStart":"2010-1-11","dTrainEnd":"2012-6-18","dTestEnd":"2012-6-18","dValidationEnd":"2012-6-18","nValidation":200,"tStart":"1990-01-01","shuffle":"true","nTrain":49407,"nTest":600}	-0.093235294117647	0.50156478455208	-6.34	MatrixFactBiModel	0.415	30	db/wta_database	200	600	80000	[]	__launches/22_May_2016_02:16:22_1.lua	true	1990-01-01	./results/tennis_wta	2060-01-01	2010-01-01	false
57	1430	{"threshold":30,"db":"db/wta_database","nTest":600,"tStart":"1990-01-01","nValidation":200,"verbose":"false","shuffle":"true","option_file":"__launches/22_May_2016_02:16:22_1.lua","logPath":"./results/tennis_wta","Tmax":"2060-01-01","Tmin":"2010-01-01","nTrain":80000}	{"jSize":30,"learningRate":0.001,"nClasses":2,"batchSize":50,"alg":"adagrad","model":"MatrixFactBiModel","momentum":0,"initValues":0.1,"weightDecay":0,"learningRateDecay":0}	0.65060240963855	68	0.81452020968689	{"threshold":30,"dTrainStart":"2010-1-11","dTrainEnd":"2012-6-18","dTestEnd":"2012-6-18","dValidationEnd":"2012-6-18","nValidation":200,"tStart":"1990-01-01","shuffle":"true","nTrain":49407,"nTest":600}	0.0066176470588238	0.49931596210844	0.45000000000002	MatrixFactBiModel	0.415	30	db/wta_database	200	600	80000	[]	__launches/22_May_2016_02:16:22_1.lua	true	1990-01-01	./results/tennis_wta	2060-01-01	2010-01-01	false
58	1455	{"threshold":30,"db":"db/wta_database","nTest":600,"tStart":"1990-01-01","nValidation":200,"verbose":"false","shuffle":"true","option_file":"__launches/22_May_2016_02:16:22_1.lua","logPath":"./results/tennis_wta","Tmax":"2060-01-01","Tmin":"2010-01-01","nTrain":80000}	{"jSize":30,"learningRate":0.001,"nClasses":2,"batchSize":50,"alg":"adagrad","model":"MatrixFactBiModel","momentum":0,"initValues":0.1,"weightDecay":0,"learningRateDecay":0}	0.6144578313253	68	0.81537029165908	{"threshold":30,"dTrainStart":"2010-1-11","dTrainEnd":"2012-6-18","dTestEnd":"2012-6-18","dValidationEnd":"2012-6-18","nValidation":200,"tStart":"1990-01-01","shuffle":"true","nTrain":49407,"nTest":600}	0.0094117647058826	0.49945620252003	0.64000000000001	MatrixFactBiModel	0.415	30	db/wta_database	200	600	80000	[]	__launches/22_May_2016_02:16:22_1.lua	true	1990-01-01	./results/tennis_wta	2060-01-01	2010-01-01	false
