iteration	epoch	opt	modconfig	testPrecision	naiveBetNumber	trainPrecision	TFconfig	naiveROI	trainLoss	naiveBank	model	testRatio	threshold	db	nValidation	nTest	nTrain	log	option_file	shuffle	tStart	logPath	Tmax	Tmin	verbose
0	5	{"threshold":30,"db":"db/wta_database","nTest":600,"tStart":"1990-01-01","nValidation":200,"verbose":"false","shuffle":"true","option_file":"__launches/22_May_2016_02:16:15_1.lua","logPath":"./results/tennis_wta","Tmax":"2060-01-01","Tmin":"2008-01-01","nTrain":80000}	{"jSize":30,"learningRate":0.001,"nClasses":2,"batchSize":50,"weightDecay":0,"alg":"adagrad","momentum":0,"initValues":0.1,"features":{"country":true,"age":true,"surface":true,"level":true,"round":true},"learningRateDecay":0}	0.48870056497175	176	0.51488766087399	{"threshold":30,"dTrainStart":"2008-1-1","dTrainEnd":"2011-6-13","dTestEnd":"2011-6-20","dValidationEnd":"2011-6-20","nValidation":200,"tStart":"1990-01-01","shuffle":"true","nTrain":55012,"nTest":600}	-0.26170454545455	0.69244254926023	-46.06	FeaturesAddModel	0.59	30	db/wta_database	200	600	80000	[]	__launches/22_May_2016_02:16:15_1.lua	true	1990-01-01	./results/tennis_wta	2060-01-01	2008-01-01	false
1	30	{"threshold":30,"db":"db/wta_database","nTest":600,"tStart":"1990-01-01","nValidation":200,"verbose":"false","shuffle":"true","option_file":"__launches/22_May_2016_02:16:15_1.lua","logPath":"./results/tennis_wta","Tmax":"2060-01-01","Tmin":"2008-01-01","nTrain":80000}	{"jSize":30,"learningRate":0.001,"nClasses":2,"batchSize":50,"weightDecay":0,"alg":"adagrad","momentum":0,"initValues":0.1,"features":{"country":true,"age":true,"surface":true,"level":true,"round":true},"learningRateDecay":0}	0.83333333333333	176	0.81080491529121	{"threshold":30,"dTrainStart":"2008-1-1","dTrainEnd":"2011-6-13","dTestEnd":"2011-6-20","dValidationEnd":"2011-6-20","nValidation":200,"tStart":"1990-01-01","shuffle":"true","nTrain":55012,"nTest":600}	0.37431818181818	0.56775167316347	65.88	FeaturesAddModel	0.59	30	db/wta_database	200	600	80000	[]	__launches/22_May_2016_02:16:15_1.lua	true	1990-01-01	./results/tennis_wta	2060-01-01	2008-01-01	false
2	55	{"threshold":30,"db":"db/wta_database","nTest":600,"tStart":"1990-01-01","nValidation":200,"verbose":"false","shuffle":"true","option_file":"__launches/22_May_2016_02:16:15_1.lua","logPath":"./results/tennis_wta","Tmax":"2060-01-01","Tmin":"2008-01-01","nTrain":80000}	{"jSize":30,"learningRate":0.001,"nClasses":2,"batchSize":50,"weightDecay":0,"alg":"adagrad","momentum":0,"initValues":0.1,"features":{"country":true,"age":true,"surface":true,"level":true,"round":true},"learningRateDecay":0}	0.94350282485876	176	0.92652512179161	{"threshold":30,"dTrainStart":"2008-1-1","dTrainEnd":"2011-6-13","dTestEnd":"2011-6-20","dValidationEnd":"2011-6-20","nValidation":200,"tStart":"1990-01-01","shuffle":"true","nTrain":55012,"nTest":600}	0.50971590909091	0.39247037691395	89.71	FeaturesAddModel	0.59	30	db/wta_database	200	600	80000	[]	__launches/22_May_2016_02:16:15_1.lua	true	1990-01-01	./results/tennis_wta	2060-01-01	2008-01-01	false
3	80	{"threshold":30,"db":"db/wta_database","nTest":600,"tStart":"1990-01-01","nValidation":200,"verbose":"false","shuffle":"true","option_file":"__launches/22_May_2016_02:16:15_1.lua","logPath":"./results/tennis_wta","Tmax":"2060-01-01","Tmin":"2008-01-01","nTrain":80000}	{"jSize":30,"learningRate":0.001,"nClasses":2,"batchSize":50,"weightDecay":0,"alg":"adagrad","momentum":0,"initValues":0.1,"features":{"country":true,"age":true,"surface":true,"level":true,"round":true},"learningRateDecay":0}	0.94350282485876	176	0.93828619210354	{"threshold":30,"dTrainStart":"2008-1-1","dTrainEnd":"2011-6-13","dTestEnd":"2011-6-20","dValidationEnd":"2011-6-20","nValidation":200,"tStart":"1990-01-01","shuffle":"true","nTrain":55012,"nTest":600}	0.516875	0.37981825466751	90.97	FeaturesAddModel	0.59	30	db/wta_database	200	600	80000	[]	__launches/22_May_2016_02:16:15_1.lua	true	1990-01-01	./results/tennis_wta	2060-01-01	2008-01-01	false
4	105	{"threshold":30,"db":"db/wta_database","nTest":600,"tStart":"1990-01-01","nValidation":200,"verbose":"false","shuffle":"true","option_file":"__launches/22_May_2016_02:16:15_1.lua","logPath":"./results/tennis_wta","Tmax":"2060-01-01","Tmin":"2008-01-01","nTrain":80000}	{"jSize":30,"learningRate":0.001,"nClasses":2,"batchSize":50,"weightDecay":0,"alg":"adagrad","momentum":0,"initValues":0.1,"features":{"country":true,"age":true,"surface":true,"level":true,"round":true},"learningRateDecay":0}	0.93502824858757	176	0.94244892023558	{"threshold":30,"dTrainStart":"2008-1-1","dTrainEnd":"2011-6-13","dTestEnd":"2011-6-20","dValidationEnd":"2011-6-20","nValidation":200,"tStart":"1990-01-01","shuffle":"true","nTrain":55012,"nTest":600}	0.50806818181818	0.37508578358171	89.42	FeaturesAddModel	0.59	30	db/wta_database	200	600	80000	[]	__launches/22_May_2016_02:16:15_1.lua	true	1990-01-01	./results/tennis_wta	2060-01-01	2008-01-01	false
5	130	{"threshold":30,"db":"db/wta_database","nTest":600,"tStart":"1990-01-01","nValidation":200,"verbose":"false","shuffle":"true","option_file":"__launches/22_May_2016_02:16:15_1.lua","logPath":"./results/tennis_wta","Tmax":"2060-01-01","Tmin":"2008-01-01","nTrain":80000}	{"jSize":30,"learningRate":0.001,"nClasses":2,"batchSize":50,"weightDecay":0,"alg":"adagrad","momentum":0,"initValues":0.1,"features":{"country":true,"age":true,"surface":true,"level":true,"round":true},"learningRateDecay":0}	0.94067796610169	176	0.94457572893187	{"threshold":30,"dTrainStart":"2008-1-1","dTrainEnd":"2011-6-13","dTestEnd":"2011-6-20","dValidationEnd":"2011-6-20","nValidation":200,"tStart":"1990-01-01","shuffle":"true","nTrain":55012,"nTest":600}	0.51846590909091	0.37184424659604	91.25	FeaturesAddModel	0.59	30	db/wta_database	200	600	80000	[]	__launches/22_May_2016_02:16:15_1.lua	true	1990-01-01	./results/tennis_wta	2060-01-01	2008-01-01	false
6	155	{"threshold":30,"db":"db/wta_database","nTest":600,"tStart":"1990-01-01","nValidation":200,"verbose":"false","shuffle":"true","option_file":"__launches/22_May_2016_02:16:15_1.lua","logPath":"./results/tennis_wta","Tmax":"2060-01-01","Tmin":"2008-01-01","nTrain":80000}	{"jSize":30,"learningRate":0.001,"nClasses":2,"batchSize":50,"weightDecay":0,"alg":"adagrad","momentum":0,"initValues":0.1,"features":{"country":true,"age":true,"surface":true,"level":true,"round":true},"learningRateDecay":0}	0.93785310734463	176	0.94717516178288	{"threshold":30,"dTrainStart":"2008-1-1","dTrainEnd":"2011-6-13","dTestEnd":"2011-6-20","dValidationEnd":"2011-6-20","nValidation":200,"tStart":"1990-01-01","shuffle":"true","nTrain":55012,"nTest":600}	0.52698863636364	0.3693451609472	92.75	FeaturesAddModel	0.59	30	db/wta_database	200	600	80000	[]	__launches/22_May_2016_02:16:15_1.lua	true	1990-01-01	./results/tennis_wta	2060-01-01	2008-01-01	false
7	180	{"threshold":30,"db":"db/wta_database","nTest":600,"tStart":"1990-01-01","nValidation":200,"verbose":"false","shuffle":"true","option_file":"__launches/22_May_2016_02:16:15_1.lua","logPath":"./results/tennis_wta","Tmax":"2060-01-01","Tmin":"2008-01-01","nTrain":80000}	{"jSize":30,"learningRate":0.001,"nClasses":2,"batchSize":50,"weightDecay":0,"alg":"adagrad","momentum":0,"initValues":0.1,"features":{"country":true,"age":true,"surface":true,"level":true,"round":true},"learningRateDecay":0}	0.93220338983051	176	0.94946557114811	{"threshold":30,"dTrainStart":"2008-1-1","dTrainEnd":"2011-6-13","dTestEnd":"2011-6-20","dValidationEnd":"2011-6-20","nValidation":200,"tStart":"1990-01-01","shuffle":"true","nTrain":55012,"nTest":600}	0.49954545454546	0.36779497159698	87.92	FeaturesAddModel	0.59	30	db/wta_database	200	600	80000	[]	__launches/22_May_2016_02:16:15_1.lua	true	1990-01-01	./results/tennis_wta	2060-01-01	2008-01-01	false
8	205	{"threshold":30,"db":"db/wta_database","nTest":600,"tStart":"1990-01-01","nValidation":200,"verbose":"false","shuffle":"true","option_file":"__launches/22_May_2016_02:16:15_1.lua","logPath":"./results/tennis_wta","Tmax":"2060-01-01","Tmin":"2008-01-01","nTrain":80000}	{"jSize":30,"learningRate":0.001,"nClasses":2,"batchSize":50,"weightDecay":0,"alg":"adagrad","momentum":0,"initValues":0.1,"features":{"country":true,"age":true,"surface":true,"level":true,"round":true},"learningRateDecay":0}	0.92937853107345	176	0.94988366174653	{"threshold":30,"dTrainStart":"2008-1-1","dTrainEnd":"2011-6-13","dTestEnd":"2011-6-20","dValidationEnd":"2011-6-20","nValidation":200,"tStart":"1990-01-01","shuffle":"true","nTrain":55012,"nTest":600}	0.49954545454546	0.36659762215311	87.92	FeaturesAddModel	0.59	30	db/wta_database	200	600	80000	[]	__launches/22_May_2016_02:16:15_1.lua	true	1990-01-01	./results/tennis_wta	2060-01-01	2008-01-01	false
9	230	{"threshold":30,"db":"db/wta_database","nTest":600,"tStart":"1990-01-01","nValidation":200,"verbose":"false","shuffle":"true","option_file":"__launches/22_May_2016_02:16:15_1.lua","logPath":"./results/tennis_wta","Tmax":"2060-01-01","Tmin":"2008-01-01","nTrain":80000}	{"jSize":30,"learningRate":0.001,"nClasses":2,"batchSize":50,"weightDecay":0,"alg":"adagrad","momentum":0,"initValues":0.1,"features":{"country":true,"age":true,"surface":true,"level":true,"round":true},"learningRateDecay":0}	0.92655367231638	176	0.9508652657602	{"threshold":30,"dTrainStart":"2008-1-1","dTrainEnd":"2011-6-13","dTestEnd":"2011-6-20","dValidationEnd":"2011-6-20","nValidation":200,"tStart":"1990-01-01","shuffle":"true","nTrain":55012,"nTest":600}	0.49954545454546	0.36557085859931	87.92	FeaturesAddModel	0.59	30	db/wta_database	200	600	80000	[]	__launches/22_May_2016_02:16:15_1.lua	true	1990-01-01	./results/tennis_wta	2060-01-01	2008-01-01	false
10	255	{"threshold":30,"db":"db/wta_database","nTest":600,"tStart":"1990-01-01","nValidation":200,"verbose":"false","shuffle":"true","option_file":"__launches/22_May_2016_02:16:15_1.lua","logPath":"./results/tennis_wta","Tmax":"2060-01-01","Tmin":"2008-01-01","nTrain":80000}	{"jSize":30,"learningRate":0.001,"nClasses":2,"batchSize":50,"weightDecay":0,"alg":"adagrad","momentum":0,"initValues":0.1,"features":{"country":true,"age":true,"surface":true,"level":true,"round":true},"learningRateDecay":0}	0.92655367231638	176	0.95090162146441	{"threshold":30,"dTrainStart":"2008-1-1","dTrainEnd":"2011-6-13","dTestEnd":"2011-6-20","dValidationEnd":"2011-6-20","nValidation":200,"tStart":"1990-01-01","shuffle":"true","nTrain":55012,"nTest":600}	0.50539772727273	0.36469740307064	88.95	FeaturesAddModel	0.59	30	db/wta_database	200	600	80000	[]	__launches/22_May_2016_02:16:15_1.lua	true	1990-01-01	./results/tennis_wta	2060-01-01	2008-01-01	false
11	280	{"threshold":30,"db":"db/wta_database","nTest":600,"tStart":"1990-01-01","nValidation":200,"verbose":"false","shuffle":"true","option_file":"__launches/22_May_2016_02:16:15_1.lua","logPath":"./results/tennis_wta","Tmax":"2060-01-01","Tmin":"2008-01-01","nTrain":80000}	{"jSize":30,"learningRate":0.001,"nClasses":2,"batchSize":50,"weightDecay":0,"alg":"adagrad","momentum":0,"initValues":0.1,"features":{"country":true,"age":true,"surface":true,"level":true,"round":true},"learningRateDecay":0}	0.92372881355932	176	0.95157420199229	{"threshold":30,"dTrainStart":"2008-1-1","dTrainEnd":"2011-6-13","dTestEnd":"2011-6-20","dValidationEnd":"2011-6-20","nValidation":200,"tStart":"1990-01-01","shuffle":"true","nTrain":55012,"nTest":600}	0.49954545454546	0.36404615067954	87.92	FeaturesAddModel	0.59	30	db/wta_database	200	600	80000	[]	__launches/22_May_2016_02:16:15_1.lua	true	1990-01-01	./results/tennis_wta	2060-01-01	2008-01-01	false
12	305	{"threshold":30,"db":"db/wta_database","nTest":600,"tStart":"1990-01-01","nValidation":200,"verbose":"false","shuffle":"true","option_file":"__launches/22_May_2016_02:16:15_1.lua","logPath":"./results/tennis_wta","Tmax":"2060-01-01","Tmin":"2008-01-01","nTrain":80000}	{"jSize":30,"learningRate":0.001,"nClasses":2,"batchSize":50,"weightDecay":0,"alg":"adagrad","momentum":0,"initValues":0.1,"features":{"country":true,"age":true,"surface":true,"level":true,"round":true},"learningRateDecay":0}	0.92372881355932	176	0.95228313822439	{"threshold":30,"dTrainStart":"2008-1-1","dTrainEnd":"2011-6-13","dTestEnd":"2011-6-20","dValidationEnd":"2011-6-20","nValidation":200,"tStart":"1990-01-01","shuffle":"true","nTrain":55012,"nTest":600}	0.50539772727273	0.3634015470613	88.95	FeaturesAddModel	0.59	30	db/wta_database	200	600	80000	[]	__launches/22_May_2016_02:16:15_1.lua	true	1990-01-01	./results/tennis_wta	2060-01-01	2008-01-01	false
13	330	{"threshold":30,"db":"db/wta_database","nTest":600,"tStart":"1990-01-01","nValidation":200,"verbose":"false","shuffle":"true","option_file":"__launches/22_May_2016_02:16:15_1.lua","logPath":"./results/tennis_wta","Tmax":"2060-01-01","Tmin":"2008-01-01","nTrain":80000}	{"jSize":30,"learningRate":0.001,"nClasses":2,"batchSize":50,"weightDecay":0,"alg":"adagrad","momentum":0,"initValues":0.1,"features":{"country":true,"age":true,"surface":true,"level":true,"round":true},"learningRateDecay":0}	0.92090395480226	176	0.95301025230859	{"threshold":30,"dTrainStart":"2008-1-1","dTrainEnd":"2011-6-13","dTestEnd":"2011-6-20","dValidationEnd":"2011-6-20","nValidation":200,"tStart":"1990-01-01","shuffle":"true","nTrain":55012,"nTest":600}	0.50539772727273	0.36281498973175	88.95	FeaturesAddModel	0.59	30	db/wta_database	200	600	80000	[]	__launches/22_May_2016_02:16:15_1.lua	true	1990-01-01	./results/tennis_wta	2060-01-01	2008-01-01	false
14	355	{"threshold":30,"db":"db/wta_database","nTest":600,"tStart":"1990-01-01","nValidation":200,"verbose":"false","shuffle":"true","option_file":"__launches/22_May_2016_02:16:15_1.lua","logPath":"./results/tennis_wta","Tmax":"2060-01-01","Tmin":"2008-01-01","nTrain":80000}	{"jSize":30,"learningRate":0.001,"nClasses":2,"batchSize":50,"weightDecay":0,"alg":"adagrad","momentum":0,"initValues":0.1,"features":{"country":true,"age":true,"surface":true,"level":true,"round":true},"learningRateDecay":0}	0.92372881355932	176	0.95315567512543	{"threshold":30,"dTrainStart":"2008-1-1","dTrainEnd":"2011-6-13","dTestEnd":"2011-6-20","dValidationEnd":"2011-6-20","nValidation":200,"tStart":"1990-01-01","shuffle":"true","nTrain":55012,"nTest":600}	0.50539772727273	0.36225394018871	88.95	FeaturesAddModel	0.59	30	db/wta_database	200	600	80000	[]	__launches/22_May_2016_02:16:15_1.lua	true	1990-01-01	./results/tennis_wta	2060-01-01	2008-01-01	false
15	380	{"threshold":30,"db":"db/wta_database","nTest":600,"tStart":"1990-01-01","nValidation":200,"verbose":"false","shuffle":"true","option_file":"__launches/22_May_2016_02:16:15_1.lua","logPath":"./results/tennis_wta","Tmax":"2060-01-01","Tmin":"2008-01-01","nTrain":80000}	{"jSize":30,"learningRate":0.001,"nClasses":2,"batchSize":50,"weightDecay":0,"alg":"adagrad","momentum":0,"initValues":0.1,"features":{"country":true,"age":true,"surface":true,"level":true,"round":true},"learningRateDecay":0}	0.92372881355932	176	0.95357376572384	{"threshold":30,"dTrainStart":"2008-1-1","dTrainEnd":"2011-6-13","dTestEnd":"2011-6-20","dValidationEnd":"2011-6-20","nValidation":200,"tStart":"1990-01-01","shuffle":"true","nTrain":55012,"nTest":600}	0.50539772727273	0.36184753230633	88.95	FeaturesAddModel	0.59	30	db/wta_database	200	600	80000	[]	__launches/22_May_2016_02:16:15_1.lua	true	1990-01-01	./results/tennis_wta	2060-01-01	2008-01-01	false
16	405	{"threshold":30,"db":"db/wta_database","nTest":600,"tStart":"1990-01-01","nValidation":200,"verbose":"false","shuffle":"true","option_file":"__launches/22_May_2016_02:16:15_1.lua","logPath":"./results/tennis_wta","Tmax":"2060-01-01","Tmin":"2008-01-01","nTrain":80000}	{"jSize":30,"learningRate":0.001,"nClasses":2,"batchSize":50,"weightDecay":0,"alg":"adagrad","momentum":0,"initValues":0.1,"features":{"country":true,"age":true,"surface":true,"level":true,"round":true},"learningRateDecay":0}	0.92372881355932	176	0.95386461135752	{"threshold":30,"dTrainStart":"2008-1-1","dTrainEnd":"2011-6-13","dTestEnd":"2011-6-20","dValidationEnd":"2011-6-20","nValidation":200,"tStart":"1990-01-01","shuffle":"true","nTrain":55012,"nTest":600}	0.50539772727273	0.36112460260145	88.95	FeaturesAddModel	0.59	30	db/wta_database	200	600	80000	[]	__launches/22_May_2016_02:16:15_1.lua	true	1990-01-01	./results/tennis_wta	2060-01-01	2008-01-01	false
17	430	{"threshold":30,"db":"db/wta_database","nTest":600,"tStart":"1990-01-01","nValidation":200,"verbose":"false","shuffle":"true","option_file":"__launches/22_May_2016_02:16:15_1.lua","logPath":"./results/tennis_wta","Tmax":"2060-01-01","Tmin":"2008-01-01","nTrain":80000}	{"jSize":30,"learningRate":0.001,"nClasses":2,"batchSize":50,"weightDecay":0,"alg":"adagrad","momentum":0,"initValues":0.1,"features":{"country":true,"age":true,"surface":true,"level":true,"round":true},"learningRateDecay":0}	0.92655367231638	176	0.95430087980804	{"threshold":30,"dTrainStart":"2008-1-1","dTrainEnd":"2011-6-13","dTestEnd":"2011-6-20","dValidationEnd":"2011-6-20","nValidation":200,"tStart":"1990-01-01","shuffle":"true","nTrain":55012,"nTest":600}	0.51534090909091	0.36068488725575	90.7	FeaturesAddModel	0.59	30	db/wta_database	200	600	80000	[]	__launches/22_May_2016_02:16:15_1.lua	true	1990-01-01	./results/tennis_wta	2060-01-01	2008-01-01	false
18	455	{"threshold":30,"db":"db/wta_database","nTest":600,"tStart":"1990-01-01","nValidation":200,"verbose":"false","shuffle":"true","option_file":"__launches/22_May_2016_02:16:15_1.lua","logPath":"./results/tennis_wta","Tmax":"2060-01-01","Tmin":"2008-01-01","nTrain":80000}	{"jSize":30,"learningRate":0.001,"nClasses":2,"batchSize":50,"weightDecay":0,"alg":"adagrad","momentum":0,"initValues":0.1,"features":{"country":true,"age":true,"surface":true,"level":true,"round":true},"learningRateDecay":0}	0.92372881355932	176	0.95431905766015	{"threshold":30,"dTrainStart":"2008-1-1","dTrainEnd":"2011-6-13","dTestEnd":"2011-6-20","dValidationEnd":"2011-6-20","nValidation":200,"tStart":"1990-01-01","shuffle":"true","nTrain":55012,"nTest":600}	0.51534090909091	0.36032370401178	90.7	FeaturesAddModel	0.59	30	db/wta_database	200	600	80000	[]	__launches/22_May_2016_02:16:15_1.lua	true	1990-01-01	./results/tennis_wta	2060-01-01	2008-01-01	false
19	480	{"threshold":30,"db":"db/wta_database","nTest":600,"tStart":"1990-01-01","nValidation":200,"verbose":"false","shuffle":"true","option_file":"__launches/22_May_2016_02:16:15_1.lua","logPath":"./results/tennis_wta","Tmax":"2060-01-01","Tmin":"2008-01-01","nTrain":80000}	{"jSize":30,"learningRate":0.001,"nClasses":2,"batchSize":50,"weightDecay":0,"alg":"adagrad","momentum":0,"initValues":0.1,"features":{"country":true,"age":true,"surface":true,"level":true,"round":true},"learningRateDecay":0}	0.92372881355932	176	0.95497346033593	{"threshold":30,"dTrainStart":"2008-1-1","dTrainEnd":"2011-6-13","dTestEnd":"2011-6-20","dValidationEnd":"2011-6-20","nValidation":200,"tStart":"1990-01-01","shuffle":"true","nTrain":55012,"nTest":600}	0.50539772727273	0.36000582286656	88.95	FeaturesAddModel	0.59	30	db/wta_database	200	600	80000	[]	__launches/22_May_2016_02:16:15_1.lua	true	1990-01-01	./results/tennis_wta	2060-01-01	2008-01-01	false
20	505	{"threshold":30,"db":"db/wta_database","nTest":600,"tStart":"1990-01-01","nValidation":200,"verbose":"false","shuffle":"true","option_file":"__launches/22_May_2016_02:16:15_1.lua","logPath":"./results/tennis_wta","Tmax":"2060-01-01","Tmin":"2008-01-01","nTrain":80000}	{"jSize":30,"learningRate":0.001,"nClasses":2,"batchSize":50,"weightDecay":0,"alg":"adagrad","momentum":0,"initValues":0.1,"features":{"country":true,"age":true,"surface":true,"level":true,"round":true},"learningRateDecay":0}	0.9180790960452	176	0.95513706100487	{"threshold":30,"dTrainStart":"2008-1-1","dTrainEnd":"2011-6-13","dTestEnd":"2011-6-20","dValidationEnd":"2011-6-20","nValidation":200,"tStart":"1990-01-01","shuffle":"true","nTrain":55012,"nTest":600}	0.50539772727273	0.35945611280858	88.95	FeaturesAddModel	0.59	30	db/wta_database	200	600	80000	[]	__launches/22_May_2016_02:16:15_1.lua	true	1990-01-01	./results/tennis_wta	2060-01-01	2008-01-01	false
21	530	{"threshold":30,"db":"db/wta_database","nTest":600,"tStart":"1990-01-01","nValidation":200,"verbose":"false","shuffle":"true","option_file":"__launches/22_May_2016_02:16:15_1.lua","logPath":"./results/tennis_wta","Tmax":"2060-01-01","Tmin":"2008-01-01","nTrain":80000}	{"jSize":30,"learningRate":0.001,"nClasses":2,"batchSize":50,"weightDecay":0,"alg":"adagrad","momentum":0,"initValues":0.1,"features":{"country":true,"age":true,"surface":true,"level":true,"round":true},"learningRateDecay":0}	0.92090395480226	176	0.95573693012434	{"threshold":30,"dTrainStart":"2008-1-1","dTrainEnd":"2011-6-13","dTestEnd":"2011-6-20","dValidationEnd":"2011-6-20","nValidation":200,"tStart":"1990-01-01","shuffle":"true","nTrain":55012,"nTest":600}	0.50539772727273	0.35903158251658	88.95	FeaturesAddModel	0.59	30	db/wta_database	200	600	80000	[]	__launches/22_May_2016_02:16:15_1.lua	true	1990-01-01	./results/tennis_wta	2060-01-01	2008-01-01	false
22	555	{"threshold":30,"db":"db/wta_database","nTest":600,"tStart":"1990-01-01","nValidation":200,"verbose":"false","shuffle":"true","option_file":"__launches/22_May_2016_02:16:15_1.lua","logPath":"./results/tennis_wta","Tmax":"2060-01-01","Tmin":"2008-01-01","nTrain":80000}	{"jSize":30,"learningRate":0.001,"nClasses":2,"batchSize":50,"weightDecay":0,"alg":"adagrad","momentum":0,"initValues":0.1,"features":{"country":true,"age":true,"surface":true,"level":true,"round":true},"learningRateDecay":0}	0.92090395480226	176	0.95577328582855	{"threshold":30,"dTrainStart":"2008-1-1","dTrainEnd":"2011-6-13","dTestEnd":"2011-6-20","dValidationEnd":"2011-6-20","nValidation":200,"tStart":"1990-01-01","shuffle":"true","nTrain":55012,"nTest":600}	0.51534090909091	0.35871186579203	90.7	FeaturesAddModel	0.59	30	db/wta_database	200	600	80000	[]	__launches/22_May_2016_02:16:15_1.lua	true	1990-01-01	./results/tennis_wta	2060-01-01	2008-01-01	false
23	580	{"threshold":30,"db":"db/wta_database","nTest":600,"tStart":"1990-01-01","nValidation":200,"verbose":"false","shuffle":"true","option_file":"__launches/22_May_2016_02:16:15_1.lua","logPath":"./results/tennis_wta","Tmax":"2060-01-01","Tmin":"2008-01-01","nTrain":80000}	{"jSize":30,"learningRate":0.001,"nClasses":2,"batchSize":50,"weightDecay":0,"alg":"adagrad","momentum":0,"initValues":0.1,"features":{"country":true,"age":true,"surface":true,"level":true,"round":true},"learningRateDecay":0}	0.92090395480226	176	0.95622773213117	{"threshold":30,"dTrainStart":"2008-1-1","dTrainEnd":"2011-6-13","dTestEnd":"2011-6-20","dValidationEnd":"2011-6-20","nValidation":200,"tStart":"1990-01-01","shuffle":"true","nTrain":55012,"nTest":600}	0.50539772727273	0.3585040721716	88.95	FeaturesAddModel	0.59	30	db/wta_database	200	600	80000	[]	__launches/22_May_2016_02:16:15_1.lua	true	1990-01-01	./results/tennis_wta	2060-01-01	2008-01-01	false
24	605	{"threshold":30,"db":"db/wta_database","nTest":600,"tStart":"1990-01-01","nValidation":200,"verbose":"false","shuffle":"true","option_file":"__launches/22_May_2016_02:16:15_1.lua","logPath":"./results/tennis_wta","Tmax":"2060-01-01","Tmin":"2008-01-01","nTrain":80000}	{"jSize":30,"learningRate":0.001,"nClasses":2,"batchSize":50,"weightDecay":0,"alg":"adagrad","momentum":0,"initValues":0.1,"features":{"country":true,"age":true,"surface":true,"level":true,"round":true},"learningRateDecay":0}	0.92090395480226	176	0.95610048716644	{"threshold":30,"dTrainStart":"2008-1-1","dTrainEnd":"2011-6-13","dTestEnd":"2011-6-20","dValidationEnd":"2011-6-20","nValidation":200,"tStart":"1990-01-01","shuffle":"true","nTrain":55012,"nTest":600}	0.50539772727273	0.35824457891938	88.95	FeaturesAddModel	0.59	30	db/wta_database	200	600	80000	[]	__launches/22_May_2016_02:16:15_1.lua	true	1990-01-01	./results/tennis_wta	2060-01-01	2008-01-01	false
25	630	{"threshold":30,"db":"db/wta_database","nTest":600,"tStart":"1990-01-01","nValidation":200,"verbose":"false","shuffle":"true","option_file":"__launches/22_May_2016_02:16:15_1.lua","logPath":"./results/tennis_wta","Tmax":"2060-01-01","Tmin":"2008-01-01","nTrain":80000}	{"jSize":30,"learningRate":0.001,"nClasses":2,"batchSize":50,"weightDecay":0,"alg":"adagrad","momentum":0,"initValues":0.1,"features":{"country":true,"age":true,"surface":true,"level":true,"round":true},"learningRateDecay":0}	0.92090395480226	176	0.95664582272959	{"threshold":30,"dTrainStart":"2008-1-1","dTrainEnd":"2011-6-13","dTestEnd":"2011-6-20","dValidationEnd":"2011-6-20","nValidation":200,"tStart":"1990-01-01","shuffle":"true","nTrain":55012,"nTest":600}	0.50539772727273	0.3578877054593	88.95	FeaturesAddModel	0.59	30	db/wta_database	200	600	80000	[]	__launches/22_May_2016_02:16:15_1.lua	true	1990-01-01	./results/tennis_wta	2060-01-01	2008-01-01	false
26	655	{"threshold":30,"db":"db/wta_database","nTest":600,"tStart":"1990-01-01","nValidation":200,"verbose":"false","shuffle":"true","option_file":"__launches/22_May_2016_02:16:15_1.lua","logPath":"./results/tennis_wta","Tmax":"2060-01-01","Tmin":"2008-01-01","nTrain":80000}	{"jSize":30,"learningRate":0.001,"nClasses":2,"batchSize":50,"weightDecay":0,"alg":"adagrad","momentum":0,"initValues":0.1,"features":{"country":true,"age":true,"surface":true,"level":true,"round":true},"learningRateDecay":0}	0.92090395480226	176	0.95677306769432	{"threshold":30,"dTrainStart":"2008-1-1","dTrainEnd":"2011-6-13","dTestEnd":"2011-6-20","dValidationEnd":"2011-6-20","nValidation":200,"tStart":"1990-01-01","shuffle":"true","nTrain":55012,"nTest":600}	0.50539772727273	0.35771468115734	88.95	FeaturesAddModel	0.59	30	db/wta_database	200	600	80000	[]	__launches/22_May_2016_02:16:15_1.lua	true	1990-01-01	./results/tennis_wta	2060-01-01	2008-01-01	false
27	680	{"threshold":30,"db":"db/wta_database","nTest":600,"tStart":"1990-01-01","nValidation":200,"verbose":"false","shuffle":"true","option_file":"__launches/22_May_2016_02:16:15_1.lua","logPath":"./results/tennis_wta","Tmax":"2060-01-01","Tmin":"2008-01-01","nTrain":80000}	{"jSize":30,"learningRate":0.001,"nClasses":2,"batchSize":50,"weightDecay":0,"alg":"adagrad","momentum":0,"initValues":0.1,"features":{"country":true,"age":true,"surface":true,"level":true,"round":true},"learningRateDecay":0}	0.92090395480226	176	0.95655493346906	{"threshold":30,"dTrainStart":"2008-1-1","dTrainEnd":"2011-6-13","dTestEnd":"2011-6-20","dValidationEnd":"2011-6-20","nValidation":200,"tStart":"1990-01-01","shuffle":"true","nTrain":55012,"nTest":600}	0.51534090909091	0.35746934163097	90.7	FeaturesAddModel	0.59	30	db/wta_database	200	600	80000	[]	__launches/22_May_2016_02:16:15_1.lua	true	1990-01-01	./results/tennis_wta	2060-01-01	2008-01-01	false
28	705	{"threshold":30,"db":"db/wta_database","nTest":600,"tStart":"1990-01-01","nValidation":200,"verbose":"false","shuffle":"true","option_file":"__launches/22_May_2016_02:16:15_1.lua","logPath":"./results/tennis_wta","Tmax":"2060-01-01","Tmin":"2008-01-01","nTrain":80000}	{"jSize":30,"learningRate":0.001,"nClasses":2,"batchSize":50,"weightDecay":0,"alg":"adagrad","momentum":0,"initValues":0.1,"features":{"country":true,"age":true,"surface":true,"level":true,"round":true},"learningRateDecay":0}	0.9180790960452	176	0.95686395695485	{"threshold":30,"dTrainStart":"2008-1-1","dTrainEnd":"2011-6-13","dTestEnd":"2011-6-20","dValidationEnd":"2011-6-20","nValidation":200,"tStart":"1990-01-01","shuffle":"true","nTrain":55012,"nTest":600}	0.50539772727273	0.3573403347119	88.95	FeaturesAddModel	0.59	30	db/wta_database	200	600	80000	[]	__launches/22_May_2016_02:16:15_1.lua	true	1990-01-01	./results/tennis_wta	2060-01-01	2008-01-01	false
29	730	{"threshold":30,"db":"db/wta_database","nTest":600,"tStart":"1990-01-01","nValidation":200,"verbose":"false","shuffle":"true","option_file":"__launches/22_May_2016_02:16:15_1.lua","logPath":"./results/tennis_wta","Tmax":"2060-01-01","Tmin":"2008-01-01","nTrain":80000}	{"jSize":30,"learningRate":0.001,"nClasses":2,"batchSize":50,"weightDecay":0,"alg":"adagrad","momentum":0,"initValues":0.1,"features":{"country":true,"age":true,"surface":true,"level":true,"round":true},"learningRateDecay":0}	0.9180790960452	176	0.95697302406748	{"threshold":30,"dTrainStart":"2008-1-1","dTrainEnd":"2011-6-13","dTestEnd":"2011-6-20","dValidationEnd":"2011-6-20","nValidation":200,"tStart":"1990-01-01","shuffle":"true","nTrain":55012,"nTest":600}	0.50539772727273	0.35734736393685	88.95	FeaturesAddModel	0.59	30	db/wta_database	200	600	80000	[]	__launches/22_May_2016_02:16:15_1.lua	true	1990-01-01	./results/tennis_wta	2060-01-01	2008-01-01	false
30	755	{"threshold":30,"db":"db/wta_database","nTest":600,"tStart":"1990-01-01","nValidation":200,"verbose":"false","shuffle":"true","option_file":"__launches/22_May_2016_02:16:15_1.lua","logPath":"./results/tennis_wta","Tmax":"2060-01-01","Tmin":"2008-01-01","nTrain":80000}	{"jSize":30,"learningRate":0.001,"nClasses":2,"batchSize":50,"weightDecay":0,"alg":"adagrad","momentum":0,"initValues":0.1,"features":{"country":true,"age":true,"surface":true,"level":true,"round":true},"learningRateDecay":0}	0.92372881355932	176	0.95717298044063	{"threshold":30,"dTrainStart":"2008-1-1","dTrainEnd":"2011-6-13","dTestEnd":"2011-6-20","dValidationEnd":"2011-6-20","nValidation":200,"tStart":"1990-01-01","shuffle":"true","nTrain":55012,"nTest":600}	0.50539772727273	0.35708143428924	88.95	FeaturesAddModel	0.59	30	db/wta_database	200	600	80000	[]	__launches/22_May_2016_02:16:15_1.lua	true	1990-01-01	./results/tennis_wta	2060-01-01	2008-01-01	false
31	780	{"threshold":30,"db":"db/wta_database","nTest":600,"tStart":"1990-01-01","nValidation":200,"verbose":"false","shuffle":"true","option_file":"__launches/22_May_2016_02:16:15_1.lua","logPath":"./results/tennis_wta","Tmax":"2060-01-01","Tmin":"2008-01-01","nTrain":80000}	{"jSize":30,"learningRate":0.001,"nClasses":2,"batchSize":50,"weightDecay":0,"alg":"adagrad","momentum":0,"initValues":0.1,"features":{"country":true,"age":true,"surface":true,"level":true,"round":true},"learningRateDecay":0}	0.9180790960452	176	0.95702755762379	{"threshold":30,"dTrainStart":"2008-1-1","dTrainEnd":"2011-6-13","dTestEnd":"2011-6-20","dValidationEnd":"2011-6-20","nValidation":200,"tStart":"1990-01-01","shuffle":"true","nTrain":55012,"nTest":600}	0.50539772727273	0.35701209195279	88.95	FeaturesAddModel	0.59	30	db/wta_database	200	600	80000	[]	__launches/22_May_2016_02:16:15_1.lua	true	1990-01-01	./results/tennis_wta	2060-01-01	2008-01-01	false
32	805	{"threshold":30,"db":"db/wta_database","nTest":600,"tStart":"1990-01-01","nValidation":200,"verbose":"false","shuffle":"true","option_file":"__launches/22_May_2016_02:16:15_1.lua","logPath":"./results/tennis_wta","Tmax":"2060-01-01","Tmin":"2008-01-01","nTrain":80000}	{"jSize":30,"learningRate":0.001,"nClasses":2,"batchSize":50,"weightDecay":0,"alg":"adagrad","momentum":0,"initValues":0.1,"features":{"country":true,"age":true,"surface":true,"level":true,"round":true},"learningRateDecay":0}	0.92372881355932	176	0.95711844688432	{"threshold":30,"dTrainStart":"2008-1-1","dTrainEnd":"2011-6-13","dTestEnd":"2011-6-20","dValidationEnd":"2011-6-20","nValidation":200,"tStart":"1990-01-01","shuffle":"true","nTrain":55012,"nTest":600}	0.50539772727273	0.3568799675019	88.95	FeaturesAddModel	0.59	30	db/wta_database	200	600	80000	[]	__launches/22_May_2016_02:16:15_1.lua	true	1990-01-01	./results/tennis_wta	2060-01-01	2008-01-01	false
33	830	{"threshold":30,"db":"db/wta_database","nTest":600,"tStart":"1990-01-01","nValidation":200,"verbose":"false","shuffle":"true","option_file":"__launches/22_May_2016_02:16:15_1.lua","logPath":"./results/tennis_wta","Tmax":"2060-01-01","Tmin":"2008-01-01","nTrain":80000}	{"jSize":30,"learningRate":0.001,"nClasses":2,"batchSize":50,"weightDecay":0,"alg":"adagrad","momentum":0,"initValues":0.1,"features":{"country":true,"age":true,"surface":true,"level":true,"round":true},"learningRateDecay":0}	0.92090395480226	176	0.95702755762379	{"threshold":30,"dTrainStart":"2008-1-1","dTrainEnd":"2011-6-13","dTestEnd":"2011-6-20","dValidationEnd":"2011-6-20","nValidation":200,"tStart":"1990-01-01","shuffle":"true","nTrain":55012,"nTest":600}	0.50539772727273	0.35675000263205	88.95	FeaturesAddModel	0.59	30	db/wta_database	200	600	80000	[]	__launches/22_May_2016_02:16:15_1.lua	true	1990-01-01	./results/tennis_wta	2060-01-01	2008-01-01	false
34	855	{"threshold":30,"db":"db/wta_database","nTest":600,"tStart":"1990-01-01","nValidation":200,"verbose":"false","shuffle":"true","option_file":"__launches/22_May_2016_02:16:15_1.lua","logPath":"./results/tennis_wta","Tmax":"2060-01-01","Tmin":"2008-01-01","nTrain":80000}	{"jSize":30,"learningRate":0.001,"nClasses":2,"batchSize":50,"weightDecay":0,"alg":"adagrad","momentum":0,"initValues":0.1,"features":{"country":true,"age":true,"surface":true,"level":true,"round":true},"learningRateDecay":0}	0.92372881355932	176	0.95724569184905	{"threshold":30,"dTrainStart":"2008-1-1","dTrainEnd":"2011-6-13","dTestEnd":"2011-6-20","dValidationEnd":"2011-6-20","nValidation":200,"tStart":"1990-01-01","shuffle":"true","nTrain":55012,"nTest":600}	0.50539772727273	0.35663715510848	88.95	FeaturesAddModel	0.59	30	db/wta_database	200	600	80000	[]	__launches/22_May_2016_02:16:15_1.lua	true	1990-01-01	./results/tennis_wta	2060-01-01	2008-01-01	false
35	880	{"threshold":30,"db":"db/wta_database","nTest":600,"tStart":"1990-01-01","nValidation":200,"verbose":"false","shuffle":"true","option_file":"__launches/22_May_2016_02:16:15_1.lua","logPath":"./results/tennis_wta","Tmax":"2060-01-01","Tmin":"2008-01-01","nTrain":80000}	{"jSize":30,"learningRate":0.001,"nClasses":2,"batchSize":50,"weightDecay":0,"alg":"adagrad","momentum":0,"initValues":0.1,"features":{"country":true,"age":true,"surface":true,"level":true,"round":true},"learningRateDecay":0}	0.92372881355932	176	0.95750018177852	{"threshold":30,"dTrainStart":"2008-1-1","dTrainEnd":"2011-6-13","dTestEnd":"2011-6-20","dValidationEnd":"2011-6-20","nValidation":200,"tStart":"1990-01-01","shuffle":"true","nTrain":55012,"nTest":600}	0.50539772727273	0.35658046699414	88.95	FeaturesAddModel	0.59	30	db/wta_database	200	600	80000	[]	__launches/22_May_2016_02:16:15_1.lua	true	1990-01-01	./results/tennis_wta	2060-01-01	2008-01-01	false
36	905	{"threshold":30,"db":"db/wta_database","nTest":600,"tStart":"1990-01-01","nValidation":200,"verbose":"false","shuffle":"true","option_file":"__launches/22_May_2016_02:16:15_1.lua","logPath":"./results/tennis_wta","Tmax":"2060-01-01","Tmin":"2008-01-01","nTrain":80000}	{"jSize":30,"learningRate":0.001,"nClasses":2,"batchSize":50,"weightDecay":0,"alg":"adagrad","momentum":0,"initValues":0.1,"features":{"country":true,"age":true,"surface":true,"level":true,"round":true},"learningRateDecay":0}	0.92372881355932	176	0.95730022540537	{"threshold":30,"dTrainStart":"2008-1-1","dTrainEnd":"2011-6-13","dTestEnd":"2011-6-20","dValidationEnd":"2011-6-20","nValidation":200,"tStart":"1990-01-01","shuffle":"true","nTrain":55012,"nTest":600}	0.50539772727273	0.35646058846989	88.95	FeaturesAddModel	0.59	30	db/wta_database	200	600	80000	[]	__launches/22_May_2016_02:16:15_1.lua	true	1990-01-01	./results/tennis_wta	2060-01-01	2008-01-01	false
37	930	{"threshold":30,"db":"db/wta_database","nTest":600,"tStart":"1990-01-01","nValidation":200,"verbose":"false","shuffle":"true","option_file":"__launches/22_May_2016_02:16:15_1.lua","logPath":"./results/tennis_wta","Tmax":"2060-01-01","Tmin":"2008-01-01","nTrain":80000}	{"jSize":30,"learningRate":0.001,"nClasses":2,"batchSize":50,"weightDecay":0,"alg":"adagrad","momentum":0,"initValues":0.1,"features":{"country":true,"age":true,"surface":true,"level":true,"round":true},"learningRateDecay":0}	0.92372881355932	176	0.95724569184905	{"threshold":30,"dTrainStart":"2008-1-1","dTrainEnd":"2011-6-13","dTestEnd":"2011-6-20","dValidationEnd":"2011-6-20","nValidation":200,"tStart":"1990-01-01","shuffle":"true","nTrain":55012,"nTest":600}	0.50539772727273	0.35642349004389	88.95	FeaturesAddModel	0.59	30	db/wta_database	200	600	80000	[]	__launches/22_May_2016_02:16:15_1.lua	true	1990-01-01	./results/tennis_wta	2060-01-01	2008-01-01	false
38	955	{"threshold":30,"db":"db/wta_database","nTest":600,"tStart":"1990-01-01","nValidation":200,"verbose":"false","shuffle":"true","option_file":"__launches/22_May_2016_02:16:15_1.lua","logPath":"./results/tennis_wta","Tmax":"2060-01-01","Tmin":"2008-01-01","nTrain":80000}	{"jSize":30,"learningRate":0.001,"nClasses":2,"batchSize":50,"weightDecay":0,"alg":"adagrad","momentum":0,"initValues":0.1,"features":{"country":true,"age":true,"surface":true,"level":true,"round":true},"learningRateDecay":0}	0.9180790960452	176	0.95746382607431	{"threshold":30,"dTrainStart":"2008-1-1","dTrainEnd":"2011-6-13","dTestEnd":"2011-6-20","dValidationEnd":"2011-6-20","nValidation":200,"tStart":"1990-01-01","shuffle":"true","nTrain":55012,"nTest":600}	0.50539772727273	0.35644862995439	88.95	FeaturesAddModel	0.59	30	db/wta_database	200	600	80000	[]	__launches/22_May_2016_02:16:15_1.lua	true	1990-01-01	./results/tennis_wta	2060-01-01	2008-01-01	false
39	980	{"threshold":30,"db":"db/wta_database","nTest":600,"tStart":"1990-01-01","nValidation":200,"verbose":"false","shuffle":"true","option_file":"__launches/22_May_2016_02:16:15_1.lua","logPath":"./results/tennis_wta","Tmax":"2060-01-01","Tmin":"2008-01-01","nTrain":80000}	{"jSize":30,"learningRate":0.001,"nClasses":2,"batchSize":50,"weightDecay":0,"alg":"adagrad","momentum":0,"initValues":0.1,"features":{"country":true,"age":true,"surface":true,"level":true,"round":true},"learningRateDecay":0}	0.91525423728814	176	0.95735475896168	{"threshold":30,"dTrainStart":"2008-1-1","dTrainEnd":"2011-6-13","dTestEnd":"2011-6-20","dValidationEnd":"2011-6-20","nValidation":200,"tStart":"1990-01-01","shuffle":"true","nTrain":55012,"nTest":600}	0.49340909090909	0.35630296839848	86.84	FeaturesAddModel	0.59	30	db/wta_database	200	600	80000	[]	__launches/22_May_2016_02:16:15_1.lua	true	1990-01-01	./results/tennis_wta	2060-01-01	2008-01-01	false
40	1005	{"threshold":30,"db":"db/wta_database","nTest":600,"tStart":"1990-01-01","nValidation":200,"verbose":"false","shuffle":"true","option_file":"__launches/22_May_2016_02:16:15_1.lua","logPath":"./results/tennis_wta","Tmax":"2060-01-01","Tmin":"2008-01-01","nTrain":80000}	{"jSize":30,"learningRate":0.001,"nClasses":2,"batchSize":50,"weightDecay":0,"alg":"adagrad","momentum":0,"initValues":0.1,"features":{"country":true,"age":true,"surface":true,"level":true,"round":true},"learningRateDecay":0}	0.92090395480226	176	0.957409292518	{"threshold":30,"dTrainStart":"2008-1-1","dTrainEnd":"2011-6-13","dTestEnd":"2011-6-20","dValidationEnd":"2011-6-20","nValidation":200,"tStart":"1990-01-01","shuffle":"true","nTrain":55012,"nTest":600}	0.50539772727273	0.35618756220884	88.95	FeaturesAddModel	0.59	30	db/wta_database	200	600	80000	[]	__launches/22_May_2016_02:16:15_1.lua	true	1990-01-01	./results/tennis_wta	2060-01-01	2008-01-01	false
41	1030	{"threshold":30,"db":"db/wta_database","nTest":600,"tStart":"1990-01-01","nValidation":200,"verbose":"false","shuffle":"true","option_file":"__launches/22_May_2016_02:16:15_1.lua","logPath":"./results/tennis_wta","Tmax":"2060-01-01","Tmin":"2008-01-01","nTrain":80000}	{"jSize":30,"learningRate":0.001,"nClasses":2,"batchSize":50,"weightDecay":0,"alg":"adagrad","momentum":0,"initValues":0.1,"features":{"country":true,"age":true,"surface":true,"level":true,"round":true},"learningRateDecay":0}	0.9180790960452	176	0.95760924889115	{"threshold":30,"dTrainStart":"2008-1-1","dTrainEnd":"2011-6-13","dTestEnd":"2011-6-20","dValidationEnd":"2011-6-20","nValidation":200,"tStart":"1990-01-01","shuffle":"true","nTrain":55012,"nTest":600}	0.50539772727273	0.35617225190238	88.95	FeaturesAddModel	0.59	30	db/wta_database	200	600	80000	[]	__launches/22_May_2016_02:16:15_1.lua	true	1990-01-01	./results/tennis_wta	2060-01-01	2008-01-01	false
42	1055	{"threshold":30,"db":"db/wta_database","nTest":600,"tStart":"1990-01-01","nValidation":200,"verbose":"false","shuffle":"true","option_file":"__launches/22_May_2016_02:16:15_1.lua","logPath":"./results/tennis_wta","Tmax":"2060-01-01","Tmin":"2008-01-01","nTrain":80000}	{"jSize":30,"learningRate":0.001,"nClasses":2,"batchSize":50,"weightDecay":0,"alg":"adagrad","momentum":0,"initValues":0.1,"features":{"country":true,"age":true,"surface":true,"level":true,"round":true},"learningRateDecay":0}	0.92090395480226	176	0.95768196029957	{"threshold":30,"dTrainStart":"2008-1-1","dTrainEnd":"2011-6-13","dTestEnd":"2011-6-20","dValidationEnd":"2011-6-20","nValidation":200,"tStart":"1990-01-01","shuffle":"true","nTrain":55012,"nTest":600}	0.50539772727273	0.35613773741539	88.95	FeaturesAddModel	0.59	30	db/wta_database	200	600	80000	[]	__launches/22_May_2016_02:16:15_1.lua	true	1990-01-01	./results/tennis_wta	2060-01-01	2008-01-01	false
43	1080	{"threshold":30,"db":"db/wta_database","nTest":600,"tStart":"1990-01-01","nValidation":200,"verbose":"false","shuffle":"true","option_file":"__launches/22_May_2016_02:16:15_1.lua","logPath":"./results/tennis_wta","Tmax":"2060-01-01","Tmin":"2008-01-01","nTrain":80000}	{"jSize":30,"learningRate":0.001,"nClasses":2,"batchSize":50,"weightDecay":0,"alg":"adagrad","momentum":0,"initValues":0.1,"features":{"country":true,"age":true,"surface":true,"level":true,"round":true},"learningRateDecay":0}	0.91525423728814	176	0.95771831600378	{"threshold":30,"dTrainStart":"2008-1-1","dTrainEnd":"2011-6-13","dTestEnd":"2011-6-20","dValidationEnd":"2011-6-20","nValidation":200,"tStart":"1990-01-01","shuffle":"true","nTrain":55012,"nTest":600}	0.49340909090909	0.35601925751975	86.84	FeaturesAddModel	0.59	30	db/wta_database	200	600	80000	[]	__launches/22_May_2016_02:16:15_1.lua	true	1990-01-01	./results/tennis_wta	2060-01-01	2008-01-01	false
44	1105	{"threshold":30,"db":"db/wta_database","nTest":600,"tStart":"1990-01-01","nValidation":200,"verbose":"false","shuffle":"true","option_file":"__launches/22_May_2016_02:16:15_1.lua","logPath":"./results/tennis_wta","Tmax":"2060-01-01","Tmin":"2008-01-01","nTrain":80000}	{"jSize":30,"learningRate":0.001,"nClasses":2,"batchSize":50,"weightDecay":0,"alg":"adagrad","momentum":0,"initValues":0.1,"features":{"country":true,"age":true,"surface":true,"level":true,"round":true},"learningRateDecay":0}	0.91525423728814	176	0.95780920526431	{"threshold":30,"dTrainStart":"2008-1-1","dTrainEnd":"2011-6-13","dTestEnd":"2011-6-20","dValidationEnd":"2011-6-20","nValidation":200,"tStart":"1990-01-01","shuffle":"true","nTrain":55012,"nTest":600}	0.49340909090909	0.35594734473591	86.84	FeaturesAddModel	0.59	30	db/wta_database	200	600	80000	[]	__launches/22_May_2016_02:16:15_1.lua	true	1990-01-01	./results/tennis_wta	2060-01-01	2008-01-01	false
45	1130	{"threshold":30,"db":"db/wta_database","nTest":600,"tStart":"1990-01-01","nValidation":200,"verbose":"false","shuffle":"true","option_file":"__launches/22_May_2016_02:16:15_1.lua","logPath":"./results/tennis_wta","Tmax":"2060-01-01","Tmin":"2008-01-01","nTrain":80000}	{"jSize":30,"learningRate":0.001,"nClasses":2,"batchSize":50,"weightDecay":0,"alg":"adagrad","momentum":0,"initValues":0.1,"features":{"country":true,"age":true,"surface":true,"level":true,"round":true},"learningRateDecay":0}	0.91242937853107	176	0.95788191667273	{"threshold":30,"dTrainStart":"2008-1-1","dTrainEnd":"2011-6-13","dTestEnd":"2011-6-20","dValidationEnd":"2011-6-20","nValidation":200,"tStart":"1990-01-01","shuffle":"true","nTrain":55012,"nTest":600}	0.49340909090909	0.35592063137457	86.84	FeaturesAddModel	0.59	30	db/wta_database	200	600	80000	[]	__launches/22_May_2016_02:16:15_1.lua	true	1990-01-01	./results/tennis_wta	2060-01-01	2008-01-01	false
46	1155	{"threshold":30,"db":"db/wta_database","nTest":600,"tStart":"1990-01-01","nValidation":200,"verbose":"false","shuffle":"true","option_file":"__launches/22_May_2016_02:16:15_1.lua","logPath":"./results/tennis_wta","Tmax":"2060-01-01","Tmin":"2008-01-01","nTrain":80000}	{"jSize":30,"learningRate":0.001,"nClasses":2,"batchSize":50,"weightDecay":0,"alg":"adagrad","momentum":0,"initValues":0.1,"features":{"country":true,"age":true,"surface":true,"level":true,"round":true},"learningRateDecay":0}	0.91525423728814	176	0.95782738311641	{"threshold":30,"dTrainStart":"2008-1-1","dTrainEnd":"2011-6-13","dTestEnd":"2011-6-20","dValidationEnd":"2011-6-20","nValidation":200,"tStart":"1990-01-01","shuffle":"true","nTrain":55012,"nTest":600}	0.49340909090909	0.35578661883573	86.84	FeaturesAddModel	0.59	30	db/wta_database	200	600	80000	[]	__launches/22_May_2016_02:16:15_1.lua	true	1990-01-01	./results/tennis_wta	2060-01-01	2008-01-01	false
47	1180	{"threshold":30,"db":"db/wta_database","nTest":600,"tStart":"1990-01-01","nValidation":200,"verbose":"false","shuffle":"true","option_file":"__launches/22_May_2016_02:16:15_1.lua","logPath":"./results/tennis_wta","Tmax":"2060-01-01","Tmin":"2008-01-01","nTrain":80000}	{"jSize":30,"learningRate":0.001,"nClasses":2,"batchSize":50,"weightDecay":0,"alg":"adagrad","momentum":0,"initValues":0.1,"features":{"country":true,"age":true,"surface":true,"level":true,"round":true},"learningRateDecay":0}	0.9180790960452	176	0.95784556096852	{"threshold":30,"dTrainStart":"2008-1-1","dTrainEnd":"2011-6-13","dTestEnd":"2011-6-20","dValidationEnd":"2011-6-20","nValidation":200,"tStart":"1990-01-01","shuffle":"true","nTrain":55012,"nTest":600}	0.50335227272727	0.35576762042181	88.59	FeaturesAddModel	0.59	30	db/wta_database	200	600	80000	[]	__launches/22_May_2016_02:16:15_1.lua	true	1990-01-01	./results/tennis_wta	2060-01-01	2008-01-01	false
48	1205	{"threshold":30,"db":"db/wta_database","nTest":600,"tStart":"1990-01-01","nValidation":200,"verbose":"false","shuffle":"true","option_file":"__launches/22_May_2016_02:16:15_1.lua","logPath":"./results/tennis_wta","Tmax":"2060-01-01","Tmin":"2008-01-01","nTrain":80000}	{"jSize":30,"learningRate":0.001,"nClasses":2,"batchSize":50,"weightDecay":0,"alg":"adagrad","momentum":0,"initValues":0.1,"features":{"country":true,"age":true,"surface":true,"level":true,"round":true},"learningRateDecay":0}	0.9180790960452	176	0.95788191667273	{"threshold":30,"dTrainStart":"2008-1-1","dTrainEnd":"2011-6-13","dTestEnd":"2011-6-20","dValidationEnd":"2011-6-20","nValidation":200,"tStart":"1990-01-01","shuffle":"true","nTrain":55012,"nTest":600}	0.50335227272727	0.35574823943866	88.59	FeaturesAddModel	0.59	30	db/wta_database	200	600	80000	[]	__launches/22_May_2016_02:16:15_1.lua	true	1990-01-01	./results/tennis_wta	2060-01-01	2008-01-01	false
49	1230	{"threshold":30,"db":"db/wta_database","nTest":600,"tStart":"1990-01-01","nValidation":200,"verbose":"false","shuffle":"true","option_file":"__launches/22_May_2016_02:16:15_1.lua","logPath":"./results/tennis_wta","Tmax":"2060-01-01","Tmin":"2008-01-01","nTrain":80000}	{"jSize":30,"learningRate":0.001,"nClasses":2,"batchSize":50,"weightDecay":0,"alg":"adagrad","momentum":0,"initValues":0.1,"features":{"country":true,"age":true,"surface":true,"level":true,"round":true},"learningRateDecay":0}	0.91242937853107	176	0.95800916163746	{"threshold":30,"dTrainStart":"2008-1-1","dTrainEnd":"2011-6-13","dTestEnd":"2011-6-20","dValidationEnd":"2011-6-20","nValidation":200,"tStart":"1990-01-01","shuffle":"true","nTrain":55012,"nTest":600}	0.49340909090909	0.35573079970451	86.84	FeaturesAddModel	0.59	30	db/wta_database	200	600	80000	[]	__launches/22_May_2016_02:16:15_1.lua	true	1990-01-01	./results/tennis_wta	2060-01-01	2008-01-01	false
50	1255	{"threshold":30,"db":"db/wta_database","nTest":600,"tStart":"1990-01-01","nValidation":200,"verbose":"false","shuffle":"true","option_file":"__launches/22_May_2016_02:16:15_1.lua","logPath":"./results/tennis_wta","Tmax":"2060-01-01","Tmin":"2008-01-01","nTrain":80000}	{"jSize":30,"learningRate":0.001,"nClasses":2,"batchSize":50,"weightDecay":0,"alg":"adagrad","momentum":0,"initValues":0.1,"features":{"country":true,"age":true,"surface":true,"level":true,"round":true},"learningRateDecay":0}	0.9180790960452	176	0.95790009452483	{"threshold":30,"dTrainStart":"2008-1-1","dTrainEnd":"2011-6-13","dTestEnd":"2011-6-20","dValidationEnd":"2011-6-20","nValidation":200,"tStart":"1990-01-01","shuffle":"true","nTrain":55012,"nTest":600}	0.511875	0.35566608419897	90.09	FeaturesAddModel	0.59	30	db/wta_database	200	600	80000	[]	__launches/22_May_2016_02:16:15_1.lua	true	1990-01-01	./results/tennis_wta	2060-01-01	2008-01-01	false
51	1280	{"threshold":30,"db":"db/wta_database","nTest":600,"tStart":"1990-01-01","nValidation":200,"verbose":"false","shuffle":"true","option_file":"__launches/22_May_2016_02:16:15_1.lua","logPath":"./results/tennis_wta","Tmax":"2060-01-01","Tmin":"2008-01-01","nTrain":80000}	{"jSize":30,"learningRate":0.001,"nClasses":2,"batchSize":50,"weightDecay":0,"alg":"adagrad","momentum":0,"initValues":0.1,"features":{"country":true,"age":true,"surface":true,"level":true,"round":true},"learningRateDecay":0}	0.91525423728814	176	0.95804551734167	{"threshold":30,"dTrainStart":"2008-1-1","dTrainEnd":"2011-6-13","dTestEnd":"2011-6-20","dValidationEnd":"2011-6-20","nValidation":200,"tStart":"1990-01-01","shuffle":"true","nTrain":55012,"nTest":600}	0.49340909090909	0.35561650749276	86.84	FeaturesAddModel	0.59	30	db/wta_database	200	600	80000	[]	__launches/22_May_2016_02:16:15_1.lua	true	1990-01-01	./results/tennis_wta	2060-01-01	2008-01-01	false
52	1305	{"threshold":30,"db":"db/wta_database","nTest":600,"tStart":"1990-01-01","nValidation":200,"verbose":"false","shuffle":"true","option_file":"__launches/22_May_2016_02:16:15_1.lua","logPath":"./results/tennis_wta","Tmax":"2060-01-01","Tmin":"2008-01-01","nTrain":80000}	{"jSize":30,"learningRate":0.001,"nClasses":2,"batchSize":50,"weightDecay":0,"alg":"adagrad","momentum":0,"initValues":0.1,"features":{"country":true,"age":true,"surface":true,"level":true,"round":true},"learningRateDecay":0}	0.91525423728814	176	0.95804551734167	{"threshold":30,"dTrainStart":"2008-1-1","dTrainEnd":"2011-6-13","dTestEnd":"2011-6-20","dValidationEnd":"2011-6-20","nValidation":200,"tStart":"1990-01-01","shuffle":"true","nTrain":55012,"nTest":600}	0.49340909090909	0.35559227229941	86.84	FeaturesAddModel	0.59	30	db/wta_database	200	600	80000	[]	__launches/22_May_2016_02:16:15_1.lua	true	1990-01-01	./results/tennis_wta	2060-01-01	2008-01-01	false
53	1330	{"threshold":30,"db":"db/wta_database","nTest":600,"tStart":"1990-01-01","nValidation":200,"verbose":"false","shuffle":"true","option_file":"__launches/22_May_2016_02:16:15_1.lua","logPath":"./results/tennis_wta","Tmax":"2060-01-01","Tmin":"2008-01-01","nTrain":80000}	{"jSize":30,"learningRate":0.001,"nClasses":2,"batchSize":50,"weightDecay":0,"alg":"adagrad","momentum":0,"initValues":0.1,"features":{"country":true,"age":true,"surface":true,"level":true,"round":true},"learningRateDecay":0}	0.91242937853107	176	0.95799098378536	{"threshold":30,"dTrainStart":"2008-1-1","dTrainEnd":"2011-6-13","dTestEnd":"2011-6-20","dValidationEnd":"2011-6-20","nValidation":200,"tStart":"1990-01-01","shuffle":"true","nTrain":55012,"nTest":600}	0.49340909090909	0.3555391647058	86.84	FeaturesAddModel	0.59	30	db/wta_database	200	600	80000	[]	__launches/22_May_2016_02:16:15_1.lua	true	1990-01-01	./results/tennis_wta	2060-01-01	2008-01-01	false
54	1355	{"threshold":30,"db":"db/wta_database","nTest":600,"tStart":"1990-01-01","nValidation":200,"verbose":"false","shuffle":"true","option_file":"__launches/22_May_2016_02:16:15_1.lua","logPath":"./results/tennis_wta","Tmax":"2060-01-01","Tmin":"2008-01-01","nTrain":80000}	{"jSize":30,"learningRate":0.001,"nClasses":2,"batchSize":50,"weightDecay":0,"alg":"adagrad","momentum":0,"initValues":0.1,"features":{"country":true,"age":true,"surface":true,"level":true,"round":true},"learningRateDecay":0}	0.91242937853107	176	0.9581545844543	{"threshold":30,"dTrainStart":"2008-1-1","dTrainEnd":"2011-6-13","dTestEnd":"2011-6-20","dValidationEnd":"2011-6-20","nValidation":200,"tStart":"1990-01-01","shuffle":"true","nTrain":55012,"nTest":600}	0.49340909090909	0.35542194545515	86.84	FeaturesAddModel	0.59	30	db/wta_database	200	600	80000	[]	__launches/22_May_2016_02:16:15_1.lua	true	1990-01-01	./results/tennis_wta	2060-01-01	2008-01-01	false
55	1380	{"threshold":30,"db":"db/wta_database","nTest":600,"tStart":"1990-01-01","nValidation":200,"verbose":"false","shuffle":"true","option_file":"__launches/22_May_2016_02:16:15_1.lua","logPath":"./results/tennis_wta","Tmax":"2060-01-01","Tmin":"2008-01-01","nTrain":80000}	{"jSize":30,"learningRate":0.001,"nClasses":2,"batchSize":50,"weightDecay":0,"alg":"adagrad","momentum":0,"initValues":0.1,"features":{"country":true,"age":true,"surface":true,"level":true,"round":true},"learningRateDecay":0}	0.91242937853107	176	0.95817276230641	{"threshold":30,"dTrainStart":"2008-1-1","dTrainEnd":"2011-6-13","dTestEnd":"2011-6-20","dValidationEnd":"2011-6-20","nValidation":200,"tStart":"1990-01-01","shuffle":"true","nTrain":55012,"nTest":600}	0.49340909090909	0.35540085199237	86.84	FeaturesAddModel	0.59	30	db/wta_database	200	600	80000	[]	__launches/22_May_2016_02:16:15_1.lua	true	1990-01-01	./results/tennis_wta	2060-01-01	2008-01-01	false
56	1405	{"threshold":30,"db":"db/wta_database","nTest":600,"tStart":"1990-01-01","nValidation":200,"verbose":"false","shuffle":"true","option_file":"__launches/22_May_2016_02:16:15_1.lua","logPath":"./results/tennis_wta","Tmax":"2060-01-01","Tmin":"2008-01-01","nTrain":80000}	{"jSize":30,"learningRate":0.001,"nClasses":2,"batchSize":50,"weightDecay":0,"alg":"adagrad","momentum":0,"initValues":0.1,"features":{"country":true,"age":true,"surface":true,"level":true,"round":true},"learningRateDecay":0}	0.91525423728814	176	0.95820911801062	{"threshold":30,"dTrainStart":"2008-1-1","dTrainEnd":"2011-6-13","dTestEnd":"2011-6-20","dValidationEnd":"2011-6-20","nValidation":200,"tStart":"1990-01-01","shuffle":"true","nTrain":55012,"nTest":600}	0.49340909090909	0.35544257635692	86.84	FeaturesAddModel	0.59	30	db/wta_database	200	600	80000	[]	__launches/22_May_2016_02:16:15_1.lua	true	1990-01-01	./results/tennis_wta	2060-01-01	2008-01-01	false
57	1430	{"threshold":30,"db":"db/wta_database","nTest":600,"tStart":"1990-01-01","nValidation":200,"verbose":"false","shuffle":"true","option_file":"__launches/22_May_2016_02:16:15_1.lua","logPath":"./results/tennis_wta","Tmax":"2060-01-01","Tmin":"2008-01-01","nTrain":80000}	{"jSize":30,"learningRate":0.001,"nClasses":2,"batchSize":50,"weightDecay":0,"alg":"adagrad","momentum":0,"initValues":0.1,"features":{"country":true,"age":true,"surface":true,"level":true,"round":true},"learningRateDecay":0}	0.91525423728814	176	0.95822729586272	{"threshold":30,"dTrainStart":"2008-1-1","dTrainEnd":"2011-6-13","dTestEnd":"2011-6-20","dValidationEnd":"2011-6-20","nValidation":200,"tStart":"1990-01-01","shuffle":"true","nTrain":55012,"nTest":600}	0.50335227272727	0.35526940896351	88.59	FeaturesAddModel	0.59	30	db/wta_database	200	600	80000	[]	__launches/22_May_2016_02:16:15_1.lua	true	1990-01-01	./results/tennis_wta	2060-01-01	2008-01-01	false
58	1455	{"threshold":30,"db":"db/wta_database","nTest":600,"tStart":"1990-01-01","nValidation":200,"verbose":"false","shuffle":"true","option_file":"__launches/22_May_2016_02:16:15_1.lua","logPath":"./results/tennis_wta","Tmax":"2060-01-01","Tmin":"2008-01-01","nTrain":80000}	{"jSize":30,"learningRate":0.001,"nClasses":2,"batchSize":50,"weightDecay":0,"alg":"adagrad","momentum":0,"initValues":0.1,"features":{"country":true,"age":true,"surface":true,"level":true,"round":true},"learningRateDecay":0}	0.91525423728814	176	0.95826365156693	{"threshold":30,"dTrainStart":"2008-1-1","dTrainEnd":"2011-6-13","dTestEnd":"2011-6-20","dValidationEnd":"2011-6-20","nValidation":200,"tStart":"1990-01-01","shuffle":"true","nTrain":55012,"nTest":600}	0.49340909090909	0.35539441806108	86.84	FeaturesAddModel	0.59	30	db/wta_database	200	600	80000	[]	__launches/22_May_2016_02:16:15_1.lua	true	1990-01-01	./results/tennis_wta	2060-01-01	2008-01-01	false
