iteration	kellyBetNumber	probBetNumber	naiveBank	trainPrecision	naiveBetNumber	model	kellyBank	epoch	opt	modconfig	testRatio	TFconfig	testPrecision	kellyROI	naiveROI	probROI	probBank	threshold	db	nValidation	nTest	nTrain	log	option_file	shuffle	tStart	logPath	Tmax	Tmin	verbose
0	0	0	-74.25	0.3275	600	RandomModel	0	1	{"threshold":0,"db":"./db/foot_database","nTest":600,"tStart":"1990-01-01","nValidation":200,"verbose":"false","shuffle":"true","option_file":"__launches/22_May_2016_17:04:33_1.lua","logPath":"./results/foot","Tmax":"2060-01-01","Tmin":"2008-01-01","nTrain":4000}	{"stepEpoch":1,"module_name":"RandomModel","nClasses":3,"maxEpoch":3}	1	{"threshold":0,"dTrainStart":"2008-01-02","dTrainEnd":"2008-10-31","dTestEnd":"2008-12-05","dValidationEnd":"2008-12-13","nValidation":200,"tStart":"1990-01-01","shuffle":"true","nTrain":4000,"nTest":600}	0.315	0	-0.12375	0	0	0	./db/foot_database	200	600	4000	[]	__launches/22_May_2016_17:04:33_1.lua	true	1990-01-01	./results/foot	2060-01-01	2008-01-01	false
1	0	0	-28.99	0.331	600	RandomModel	0	2	{"threshold":0,"db":"./db/foot_database","nTest":600,"tStart":"1990-01-01","nValidation":200,"verbose":"false","shuffle":"true","option_file":"__launches/22_May_2016_17:04:33_1.lua","logPath":"./results/foot","Tmax":"2060-01-01","Tmin":"2008-01-01","nTrain":4000}	{"stepEpoch":1,"module_name":"RandomModel","nClasses":3,"maxEpoch":3}	1	{"threshold":0,"dTrainStart":"2008-01-02","dTrainEnd":"2008-10-31","dTestEnd":"2008-12-05","dValidationEnd":"2008-12-13","nValidation":200,"tStart":"1990-01-01","shuffle":"true","nTrain":4000,"nTest":600}	0.33666666666667	0	-0.048316666666666	0	0	0	./db/foot_database	200	600	4000	[]	__launches/22_May_2016_17:04:33_1.lua	true	1990-01-01	./results/foot	2060-01-01	2008-01-01	false
