iteration	kellyBetNumber	probBetNumber	naiveBank	trainPrecision	naiveBetNumber	model	kellyBank	epoch	opt	modconfig	testRatio	TFconfig	testPrecision	kellyROI	naiveROI	probROI	probBank	threshold	db	nValidation	nTest	nTrain	log	option_file	shuffle	tStart	logPath	Tmax	Tmin	verbose
0	0	0	-70.86	0.33025	600	RandomModel	0	1	{"threshold":0,"db":"./db/foot_database","nTest":600,"tStart":"1990-01-01","nValidation":200,"verbose":"false","shuffle":"true","option_file":"__launches/22_May_2016_17:04:31_1.lua","logPath":"./results/foot","Tmax":"2060-01-01","Tmin":"2007-01-01","nTrain":4000}	{"stepEpoch":1,"module_name":"RandomModel","nClasses":3,"maxEpoch":3}	1	{"threshold":0,"dTrainStart":"2007-01-02","dTrainEnd":"2007-11-03","dTestEnd":"2007-12-08","dValidationEnd":"2007-12-22","nValidation":200,"tStart":"1990-01-01","shuffle":"true","nTrain":4000,"nTest":600}	0.32833333333333	0	-0.1181	0	0	0	./db/foot_database	200	600	4000	[]	__launches/22_May_2016_17:04:31_1.lua	true	1990-01-01	./results/foot	2060-01-01	2007-01-01	false
1	0	0	-26.77	0.3465	600	RandomModel	0	2	{"threshold":0,"db":"./db/foot_database","nTest":600,"tStart":"1990-01-01","nValidation":200,"verbose":"false","shuffle":"true","option_file":"__launches/22_May_2016_17:04:31_1.lua","logPath":"./results/foot","Tmax":"2060-01-01","Tmin":"2007-01-01","nTrain":4000}	{"stepEpoch":1,"module_name":"RandomModel","nClasses":3,"maxEpoch":3}	1	{"threshold":0,"dTrainStart":"2007-01-02","dTrainEnd":"2007-11-03","dTestEnd":"2007-12-08","dValidationEnd":"2007-12-22","nValidation":200,"tStart":"1990-01-01","shuffle":"true","nTrain":4000,"nTest":600}	0.34666666666667	0	-0.044616666666667	0	0	0	./db/foot_database	200	600	4000	[]	__launches/22_May_2016_17:04:31_1.lua	true	1990-01-01	./results/foot	2060-01-01	2007-01-01	false
