iteration	epoch	opt	modconfig	testPrecision	naiveBetNumber	trainPrecision	TFconfig	naiveROI	trainLoss	naiveBank	model	testRatio	threshold	db	nValidation	nTest	nTrain	log	option_file	shuffle	tStart	logPath	Tmax	Tmin	verbose
0	5	{"threshold":0,"db":"db/foot_database","nTest":600,"tStart":"1990-01-01","nValidation":200,"verbose":"false","shuffle":"true","option_file":"__launches/22_May_2016_12:45:11_1.lua","logPath":"./results/foot","Tmax":"2060-01-01","Tmin":"2012-01-01","nTrain":4000}	{"jSize":30,"learningRate":0.001,"nClasses":3,"batchSize":50,"alg":"adagrad","model":"MatrixFactSubModel","momentum":0,"initValues":0.1,"weightDecay":0,"learningRateDecay":0}	0.37166666666667	600	0.53375	{"threshold":0,"dTrainStart":"2012-01-02","dTrainEnd":"2012-10-27","dTestEnd":"2012-11-25","dValidationEnd":"2012-12-08","nValidation":200,"tStart":"1990-01-01","shuffle":"true","nTrain":4000,"nTest":600}	-0.1508	1.0360017510598	-90.48	MatrixFactSubModel	1	0	db/foot_database	200	600	4000	[]	__launches/22_May_2016_12:45:11_1.lua	true	1990-01-01	./results/foot	2060-01-01	2012-01-01	false
1	30	{"threshold":0,"db":"db/foot_database","nTest":600,"tStart":"1990-01-01","nValidation":200,"verbose":"false","shuffle":"true","option_file":"__launches/22_May_2016_12:45:11_1.lua","logPath":"./results/foot","Tmax":"2060-01-01","Tmin":"2012-01-01","nTrain":4000}	{"jSize":30,"learningRate":0.001,"nClasses":3,"batchSize":50,"alg":"adagrad","model":"MatrixFactSubModel","momentum":0,"initValues":0.1,"weightDecay":0,"learningRateDecay":0}	0.36666666666667	600	0.59175	{"threshold":0,"dTrainStart":"2012-01-02","dTrainEnd":"2012-10-27","dTestEnd":"2012-11-25","dValidationEnd":"2012-12-08","nValidation":200,"tStart":"1990-01-01","shuffle":"true","nTrain":4000,"nTest":600}	-0.096516666666667	0.98875972606703	-57.91	MatrixFactSubModel	1	0	db/foot_database	200	600	4000	[]	__launches/22_May_2016_12:45:11_1.lua	true	1990-01-01	./results/foot	2060-01-01	2012-01-01	false
2	55	{"threshold":0,"db":"db/foot_database","nTest":600,"tStart":"1990-01-01","nValidation":200,"verbose":"false","shuffle":"true","option_file":"__launches/22_May_2016_12:45:11_1.lua","logPath":"./results/foot","Tmax":"2060-01-01","Tmin":"2012-01-01","nTrain":4000}	{"jSize":30,"learningRate":0.001,"nClasses":3,"batchSize":50,"alg":"adagrad","model":"MatrixFactSubModel","momentum":0,"initValues":0.1,"weightDecay":0,"learningRateDecay":0}	0.38166666666667	600	0.62825	{"threshold":0,"dTrainStart":"2012-01-02","dTrainEnd":"2012-10-27","dTestEnd":"2012-11-25","dValidationEnd":"2012-12-08","nValidation":200,"tStart":"1990-01-01","shuffle":"true","nTrain":4000,"nTest":600}	-0.077733333333334	0.95053919259735	-46.64	MatrixFactSubModel	1	0	db/foot_database	200	600	4000	[]	__launches/22_May_2016_12:45:11_1.lua	true	1990-01-01	./results/foot	2060-01-01	2012-01-01	false
3	80	{"threshold":0,"db":"db/foot_database","nTest":600,"tStart":"1990-01-01","nValidation":200,"verbose":"false","shuffle":"true","option_file":"__launches/22_May_2016_12:45:11_1.lua","logPath":"./results/foot","Tmax":"2060-01-01","Tmin":"2012-01-01","nTrain":4000}	{"jSize":30,"learningRate":0.001,"nClasses":3,"batchSize":50,"alg":"adagrad","model":"MatrixFactSubModel","momentum":0,"initValues":0.1,"weightDecay":0,"learningRateDecay":0}	0.355	600	0.64225	{"threshold":0,"dTrainStart":"2012-01-02","dTrainEnd":"2012-10-27","dTestEnd":"2012-11-25","dValidationEnd":"2012-12-08","nValidation":200,"tStart":"1990-01-01","shuffle":"true","nTrain":4000,"nTest":600}	-0.16238333333333	0.9351923921085	-97.43	MatrixFactSubModel	1	0	db/foot_database	200	600	4000	[]	__launches/22_May_2016_12:45:11_1.lua	true	1990-01-01	./results/foot	2060-01-01	2012-01-01	false
4	105	{"threshold":0,"db":"db/foot_database","nTest":600,"tStart":"1990-01-01","nValidation":200,"verbose":"false","shuffle":"true","option_file":"__launches/22_May_2016_12:45:11_1.lua","logPath":"./results/foot","Tmax":"2060-01-01","Tmin":"2012-01-01","nTrain":4000}	{"jSize":30,"learningRate":0.001,"nClasses":3,"batchSize":50,"alg":"adagrad","model":"MatrixFactSubModel","momentum":0,"initValues":0.1,"weightDecay":0,"learningRateDecay":0}	0.36333333333333	600	0.655	{"threshold":0,"dTrainStart":"2012-01-02","dTrainEnd":"2012-10-27","dTestEnd":"2012-11-25","dValidationEnd":"2012-12-08","nValidation":200,"tStart":"1990-01-01","shuffle":"true","nTrain":4000,"nTest":600}	-0.10763333333333	0.91785690276161	-64.58	MatrixFactSubModel	1	0	db/foot_database	200	600	4000	[]	__launches/22_May_2016_12:45:11_1.lua	true	1990-01-01	./results/foot	2060-01-01	2012-01-01	false
5	130	{"threshold":0,"db":"db/foot_database","nTest":600,"tStart":"1990-01-01","nValidation":200,"verbose":"false","shuffle":"true","option_file":"__launches/22_May_2016_12:45:11_1.lua","logPath":"./results/foot","Tmax":"2060-01-01","Tmin":"2012-01-01","nTrain":4000}	{"jSize":30,"learningRate":0.001,"nClasses":3,"batchSize":50,"alg":"adagrad","model":"MatrixFactSubModel","momentum":0,"initValues":0.1,"weightDecay":0,"learningRateDecay":0}	0.37166666666667	600	0.66825	{"threshold":0,"dTrainStart":"2012-01-02","dTrainEnd":"2012-10-27","dTestEnd":"2012-11-25","dValidationEnd":"2012-12-08","nValidation":200,"tStart":"1990-01-01","shuffle":"true","nTrain":4000,"nTest":600}	-0.08155	0.90668927499146	-48.93	MatrixFactSubModel	1	0	db/foot_database	200	600	4000	[]	__launches/22_May_2016_12:45:11_1.lua	true	1990-01-01	./results/foot	2060-01-01	2012-01-01	false
6	155	{"threshold":0,"db":"db/foot_database","nTest":600,"tStart":"1990-01-01","nValidation":200,"verbose":"false","shuffle":"true","option_file":"__launches/22_May_2016_12:45:11_1.lua","logPath":"./results/foot","Tmax":"2060-01-01","Tmin":"2012-01-01","nTrain":4000}	{"jSize":30,"learningRate":0.001,"nClasses":3,"batchSize":50,"alg":"adagrad","model":"MatrixFactSubModel","momentum":0,"initValues":0.1,"weightDecay":0,"learningRateDecay":0}	0.34666666666667	600	0.6885	{"threshold":0,"dTrainStart":"2012-01-02","dTrainEnd":"2012-10-27","dTestEnd":"2012-11-25","dValidationEnd":"2012-12-08","nValidation":200,"tStart":"1990-01-01","shuffle":"true","nTrain":4000,"nTest":600}	-0.1387	0.89296312232801	-83.22	MatrixFactSubModel	1	0	db/foot_database	200	600	4000	[]	__launches/22_May_2016_12:45:11_1.lua	true	1990-01-01	./results/foot	2060-01-01	2012-01-01	false
7	180	{"threshold":0,"db":"db/foot_database","nTest":600,"tStart":"1990-01-01","nValidation":200,"verbose":"false","shuffle":"true","option_file":"__launches/22_May_2016_12:45:11_1.lua","logPath":"./results/foot","Tmax":"2060-01-01","Tmin":"2012-01-01","nTrain":4000}	{"jSize":30,"learningRate":0.001,"nClasses":3,"batchSize":50,"alg":"adagrad","model":"MatrixFactSubModel","momentum":0,"initValues":0.1,"weightDecay":0,"learningRateDecay":0}	0.35666666666667	600	0.69725	{"threshold":0,"dTrainStart":"2012-01-02","dTrainEnd":"2012-10-27","dTestEnd":"2012-11-25","dValidationEnd":"2012-12-08","nValidation":200,"tStart":"1990-01-01","shuffle":"true","nTrain":4000,"nTest":600}	-0.1329	0.87464828085312	-79.74	MatrixFactSubModel	1	0	db/foot_database	200	600	4000	[]	__launches/22_May_2016_12:45:11_1.lua	true	1990-01-01	./results/foot	2060-01-01	2012-01-01	false
8	205	{"threshold":0,"db":"db/foot_database","nTest":600,"tStart":"1990-01-01","nValidation":200,"verbose":"false","shuffle":"true","option_file":"__launches/22_May_2016_12:45:11_1.lua","logPath":"./results/foot","Tmax":"2060-01-01","Tmin":"2012-01-01","nTrain":4000}	{"jSize":30,"learningRate":0.001,"nClasses":3,"batchSize":50,"alg":"adagrad","model":"MatrixFactSubModel","momentum":0,"initValues":0.1,"weightDecay":0,"learningRateDecay":0}	0.37	600	0.70875	{"threshold":0,"dTrainStart":"2012-01-02","dTrainEnd":"2012-10-27","dTestEnd":"2012-11-25","dValidationEnd":"2012-12-08","nValidation":200,"tStart":"1990-01-01","shuffle":"true","nTrain":4000,"nTest":600}	-0.083166666666667	0.86169527057425	-49.9	MatrixFactSubModel	1	0	db/foot_database	200	600	4000	[]	__launches/22_May_2016_12:45:11_1.lua	true	1990-01-01	./results/foot	2060-01-01	2012-01-01	false
9	230	{"threshold":0,"db":"db/foot_database","nTest":600,"tStart":"1990-01-01","nValidation":200,"verbose":"false","shuffle":"true","option_file":"__launches/22_May_2016_12:45:11_1.lua","logPath":"./results/foot","Tmax":"2060-01-01","Tmin":"2012-01-01","nTrain":4000}	{"jSize":30,"learningRate":0.001,"nClasses":3,"batchSize":50,"alg":"adagrad","model":"MatrixFactSubModel","momentum":0,"initValues":0.1,"weightDecay":0,"learningRateDecay":0}	0.36	600	0.717	{"threshold":0,"dTrainStart":"2012-01-02","dTrainEnd":"2012-10-27","dTestEnd":"2012-11-25","dValidationEnd":"2012-12-08","nValidation":200,"tStart":"1990-01-01","shuffle":"true","nTrain":4000,"nTest":600}	-0.10698333333333	0.85182195734611	-64.19	MatrixFactSubModel	1	0	db/foot_database	200	600	4000	[]	__launches/22_May_2016_12:45:11_1.lua	true	1990-01-01	./results/foot	2060-01-01	2012-01-01	false
10	255	{"threshold":0,"db":"db/foot_database","nTest":600,"tStart":"1990-01-01","nValidation":200,"verbose":"false","shuffle":"true","option_file":"__launches/22_May_2016_12:45:11_1.lua","logPath":"./results/foot","Tmax":"2060-01-01","Tmin":"2012-01-01","nTrain":4000}	{"jSize":30,"learningRate":0.001,"nClasses":3,"batchSize":50,"alg":"adagrad","model":"MatrixFactSubModel","momentum":0,"initValues":0.1,"weightDecay":0,"learningRateDecay":0}	0.35333333333333	600	0.72975	{"threshold":0,"dTrainStart":"2012-01-02","dTrainEnd":"2012-10-27","dTestEnd":"2012-11-25","dValidationEnd":"2012-12-08","nValidation":200,"tStart":"1990-01-01","shuffle":"true","nTrain":4000,"nTest":600}	-0.0912	0.84227947393747	-54.72	MatrixFactSubModel	1	0	db/foot_database	200	600	4000	[]	__launches/22_May_2016_12:45:11_1.lua	true	1990-01-01	./results/foot	2060-01-01	2012-01-01	false
11	280	{"threshold":0,"db":"db/foot_database","nTest":600,"tStart":"1990-01-01","nValidation":200,"verbose":"false","shuffle":"true","option_file":"__launches/22_May_2016_12:45:11_1.lua","logPath":"./results/foot","Tmax":"2060-01-01","Tmin":"2012-01-01","nTrain":4000}	{"jSize":30,"learningRate":0.001,"nClasses":3,"batchSize":50,"alg":"adagrad","model":"MatrixFactSubModel","momentum":0,"initValues":0.1,"weightDecay":0,"learningRateDecay":0}	0.365	600	0.73525	{"threshold":0,"dTrainStart":"2012-01-02","dTrainEnd":"2012-10-27","dTestEnd":"2012-11-25","dValidationEnd":"2012-12-08","nValidation":200,"tStart":"1990-01-01","shuffle":"true","nTrain":4000,"nTest":600}	-0.077916666666667	0.83257583364054	-46.75	MatrixFactSubModel	1	0	db/foot_database	200	600	4000	[]	__launches/22_May_2016_12:45:11_1.lua	true	1990-01-01	./results/foot	2060-01-01	2012-01-01	false
12	305	{"threshold":0,"db":"db/foot_database","nTest":600,"tStart":"1990-01-01","nValidation":200,"verbose":"false","shuffle":"true","option_file":"__launches/22_May_2016_12:45:11_1.lua","logPath":"./results/foot","Tmax":"2060-01-01","Tmin":"2012-01-01","nTrain":4000}	{"jSize":30,"learningRate":0.001,"nClasses":3,"batchSize":50,"alg":"adagrad","model":"MatrixFactSubModel","momentum":0,"initValues":0.1,"weightDecay":0,"learningRateDecay":0}	0.35333333333333	600	0.7435	{"threshold":0,"dTrainStart":"2012-01-02","dTrainEnd":"2012-10-27","dTestEnd":"2012-11-25","dValidationEnd":"2012-12-08","nValidation":200,"tStart":"1990-01-01","shuffle":"true","nTrain":4000,"nTest":600}	-0.094933333333334	0.82862077340449	-56.96	MatrixFactSubModel	1	0	db/foot_database	200	600	4000	[]	__launches/22_May_2016_12:45:11_1.lua	true	1990-01-01	./results/foot	2060-01-01	2012-01-01	false
13	330	{"threshold":0,"db":"db/foot_database","nTest":600,"tStart":"1990-01-01","nValidation":200,"verbose":"false","shuffle":"true","option_file":"__launches/22_May_2016_12:45:11_1.lua","logPath":"./results/foot","Tmax":"2060-01-01","Tmin":"2012-01-01","nTrain":4000}	{"jSize":30,"learningRate":0.001,"nClasses":3,"batchSize":50,"alg":"adagrad","model":"MatrixFactSubModel","momentum":0,"initValues":0.1,"weightDecay":0,"learningRateDecay":0}	0.37166666666667	600	0.7505	{"threshold":0,"dTrainStart":"2012-01-02","dTrainEnd":"2012-10-27","dTestEnd":"2012-11-25","dValidationEnd":"2012-12-08","nValidation":200,"tStart":"1990-01-01","shuffle":"true","nTrain":4000,"nTest":600}	-0.0626	0.82092315585242	-37.56	MatrixFactSubModel	1	0	db/foot_database	200	600	4000	[]	__launches/22_May_2016_12:45:11_1.lua	true	1990-01-01	./results/foot	2060-01-01	2012-01-01	false
14	355	{"threshold":0,"db":"db/foot_database","nTest":600,"tStart":"1990-01-01","nValidation":200,"verbose":"false","shuffle":"true","option_file":"__launches/22_May_2016_12:45:11_1.lua","logPath":"./results/foot","Tmax":"2060-01-01","Tmin":"2012-01-01","nTrain":4000}	{"jSize":30,"learningRate":0.001,"nClasses":3,"batchSize":50,"alg":"adagrad","model":"MatrixFactSubModel","momentum":0,"initValues":0.1,"weightDecay":0,"learningRateDecay":0}	0.37166666666667	600	0.75025	{"threshold":0,"dTrainStart":"2012-01-02","dTrainEnd":"2012-10-27","dTestEnd":"2012-11-25","dValidationEnd":"2012-12-08","nValidation":200,"tStart":"1990-01-01","shuffle":"true","nTrain":4000,"nTest":600}	-0.056650000000001	0.81543178516437	-33.99	MatrixFactSubModel	1	0	db/foot_database	200	600	4000	[]	__launches/22_May_2016_12:45:11_1.lua	true	1990-01-01	./results/foot	2060-01-01	2012-01-01	false
15	380	{"threshold":0,"db":"db/foot_database","nTest":600,"tStart":"1990-01-01","nValidation":200,"verbose":"false","shuffle":"true","option_file":"__launches/22_May_2016_12:45:11_1.lua","logPath":"./results/foot","Tmax":"2060-01-01","Tmin":"2012-01-01","nTrain":4000}	{"jSize":30,"learningRate":0.001,"nClasses":3,"batchSize":50,"alg":"adagrad","model":"MatrixFactSubModel","momentum":0,"initValues":0.1,"weightDecay":0,"learningRateDecay":0}	0.36666666666667	600	0.75425	{"threshold":0,"dTrainStart":"2012-01-02","dTrainEnd":"2012-10-27","dTestEnd":"2012-11-25","dValidationEnd":"2012-12-08","nValidation":200,"tStart":"1990-01-01","shuffle":"true","nTrain":4000,"nTest":600}	-0.074483333333334	0.80866423822369	-44.69	MatrixFactSubModel	1	0	db/foot_database	200	600	4000	[]	__launches/22_May_2016_12:45:11_1.lua	true	1990-01-01	./results/foot	2060-01-01	2012-01-01	false
16	405	{"threshold":0,"db":"db/foot_database","nTest":600,"tStart":"1990-01-01","nValidation":200,"verbose":"false","shuffle":"true","option_file":"__launches/22_May_2016_12:45:11_1.lua","logPath":"./results/foot","Tmax":"2060-01-01","Tmin":"2012-01-01","nTrain":4000}	{"jSize":30,"learningRate":0.001,"nClasses":3,"batchSize":50,"alg":"adagrad","model":"MatrixFactSubModel","momentum":0,"initValues":0.1,"weightDecay":0,"learningRateDecay":0}	0.35833333333333	600	0.7675	{"threshold":0,"dTrainStart":"2012-01-02","dTrainEnd":"2012-10-27","dTestEnd":"2012-11-25","dValidationEnd":"2012-12-08","nValidation":200,"tStart":"1990-01-01","shuffle":"true","nTrain":4000,"nTest":600}	-0.11513333333333	0.80504676627747	-69.08	MatrixFactSubModel	1	0	db/foot_database	200	600	4000	[]	__launches/22_May_2016_12:45:11_1.lua	true	1990-01-01	./results/foot	2060-01-01	2012-01-01	false
17	430	{"threshold":0,"db":"db/foot_database","nTest":600,"tStart":"1990-01-01","nValidation":200,"verbose":"false","shuffle":"true","option_file":"__launches/22_May_2016_12:45:11_1.lua","logPath":"./results/foot","Tmax":"2060-01-01","Tmin":"2012-01-01","nTrain":4000}	{"jSize":30,"learningRate":0.001,"nClasses":3,"batchSize":50,"alg":"adagrad","model":"MatrixFactSubModel","momentum":0,"initValues":0.1,"weightDecay":0,"learningRateDecay":0}	0.36166666666667	600	0.7745	{"threshold":0,"dTrainStart":"2012-01-02","dTrainEnd":"2012-10-27","dTestEnd":"2012-11-25","dValidationEnd":"2012-12-08","nValidation":200,"tStart":"1990-01-01","shuffle":"true","nTrain":4000,"nTest":600}	-0.10216666666667	0.79345852017892	-61.3	MatrixFactSubModel	1	0	db/foot_database	200	600	4000	[]	__launches/22_May_2016_12:45:11_1.lua	true	1990-01-01	./results/foot	2060-01-01	2012-01-01	false
18	455	{"threshold":0,"db":"db/foot_database","nTest":600,"tStart":"1990-01-01","nValidation":200,"verbose":"false","shuffle":"true","option_file":"__launches/22_May_2016_12:45:11_1.lua","logPath":"./results/foot","Tmax":"2060-01-01","Tmin":"2012-01-01","nTrain":4000}	{"jSize":30,"learningRate":0.001,"nClasses":3,"batchSize":50,"alg":"adagrad","model":"MatrixFactSubModel","momentum":0,"initValues":0.1,"weightDecay":0,"learningRateDecay":0}	0.375	600	0.77325	{"threshold":0,"dTrainStart":"2012-01-02","dTrainEnd":"2012-10-27","dTestEnd":"2012-11-25","dValidationEnd":"2012-12-08","nValidation":200,"tStart":"1990-01-01","shuffle":"true","nTrain":4000,"nTest":600}	-0.076183333333334	0.78761351429289	-45.71	MatrixFactSubModel	1	0	db/foot_database	200	600	4000	[]	__launches/22_May_2016_12:45:11_1.lua	true	1990-01-01	./results/foot	2060-01-01	2012-01-01	false
19	480	{"threshold":0,"db":"db/foot_database","nTest":600,"tStart":"1990-01-01","nValidation":200,"verbose":"false","shuffle":"true","option_file":"__launches/22_May_2016_12:45:11_1.lua","logPath":"./results/foot","Tmax":"2060-01-01","Tmin":"2012-01-01","nTrain":4000}	{"jSize":30,"learningRate":0.001,"nClasses":3,"batchSize":50,"alg":"adagrad","model":"MatrixFactSubModel","momentum":0,"initValues":0.1,"weightDecay":0,"learningRateDecay":0}	0.365	600	0.77925	{"threshold":0,"dTrainStart":"2012-01-02","dTrainEnd":"2012-10-27","dTestEnd":"2012-11-25","dValidationEnd":"2012-12-08","nValidation":200,"tStart":"1990-01-01","shuffle":"true","nTrain":4000,"nTest":600}	-0.097116666666667	0.78493632145736	-58.27	MatrixFactSubModel	1	0	db/foot_database	200	600	4000	[]	__launches/22_May_2016_12:45:11_1.lua	true	1990-01-01	./results/foot	2060-01-01	2012-01-01	false
20	505	{"threshold":0,"db":"db/foot_database","nTest":600,"tStart":"1990-01-01","nValidation":200,"verbose":"false","shuffle":"true","option_file":"__launches/22_May_2016_12:45:11_1.lua","logPath":"./results/foot","Tmax":"2060-01-01","Tmin":"2012-01-01","nTrain":4000}	{"jSize":30,"learningRate":0.001,"nClasses":3,"batchSize":50,"alg":"adagrad","model":"MatrixFactSubModel","momentum":0,"initValues":0.1,"weightDecay":0,"learningRateDecay":0}	0.34833333333333	600	0.785	{"threshold":0,"dTrainStart":"2012-01-02","dTrainEnd":"2012-10-27","dTestEnd":"2012-11-25","dValidationEnd":"2012-12-08","nValidation":200,"tStart":"1990-01-01","shuffle":"true","nTrain":4000,"nTest":600}	-0.14195	0.77987783736975	-85.17	MatrixFactSubModel	1	0	db/foot_database	200	600	4000	[]	__launches/22_May_2016_12:45:11_1.lua	true	1990-01-01	./results/foot	2060-01-01	2012-01-01	false
21	530	{"threshold":0,"db":"db/foot_database","nTest":600,"tStart":"1990-01-01","nValidation":200,"verbose":"false","shuffle":"true","option_file":"__launches/22_May_2016_12:45:11_1.lua","logPath":"./results/foot","Tmax":"2060-01-01","Tmin":"2012-01-01","nTrain":4000}	{"jSize":30,"learningRate":0.001,"nClasses":3,"batchSize":50,"alg":"adagrad","model":"MatrixFactSubModel","momentum":0,"initValues":0.1,"weightDecay":0,"learningRateDecay":0}	0.34	600	0.785	{"threshold":0,"dTrainStart":"2012-01-02","dTrainEnd":"2012-10-27","dTestEnd":"2012-11-25","dValidationEnd":"2012-12-08","nValidation":200,"tStart":"1990-01-01","shuffle":"true","nTrain":4000,"nTest":600}	-0.15115	0.77870722277125	-90.69	MatrixFactSubModel	1	0	db/foot_database	200	600	4000	[]	__launches/22_May_2016_12:45:11_1.lua	true	1990-01-01	./results/foot	2060-01-01	2012-01-01	false
22	555	{"threshold":0,"db":"db/foot_database","nTest":600,"tStart":"1990-01-01","nValidation":200,"verbose":"false","shuffle":"true","option_file":"__launches/22_May_2016_12:45:11_1.lua","logPath":"./results/foot","Tmax":"2060-01-01","Tmin":"2012-01-01","nTrain":4000}	{"jSize":30,"learningRate":0.001,"nClasses":3,"batchSize":50,"alg":"adagrad","model":"MatrixFactSubModel","momentum":0,"initValues":0.1,"weightDecay":0,"learningRateDecay":0}	0.35666666666667	600	0.79075	{"threshold":0,"dTrainStart":"2012-01-02","dTrainEnd":"2012-10-27","dTestEnd":"2012-11-25","dValidationEnd":"2012-12-08","nValidation":200,"tStart":"1990-01-01","shuffle":"true","nTrain":4000,"nTest":600}	-0.11588333333333	0.77251424278797	-69.53	MatrixFactSubModel	1	0	db/foot_database	200	600	4000	[]	__launches/22_May_2016_12:45:11_1.lua	true	1990-01-01	./results/foot	2060-01-01	2012-01-01	false
23	580	{"threshold":0,"db":"db/foot_database","nTest":600,"tStart":"1990-01-01","nValidation":200,"verbose":"false","shuffle":"true","option_file":"__launches/22_May_2016_12:45:11_1.lua","logPath":"./results/foot","Tmax":"2060-01-01","Tmin":"2012-01-01","nTrain":4000}	{"jSize":30,"learningRate":0.001,"nClasses":3,"batchSize":50,"alg":"adagrad","model":"MatrixFactSubModel","momentum":0,"initValues":0.1,"weightDecay":0,"learningRateDecay":0}	0.34	600	0.79225	{"threshold":0,"dTrainStart":"2012-01-02","dTrainEnd":"2012-10-27","dTestEnd":"2012-11-25","dValidationEnd":"2012-12-08","nValidation":200,"tStart":"1990-01-01","shuffle":"true","nTrain":4000,"nTest":600}	-0.15326666666667	0.77197299075895	-91.96	MatrixFactSubModel	1	0	db/foot_database	200	600	4000	[]	__launches/22_May_2016_12:45:11_1.lua	true	1990-01-01	./results/foot	2060-01-01	2012-01-01	false
24	605	{"threshold":0,"db":"db/foot_database","nTest":600,"tStart":"1990-01-01","nValidation":200,"verbose":"false","shuffle":"true","option_file":"__launches/22_May_2016_12:45:11_1.lua","logPath":"./results/foot","Tmax":"2060-01-01","Tmin":"2012-01-01","nTrain":4000}	{"jSize":30,"learningRate":0.001,"nClasses":3,"batchSize":50,"alg":"adagrad","model":"MatrixFactSubModel","momentum":0,"initValues":0.1,"weightDecay":0,"learningRateDecay":0}	0.37	600	0.79925	{"threshold":0,"dTrainStart":"2012-01-02","dTrainEnd":"2012-10-27","dTestEnd":"2012-11-25","dValidationEnd":"2012-12-08","nValidation":200,"tStart":"1990-01-01","shuffle":"true","nTrain":4000,"nTest":600}	-0.0732	0.7601920014201	-43.92	MatrixFactSubModel	1	0	db/foot_database	200	600	4000	[]	__launches/22_May_2016_12:45:11_1.lua	true	1990-01-01	./results/foot	2060-01-01	2012-01-01	false
25	630	{"threshold":0,"db":"db/foot_database","nTest":600,"tStart":"1990-01-01","nValidation":200,"verbose":"false","shuffle":"true","option_file":"__launches/22_May_2016_12:45:11_1.lua","logPath":"./results/foot","Tmax":"2060-01-01","Tmin":"2012-01-01","nTrain":4000}	{"jSize":30,"learningRate":0.001,"nClasses":3,"batchSize":50,"alg":"adagrad","model":"MatrixFactSubModel","momentum":0,"initValues":0.1,"weightDecay":0,"learningRateDecay":0}	0.34333333333333	600	0.80725	{"threshold":0,"dTrainStart":"2012-01-02","dTrainEnd":"2012-10-27","dTestEnd":"2012-11-25","dValidationEnd":"2012-12-08","nValidation":200,"tStart":"1990-01-01","shuffle":"true","nTrain":4000,"nTest":600}	-0.15416666666667	0.7548642600847	-92.5	MatrixFactSubModel	1	0	db/foot_database	200	600	4000	[]	__launches/22_May_2016_12:45:11_1.lua	true	1990-01-01	./results/foot	2060-01-01	2012-01-01	false
26	655	{"threshold":0,"db":"db/foot_database","nTest":600,"tStart":"1990-01-01","nValidation":200,"verbose":"false","shuffle":"true","option_file":"__launches/22_May_2016_12:45:11_1.lua","logPath":"./results/foot","Tmax":"2060-01-01","Tmin":"2012-01-01","nTrain":4000}	{"jSize":30,"learningRate":0.001,"nClasses":3,"batchSize":50,"alg":"adagrad","model":"MatrixFactSubModel","momentum":0,"initValues":0.1,"weightDecay":0,"learningRateDecay":0}	0.36833333333333	600	0.80825	{"threshold":0,"dTrainStart":"2012-01-02","dTrainEnd":"2012-10-27","dTestEnd":"2012-11-25","dValidationEnd":"2012-12-08","nValidation":200,"tStart":"1990-01-01","shuffle":"true","nTrain":4000,"nTest":600}	-0.08545	0.75445337558243	-51.27	MatrixFactSubModel	1	0	db/foot_database	200	600	4000	[]	__launches/22_May_2016_12:45:11_1.lua	true	1990-01-01	./results/foot	2060-01-01	2012-01-01	false
27	680	{"threshold":0,"db":"db/foot_database","nTest":600,"tStart":"1990-01-01","nValidation":200,"verbose":"false","shuffle":"true","option_file":"__launches/22_May_2016_12:45:11_1.lua","logPath":"./results/foot","Tmax":"2060-01-01","Tmin":"2012-01-01","nTrain":4000}	{"jSize":30,"learningRate":0.001,"nClasses":3,"batchSize":50,"alg":"adagrad","model":"MatrixFactSubModel","momentum":0,"initValues":0.1,"weightDecay":0,"learningRateDecay":0}	0.365	600	0.8125	{"threshold":0,"dTrainStart":"2012-01-02","dTrainEnd":"2012-10-27","dTestEnd":"2012-11-25","dValidationEnd":"2012-12-08","nValidation":200,"tStart":"1990-01-01","shuffle":"true","nTrain":4000,"nTest":600}	-0.090033333333333	0.75155035223481	-54.02	MatrixFactSubModel	1	0	db/foot_database	200	600	4000	[]	__launches/22_May_2016_12:45:11_1.lua	true	1990-01-01	./results/foot	2060-01-01	2012-01-01	false
28	705	{"threshold":0,"db":"db/foot_database","nTest":600,"tStart":"1990-01-01","nValidation":200,"verbose":"false","shuffle":"true","option_file":"__launches/22_May_2016_12:45:11_1.lua","logPath":"./results/foot","Tmax":"2060-01-01","Tmin":"2012-01-01","nTrain":4000}	{"jSize":30,"learningRate":0.001,"nClasses":3,"batchSize":50,"alg":"adagrad","model":"MatrixFactSubModel","momentum":0,"initValues":0.1,"weightDecay":0,"learningRateDecay":0}	0.375	600	0.81375	{"threshold":0,"dTrainStart":"2012-01-02","dTrainEnd":"2012-10-27","dTestEnd":"2012-11-25","dValidationEnd":"2012-12-08","nValidation":200,"tStart":"1990-01-01","shuffle":"true","nTrain":4000,"nTest":600}	-0.067816666666667	0.75067895363061	-40.69	MatrixFactSubModel	1	0	db/foot_database	200	600	4000	[]	__launches/22_May_2016_12:45:11_1.lua	true	1990-01-01	./results/foot	2060-01-01	2012-01-01	false
29	730	{"threshold":0,"db":"db/foot_database","nTest":600,"tStart":"1990-01-01","nValidation":200,"verbose":"false","shuffle":"true","option_file":"__launches/22_May_2016_12:45:11_1.lua","logPath":"./results/foot","Tmax":"2060-01-01","Tmin":"2012-01-01","nTrain":4000}	{"jSize":30,"learningRate":0.001,"nClasses":3,"batchSize":50,"alg":"adagrad","model":"MatrixFactSubModel","momentum":0,"initValues":0.1,"weightDecay":0,"learningRateDecay":0}	0.34166666666667	600	0.8145	{"threshold":0,"dTrainStart":"2012-01-02","dTrainEnd":"2012-10-27","dTestEnd":"2012-11-25","dValidationEnd":"2012-12-08","nValidation":200,"tStart":"1990-01-01","shuffle":"true","nTrain":4000,"nTest":600}	-0.15216666666667	0.74442811799428	-91.3	MatrixFactSubModel	1	0	db/foot_database	200	600	4000	[]	__launches/22_May_2016_12:45:11_1.lua	true	1990-01-01	./results/foot	2060-01-01	2012-01-01	false
30	755	{"threshold":0,"db":"db/foot_database","nTest":600,"tStart":"1990-01-01","nValidation":200,"verbose":"false","shuffle":"true","option_file":"__launches/22_May_2016_12:45:11_1.lua","logPath":"./results/foot","Tmax":"2060-01-01","Tmin":"2012-01-01","nTrain":4000}	{"jSize":30,"learningRate":0.001,"nClasses":3,"batchSize":50,"alg":"adagrad","model":"MatrixFactSubModel","momentum":0,"initValues":0.1,"weightDecay":0,"learningRateDecay":0}	0.36333333333333	600	0.81175	{"threshold":0,"dTrainStart":"2012-01-02","dTrainEnd":"2012-10-27","dTestEnd":"2012-11-25","dValidationEnd":"2012-12-08","nValidation":200,"tStart":"1990-01-01","shuffle":"true","nTrain":4000,"nTest":600}	-0.085533333333333	0.74394817193621	-51.32	MatrixFactSubModel	1	0	db/foot_database	200	600	4000	[]	__launches/22_May_2016_12:45:11_1.lua	true	1990-01-01	./results/foot	2060-01-01	2012-01-01	false
31	780	{"threshold":0,"db":"db/foot_database","nTest":600,"tStart":"1990-01-01","nValidation":200,"verbose":"false","shuffle":"true","option_file":"__launches/22_May_2016_12:45:11_1.lua","logPath":"./results/foot","Tmax":"2060-01-01","Tmin":"2012-01-01","nTrain":4000}	{"jSize":30,"learningRate":0.001,"nClasses":3,"batchSize":50,"alg":"adagrad","model":"MatrixFactSubModel","momentum":0,"initValues":0.1,"weightDecay":0,"learningRateDecay":0}	0.36833333333333	600	0.81875	{"threshold":0,"dTrainStart":"2012-01-02","dTrainEnd":"2012-10-27","dTestEnd":"2012-11-25","dValidationEnd":"2012-12-08","nValidation":200,"tStart":"1990-01-01","shuffle":"true","nTrain":4000,"nTest":600}	-0.065866666666667	0.73792874182903	-39.52	MatrixFactSubModel	1	0	db/foot_database	200	600	4000	[]	__launches/22_May_2016_12:45:11_1.lua	true	1990-01-01	./results/foot	2060-01-01	2012-01-01	false
32	805	{"threshold":0,"db":"db/foot_database","nTest":600,"tStart":"1990-01-01","nValidation":200,"verbose":"false","shuffle":"true","option_file":"__launches/22_May_2016_12:45:11_1.lua","logPath":"./results/foot","Tmax":"2060-01-01","Tmin":"2012-01-01","nTrain":4000}	{"jSize":30,"learningRate":0.001,"nClasses":3,"batchSize":50,"alg":"adagrad","model":"MatrixFactSubModel","momentum":0,"initValues":0.1,"weightDecay":0,"learningRateDecay":0}	0.365	600	0.8215	{"threshold":0,"dTrainStart":"2012-01-02","dTrainEnd":"2012-10-27","dTestEnd":"2012-11-25","dValidationEnd":"2012-12-08","nValidation":200,"tStart":"1990-01-01","shuffle":"true","nTrain":4000,"nTest":600}	-0.07645	0.73504353090651	-45.87	MatrixFactSubModel	1	0	db/foot_database	200	600	4000	[]	__launches/22_May_2016_12:45:11_1.lua	true	1990-01-01	./results/foot	2060-01-01	2012-01-01	false
33	830	{"threshold":0,"db":"db/foot_database","nTest":600,"tStart":"1990-01-01","nValidation":200,"verbose":"false","shuffle":"true","option_file":"__launches/22_May_2016_12:45:11_1.lua","logPath":"./results/foot","Tmax":"2060-01-01","Tmin":"2012-01-01","nTrain":4000}	{"jSize":30,"learningRate":0.001,"nClasses":3,"batchSize":50,"alg":"adagrad","model":"MatrixFactSubModel","momentum":0,"initValues":0.1,"weightDecay":0,"learningRateDecay":0}	0.355	600	0.82575	{"threshold":0,"dTrainStart":"2012-01-02","dTrainEnd":"2012-10-27","dTestEnd":"2012-11-25","dValidationEnd":"2012-12-08","nValidation":200,"tStart":"1990-01-01","shuffle":"true","nTrain":4000,"nTest":600}	-0.1107	0.73375163196787	-66.42	MatrixFactSubModel	1	0	db/foot_database	200	600	4000	[]	__launches/22_May_2016_12:45:11_1.lua	true	1990-01-01	./results/foot	2060-01-01	2012-01-01	false
34	855	{"threshold":0,"db":"db/foot_database","nTest":600,"tStart":"1990-01-01","nValidation":200,"verbose":"false","shuffle":"true","option_file":"__launches/22_May_2016_12:45:11_1.lua","logPath":"./results/foot","Tmax":"2060-01-01","Tmin":"2012-01-01","nTrain":4000}	{"jSize":30,"learningRate":0.001,"nClasses":3,"batchSize":50,"alg":"adagrad","model":"MatrixFactSubModel","momentum":0,"initValues":0.1,"weightDecay":0,"learningRateDecay":0}	0.35	600	0.82275	{"threshold":0,"dTrainStart":"2012-01-02","dTrainEnd":"2012-10-27","dTestEnd":"2012-11-25","dValidationEnd":"2012-12-08","nValidation":200,"tStart":"1990-01-01","shuffle":"true","nTrain":4000,"nTest":600}	-0.11291666666667	0.73011694480323	-67.75	MatrixFactSubModel	1	0	db/foot_database	200	600	4000	[]	__launches/22_May_2016_12:45:11_1.lua	true	1990-01-01	./results/foot	2060-01-01	2012-01-01	false
35	880	{"threshold":0,"db":"db/foot_database","nTest":600,"tStart":"1990-01-01","nValidation":200,"verbose":"false","shuffle":"true","option_file":"__launches/22_May_2016_12:45:11_1.lua","logPath":"./results/foot","Tmax":"2060-01-01","Tmin":"2012-01-01","nTrain":4000}	{"jSize":30,"learningRate":0.001,"nClasses":3,"batchSize":50,"alg":"adagrad","model":"MatrixFactSubModel","momentum":0,"initValues":0.1,"weightDecay":0,"learningRateDecay":0}	0.345	600	0.829	{"threshold":0,"dTrainStart":"2012-01-02","dTrainEnd":"2012-10-27","dTestEnd":"2012-11-25","dValidationEnd":"2012-12-08","nValidation":200,"tStart":"1990-01-01","shuffle":"true","nTrain":4000,"nTest":600}	-0.10816666666667	0.73116858753329	-64.9	MatrixFactSubModel	1	0	db/foot_database	200	600	4000	[]	__launches/22_May_2016_12:45:11_1.lua	true	1990-01-01	./results/foot	2060-01-01	2012-01-01	false
36	905	{"threshold":0,"db":"db/foot_database","nTest":600,"tStart":"1990-01-01","nValidation":200,"verbose":"false","shuffle":"true","option_file":"__launches/22_May_2016_12:45:11_1.lua","logPath":"./results/foot","Tmax":"2060-01-01","Tmin":"2012-01-01","nTrain":4000}	{"jSize":30,"learningRate":0.001,"nClasses":3,"batchSize":50,"alg":"adagrad","model":"MatrixFactSubModel","momentum":0,"initValues":0.1,"weightDecay":0,"learningRateDecay":0}	0.35833333333333	600	0.83075	{"threshold":0,"dTrainStart":"2012-01-02","dTrainEnd":"2012-10-27","dTestEnd":"2012-11-25","dValidationEnd":"2012-12-08","nValidation":200,"tStart":"1990-01-01","shuffle":"true","nTrain":4000,"nTest":600}	-0.085266666666667	0.72721029830596	-51.16	MatrixFactSubModel	1	0	db/foot_database	200	600	4000	[]	__launches/22_May_2016_12:45:11_1.lua	true	1990-01-01	./results/foot	2060-01-01	2012-01-01	false
37	930	{"threshold":0,"db":"db/foot_database","nTest":600,"tStart":"1990-01-01","nValidation":200,"verbose":"false","shuffle":"true","option_file":"__launches/22_May_2016_12:45:11_1.lua","logPath":"./results/foot","Tmax":"2060-01-01","Tmin":"2012-01-01","nTrain":4000}	{"jSize":30,"learningRate":0.001,"nClasses":3,"batchSize":50,"alg":"adagrad","model":"MatrixFactSubModel","momentum":0,"initValues":0.1,"weightDecay":0,"learningRateDecay":0}	0.35333333333333	600	0.83225	{"threshold":0,"dTrainStart":"2012-01-02","dTrainEnd":"2012-10-27","dTestEnd":"2012-11-25","dValidationEnd":"2012-12-08","nValidation":200,"tStart":"1990-01-01","shuffle":"true","nTrain":4000,"nTest":600}	-0.0895	0.7256049257027	-53.7	MatrixFactSubModel	1	0	db/foot_database	200	600	4000	[]	__launches/22_May_2016_12:45:11_1.lua	true	1990-01-01	./results/foot	2060-01-01	2012-01-01	false
38	955	{"threshold":0,"db":"db/foot_database","nTest":600,"tStart":"1990-01-01","nValidation":200,"verbose":"false","shuffle":"true","option_file":"__launches/22_May_2016_12:45:11_1.lua","logPath":"./results/foot","Tmax":"2060-01-01","Tmin":"2012-01-01","nTrain":4000}	{"jSize":30,"learningRate":0.001,"nClasses":3,"batchSize":50,"alg":"adagrad","model":"MatrixFactSubModel","momentum":0,"initValues":0.1,"weightDecay":0,"learningRateDecay":0}	0.355	600	0.83275	{"threshold":0,"dTrainStart":"2012-01-02","dTrainEnd":"2012-10-27","dTestEnd":"2012-11-25","dValidationEnd":"2012-12-08","nValidation":200,"tStart":"1990-01-01","shuffle":"true","nTrain":4000,"nTest":600}	-0.089716666666667	0.7235428458299	-53.83	MatrixFactSubModel	1	0	db/foot_database	200	600	4000	[]	__launches/22_May_2016_12:45:11_1.lua	true	1990-01-01	./results/foot	2060-01-01	2012-01-01	false
39	980	{"threshold":0,"db":"db/foot_database","nTest":600,"tStart":"1990-01-01","nValidation":200,"verbose":"false","shuffle":"true","option_file":"__launches/22_May_2016_12:45:11_1.lua","logPath":"./results/foot","Tmax":"2060-01-01","Tmin":"2012-01-01","nTrain":4000}	{"jSize":30,"learningRate":0.001,"nClasses":3,"batchSize":50,"alg":"adagrad","model":"MatrixFactSubModel","momentum":0,"initValues":0.1,"weightDecay":0,"learningRateDecay":0}	0.36666666666667	600	0.83675	{"threshold":0,"dTrainStart":"2012-01-02","dTrainEnd":"2012-10-27","dTestEnd":"2012-11-25","dValidationEnd":"2012-12-08","nValidation":200,"tStart":"1990-01-01","shuffle":"true","nTrain":4000,"nTest":600}	-0.052933333333334	0.71911175711087	-31.76	MatrixFactSubModel	1	0	db/foot_database	200	600	4000	[]	__launches/22_May_2016_12:45:11_1.lua	true	1990-01-01	./results/foot	2060-01-01	2012-01-01	false
40	1005	{"threshold":0,"db":"db/foot_database","nTest":600,"tStart":"1990-01-01","nValidation":200,"verbose":"false","shuffle":"true","option_file":"__launches/22_May_2016_12:45:11_1.lua","logPath":"./results/foot","Tmax":"2060-01-01","Tmin":"2012-01-01","nTrain":4000}	{"jSize":30,"learningRate":0.001,"nClasses":3,"batchSize":50,"alg":"adagrad","model":"MatrixFactSubModel","momentum":0,"initValues":0.1,"weightDecay":0,"learningRateDecay":0}	0.37	600	0.83575	{"threshold":0,"dTrainStart":"2012-01-02","dTrainEnd":"2012-10-27","dTestEnd":"2012-11-25","dValidationEnd":"2012-12-08","nValidation":200,"tStart":"1990-01-01","shuffle":"true","nTrain":4000,"nTest":600}	-0.051116666666667	0.71834131135732	-30.67	MatrixFactSubModel	1	0	db/foot_database	200	600	4000	[]	__launches/22_May_2016_12:45:11_1.lua	true	1990-01-01	./results/foot	2060-01-01	2012-01-01	false
41	1030	{"threshold":0,"db":"db/foot_database","nTest":600,"tStart":"1990-01-01","nValidation":200,"verbose":"false","shuffle":"true","option_file":"__launches/22_May_2016_12:45:11_1.lua","logPath":"./results/foot","Tmax":"2060-01-01","Tmin":"2012-01-01","nTrain":4000}	{"jSize":30,"learningRate":0.001,"nClasses":3,"batchSize":50,"alg":"adagrad","model":"MatrixFactSubModel","momentum":0,"initValues":0.1,"weightDecay":0,"learningRateDecay":0}	0.36166666666667	600	0.83675	{"threshold":0,"dTrainStart":"2012-01-02","dTrainEnd":"2012-10-27","dTestEnd":"2012-11-25","dValidationEnd":"2012-12-08","nValidation":200,"tStart":"1990-01-01","shuffle":"true","nTrain":4000,"nTest":600}	-0.084816666666667	0.71731626641674	-50.89	MatrixFactSubModel	1	0	db/foot_database	200	600	4000	[]	__launches/22_May_2016_12:45:11_1.lua	true	1990-01-01	./results/foot	2060-01-01	2012-01-01	false
42	1055	{"threshold":0,"db":"db/foot_database","nTest":600,"tStart":"1990-01-01","nValidation":200,"verbose":"false","shuffle":"true","option_file":"__launches/22_May_2016_12:45:11_1.lua","logPath":"./results/foot","Tmax":"2060-01-01","Tmin":"2012-01-01","nTrain":4000}	{"jSize":30,"learningRate":0.001,"nClasses":3,"batchSize":50,"alg":"adagrad","model":"MatrixFactSubModel","momentum":0,"initValues":0.1,"weightDecay":0,"learningRateDecay":0}	0.36833333333333	600	0.83875	{"threshold":0,"dTrainStart":"2012-01-02","dTrainEnd":"2012-10-27","dTestEnd":"2012-11-25","dValidationEnd":"2012-12-08","nValidation":200,"tStart":"1990-01-01","shuffle":"true","nTrain":4000,"nTest":600}	-0.054083333333333	0.7161512519277	-32.45	MatrixFactSubModel	1	0	db/foot_database	200	600	4000	[]	__launches/22_May_2016_12:45:11_1.lua	true	1990-01-01	./results/foot	2060-01-01	2012-01-01	false
43	1080	{"threshold":0,"db":"db/foot_database","nTest":600,"tStart":"1990-01-01","nValidation":200,"verbose":"false","shuffle":"true","option_file":"__launches/22_May_2016_12:45:11_1.lua","logPath":"./results/foot","Tmax":"2060-01-01","Tmin":"2012-01-01","nTrain":4000}	{"jSize":30,"learningRate":0.001,"nClasses":3,"batchSize":50,"alg":"adagrad","model":"MatrixFactSubModel","momentum":0,"initValues":0.1,"weightDecay":0,"learningRateDecay":0}	0.34666666666667	600	0.84025	{"threshold":0,"dTrainStart":"2012-01-02","dTrainEnd":"2012-10-27","dTestEnd":"2012-11-25","dValidationEnd":"2012-12-08","nValidation":200,"tStart":"1990-01-01","shuffle":"true","nTrain":4000,"nTest":600}	-0.11338333333333	0.71672199460418	-68.03	MatrixFactSubModel	1	0	db/foot_database	200	600	4000	[]	__launches/22_May_2016_12:45:11_1.lua	true	1990-01-01	./results/foot	2060-01-01	2012-01-01	false
44	1105	{"threshold":0,"db":"db/foot_database","nTest":600,"tStart":"1990-01-01","nValidation":200,"verbose":"false","shuffle":"true","option_file":"__launches/22_May_2016_12:45:11_1.lua","logPath":"./results/foot","Tmax":"2060-01-01","Tmin":"2012-01-01","nTrain":4000}	{"jSize":30,"learningRate":0.001,"nClasses":3,"batchSize":50,"alg":"adagrad","model":"MatrixFactSubModel","momentum":0,"initValues":0.1,"weightDecay":0,"learningRateDecay":0}	0.355	600	0.84325	{"threshold":0,"dTrainStart":"2012-01-02","dTrainEnd":"2012-10-27","dTestEnd":"2012-11-25","dValidationEnd":"2012-12-08","nValidation":200,"tStart":"1990-01-01","shuffle":"true","nTrain":4000,"nTest":600}	-0.0846	0.71313072147692	-50.76	MatrixFactSubModel	1	0	db/foot_database	200	600	4000	[]	__launches/22_May_2016_12:45:11_1.lua	true	1990-01-01	./results/foot	2060-01-01	2012-01-01	false
45	1130	{"threshold":0,"db":"db/foot_database","nTest":600,"tStart":"1990-01-01","nValidation":200,"verbose":"false","shuffle":"true","option_file":"__launches/22_May_2016_12:45:11_1.lua","logPath":"./results/foot","Tmax":"2060-01-01","Tmin":"2012-01-01","nTrain":4000}	{"jSize":30,"learningRate":0.001,"nClasses":3,"batchSize":50,"alg":"adagrad","model":"MatrixFactSubModel","momentum":0,"initValues":0.1,"weightDecay":0,"learningRateDecay":0}	0.36166666666667	600	0.84325	{"threshold":0,"dTrainStart":"2012-01-02","dTrainEnd":"2012-10-27","dTestEnd":"2012-11-25","dValidationEnd":"2012-12-08","nValidation":200,"tStart":"1990-01-01","shuffle":"true","nTrain":4000,"nTest":600}	-0.088033333333334	0.71122090668919	-52.82	MatrixFactSubModel	1	0	db/foot_database	200	600	4000	[]	__launches/22_May_2016_12:45:11_1.lua	true	1990-01-01	./results/foot	2060-01-01	2012-01-01	false
46	1155	{"threshold":0,"db":"db/foot_database","nTest":600,"tStart":"1990-01-01","nValidation":200,"verbose":"false","shuffle":"true","option_file":"__launches/22_May_2016_12:45:11_1.lua","logPath":"./results/foot","Tmax":"2060-01-01","Tmin":"2012-01-01","nTrain":4000}	{"jSize":30,"learningRate":0.001,"nClasses":3,"batchSize":50,"alg":"adagrad","model":"MatrixFactSubModel","momentum":0,"initValues":0.1,"weightDecay":0,"learningRateDecay":0}	0.35666666666667	600	0.84375	{"threshold":0,"dTrainStart":"2012-01-02","dTrainEnd":"2012-10-27","dTestEnd":"2012-11-25","dValidationEnd":"2012-12-08","nValidation":200,"tStart":"1990-01-01","shuffle":"true","nTrain":4000,"nTest":600}	-0.094533333333333	0.70900850033564	-56.72	MatrixFactSubModel	1	0	db/foot_database	200	600	4000	[]	__launches/22_May_2016_12:45:11_1.lua	true	1990-01-01	./results/foot	2060-01-01	2012-01-01	false
47	1180	{"threshold":0,"db":"db/foot_database","nTest":600,"tStart":"1990-01-01","nValidation":200,"verbose":"false","shuffle":"true","option_file":"__launches/22_May_2016_12:45:11_1.lua","logPath":"./results/foot","Tmax":"2060-01-01","Tmin":"2012-01-01","nTrain":4000}	{"jSize":30,"learningRate":0.001,"nClasses":3,"batchSize":50,"alg":"adagrad","model":"MatrixFactSubModel","momentum":0,"initValues":0.1,"weightDecay":0,"learningRateDecay":0}	0.35833333333333	600	0.8455	{"threshold":0,"dTrainStart":"2012-01-02","dTrainEnd":"2012-10-27","dTestEnd":"2012-11-25","dValidationEnd":"2012-12-08","nValidation":200,"tStart":"1990-01-01","shuffle":"true","nTrain":4000,"nTest":600}	-0.0748	0.70778486584183	-44.88	MatrixFactSubModel	1	0	db/foot_database	200	600	4000	[]	__launches/22_May_2016_12:45:11_1.lua	true	1990-01-01	./results/foot	2060-01-01	2012-01-01	false
48	1205	{"threshold":0,"db":"db/foot_database","nTest":600,"tStart":"1990-01-01","nValidation":200,"verbose":"false","shuffle":"true","option_file":"__launches/22_May_2016_12:45:11_1.lua","logPath":"./results/foot","Tmax":"2060-01-01","Tmin":"2012-01-01","nTrain":4000}	{"jSize":30,"learningRate":0.001,"nClasses":3,"batchSize":50,"alg":"adagrad","model":"MatrixFactSubModel","momentum":0,"initValues":0.1,"weightDecay":0,"learningRateDecay":0}	0.35166666666667	600	0.84225	{"threshold":0,"dTrainStart":"2012-01-02","dTrainEnd":"2012-10-27","dTestEnd":"2012-11-25","dValidationEnd":"2012-12-08","nValidation":200,"tStart":"1990-01-01","shuffle":"true","nTrain":4000,"nTest":600}	-0.102	0.70904884257831	-61.2	MatrixFactSubModel	1	0	db/foot_database	200	600	4000	[]	__launches/22_May_2016_12:45:11_1.lua	true	1990-01-01	./results/foot	2060-01-01	2012-01-01	false
49	1230	{"threshold":0,"db":"db/foot_database","nTest":600,"tStart":"1990-01-01","nValidation":200,"verbose":"false","shuffle":"true","option_file":"__launches/22_May_2016_12:45:11_1.lua","logPath":"./results/foot","Tmax":"2060-01-01","Tmin":"2012-01-01","nTrain":4000}	{"jSize":30,"learningRate":0.001,"nClasses":3,"batchSize":50,"alg":"adagrad","model":"MatrixFactSubModel","momentum":0,"initValues":0.1,"weightDecay":0,"learningRateDecay":0}	0.36	600	0.8465	{"threshold":0,"dTrainStart":"2012-01-02","dTrainEnd":"2012-10-27","dTestEnd":"2012-11-25","dValidationEnd":"2012-12-08","nValidation":200,"tStart":"1990-01-01","shuffle":"true","nTrain":4000,"nTest":600}	-0.080433333333334	0.70648954170524	-48.26	MatrixFactSubModel	1	0	db/foot_database	200	600	4000	[]	__launches/22_May_2016_12:45:11_1.lua	true	1990-01-01	./results/foot	2060-01-01	2012-01-01	false
50	1255	{"threshold":0,"db":"db/foot_database","nTest":600,"tStart":"1990-01-01","nValidation":200,"verbose":"false","shuffle":"true","option_file":"__launches/22_May_2016_12:45:11_1.lua","logPath":"./results/foot","Tmax":"2060-01-01","Tmin":"2012-01-01","nTrain":4000}	{"jSize":30,"learningRate":0.001,"nClasses":3,"batchSize":50,"alg":"adagrad","model":"MatrixFactSubModel","momentum":0,"initValues":0.1,"weightDecay":0,"learningRateDecay":0}	0.375	600	0.843	{"threshold":0,"dTrainStart":"2012-01-02","dTrainEnd":"2012-10-27","dTestEnd":"2012-11-25","dValidationEnd":"2012-12-08","nValidation":200,"tStart":"1990-01-01","shuffle":"true","nTrain":4000,"nTest":600}	-0.044216666666667	0.70782382552551	-26.53	MatrixFactSubModel	1	0	db/foot_database	200	600	4000	[]	__launches/22_May_2016_12:45:11_1.lua	true	1990-01-01	./results/foot	2060-01-01	2012-01-01	false
51	1280	{"threshold":0,"db":"db/foot_database","nTest":600,"tStart":"1990-01-01","nValidation":200,"verbose":"false","shuffle":"true","option_file":"__launches/22_May_2016_12:45:11_1.lua","logPath":"./results/foot","Tmax":"2060-01-01","Tmin":"2012-01-01","nTrain":4000}	{"jSize":30,"learningRate":0.001,"nClasses":3,"batchSize":50,"alg":"adagrad","model":"MatrixFactSubModel","momentum":0,"initValues":0.1,"weightDecay":0,"learningRateDecay":0}	0.35833333333333	600	0.84575	{"threshold":0,"dTrainStart":"2012-01-02","dTrainEnd":"2012-10-27","dTestEnd":"2012-11-25","dValidationEnd":"2012-12-08","nValidation":200,"tStart":"1990-01-01","shuffle":"true","nTrain":4000,"nTest":600}	-0.082683333333334	0.71040099022849	-49.61	MatrixFactSubModel	1	0	db/foot_database	200	600	4000	[]	__launches/22_May_2016_12:45:11_1.lua	true	1990-01-01	./results/foot	2060-01-01	2012-01-01	false
52	1305	{"threshold":0,"db":"db/foot_database","nTest":600,"tStart":"1990-01-01","nValidation":200,"verbose":"false","shuffle":"true","option_file":"__launches/22_May_2016_12:45:11_1.lua","logPath":"./results/foot","Tmax":"2060-01-01","Tmin":"2012-01-01","nTrain":4000}	{"jSize":30,"learningRate":0.001,"nClasses":3,"batchSize":50,"alg":"adagrad","model":"MatrixFactSubModel","momentum":0,"initValues":0.1,"weightDecay":0,"learningRateDecay":0}	0.365	600	0.848	{"threshold":0,"dTrainStart":"2012-01-02","dTrainEnd":"2012-10-27","dTestEnd":"2012-11-25","dValidationEnd":"2012-12-08","nValidation":200,"tStart":"1990-01-01","shuffle":"true","nTrain":4000,"nTest":600}	-0.06175	0.70709244121804	-37.05	MatrixFactSubModel	1	0	db/foot_database	200	600	4000	[]	__launches/22_May_2016_12:45:11_1.lua	true	1990-01-01	./results/foot	2060-01-01	2012-01-01	false
53	1330	{"threshold":0,"db":"db/foot_database","nTest":600,"tStart":"1990-01-01","nValidation":200,"verbose":"false","shuffle":"true","option_file":"__launches/22_May_2016_12:45:11_1.lua","logPath":"./results/foot","Tmax":"2060-01-01","Tmin":"2012-01-01","nTrain":4000}	{"jSize":30,"learningRate":0.001,"nClasses":3,"batchSize":50,"alg":"adagrad","model":"MatrixFactSubModel","momentum":0,"initValues":0.1,"weightDecay":0,"learningRateDecay":0}	0.36833333333333	600	0.8475	{"threshold":0,"dTrainStart":"2012-01-02","dTrainEnd":"2012-10-27","dTestEnd":"2012-11-25","dValidationEnd":"2012-12-08","nValidation":200,"tStart":"1990-01-01","shuffle":"true","nTrain":4000,"nTest":600}	-0.062733333333334	0.70502848287522	-37.64	MatrixFactSubModel	1	0	db/foot_database	200	600	4000	[]	__launches/22_May_2016_12:45:11_1.lua	true	1990-01-01	./results/foot	2060-01-01	2012-01-01	false
54	1355	{"threshold":0,"db":"db/foot_database","nTest":600,"tStart":"1990-01-01","nValidation":200,"verbose":"false","shuffle":"true","option_file":"__launches/22_May_2016_12:45:11_1.lua","logPath":"./results/foot","Tmax":"2060-01-01","Tmin":"2012-01-01","nTrain":4000}	{"jSize":30,"learningRate":0.001,"nClasses":3,"batchSize":50,"alg":"adagrad","model":"MatrixFactSubModel","momentum":0,"initValues":0.1,"weightDecay":0,"learningRateDecay":0}	0.37166666666667	600	0.8465	{"threshold":0,"dTrainStart":"2012-01-02","dTrainEnd":"2012-10-27","dTestEnd":"2012-11-25","dValidationEnd":"2012-12-08","nValidation":200,"tStart":"1990-01-01","shuffle":"true","nTrain":4000,"nTest":600}	-0.0508	0.70375072555892	-30.48	MatrixFactSubModel	1	0	db/foot_database	200	600	4000	[]	__launches/22_May_2016_12:45:11_1.lua	true	1990-01-01	./results/foot	2060-01-01	2012-01-01	false
55	1380	{"threshold":0,"db":"db/foot_database","nTest":600,"tStart":"1990-01-01","nValidation":200,"verbose":"false","shuffle":"true","option_file":"__launches/22_May_2016_12:45:11_1.lua","logPath":"./results/foot","Tmax":"2060-01-01","Tmin":"2012-01-01","nTrain":4000}	{"jSize":30,"learningRate":0.001,"nClasses":3,"batchSize":50,"alg":"adagrad","model":"MatrixFactSubModel","momentum":0,"initValues":0.1,"weightDecay":0,"learningRateDecay":0}	0.36333333333333	600	0.848	{"threshold":0,"dTrainStart":"2012-01-02","dTrainEnd":"2012-10-27","dTestEnd":"2012-11-25","dValidationEnd":"2012-12-08","nValidation":200,"tStart":"1990-01-01","shuffle":"true","nTrain":4000,"nTest":600}	-0.06545	0.70475995513164	-39.27	MatrixFactSubModel	1	0	db/foot_database	200	600	4000	[]	__launches/22_May_2016_12:45:11_1.lua	true	1990-01-01	./results/foot	2060-01-01	2012-01-01	false
56	1405	{"threshold":0,"db":"db/foot_database","nTest":600,"tStart":"1990-01-01","nValidation":200,"verbose":"false","shuffle":"true","option_file":"__launches/22_May_2016_12:45:11_1.lua","logPath":"./results/foot","Tmax":"2060-01-01","Tmin":"2012-01-01","nTrain":4000}	{"jSize":30,"learningRate":0.001,"nClasses":3,"batchSize":50,"alg":"adagrad","model":"MatrixFactSubModel","momentum":0,"initValues":0.1,"weightDecay":0,"learningRateDecay":0}	0.36	600	0.84825	{"threshold":0,"dTrainStart":"2012-01-02","dTrainEnd":"2012-10-27","dTestEnd":"2012-11-25","dValidationEnd":"2012-12-08","nValidation":200,"tStart":"1990-01-01","shuffle":"true","nTrain":4000,"nTest":600}	-0.080233333333334	0.70637939983141	-48.14	MatrixFactSubModel	1	0	db/foot_database	200	600	4000	[]	__launches/22_May_2016_12:45:11_1.lua	true	1990-01-01	./results/foot	2060-01-01	2012-01-01	false
57	1430	{"threshold":0,"db":"db/foot_database","nTest":600,"tStart":"1990-01-01","nValidation":200,"verbose":"false","shuffle":"true","option_file":"__launches/22_May_2016_12:45:11_1.lua","logPath":"./results/foot","Tmax":"2060-01-01","Tmin":"2012-01-01","nTrain":4000}	{"jSize":30,"learningRate":0.001,"nClasses":3,"batchSize":50,"alg":"adagrad","model":"MatrixFactSubModel","momentum":0,"initValues":0.1,"weightDecay":0,"learningRateDecay":0}	0.36333333333333	600	0.8465	{"threshold":0,"dTrainStart":"2012-01-02","dTrainEnd":"2012-10-27","dTestEnd":"2012-11-25","dValidationEnd":"2012-12-08","nValidation":200,"tStart":"1990-01-01","shuffle":"true","nTrain":4000,"nTest":600}	-0.077466666666667	0.70650092242679	-46.48	MatrixFactSubModel	1	0	db/foot_database	200	600	4000	[]	__launches/22_May_2016_12:45:11_1.lua	true	1990-01-01	./results/foot	2060-01-01	2012-01-01	false
58	1455	{"threshold":0,"db":"db/foot_database","nTest":600,"tStart":"1990-01-01","nValidation":200,"verbose":"false","shuffle":"true","option_file":"__launches/22_May_2016_12:45:11_1.lua","logPath":"./results/foot","Tmax":"2060-01-01","Tmin":"2012-01-01","nTrain":4000}	{"jSize":30,"learningRate":0.001,"nClasses":3,"batchSize":50,"alg":"adagrad","model":"MatrixFactSubModel","momentum":0,"initValues":0.1,"weightDecay":0,"learningRateDecay":0}	0.34833333333333	600	0.849	{"threshold":0,"dTrainStart":"2012-01-02","dTrainEnd":"2012-10-27","dTestEnd":"2012-11-25","dValidationEnd":"2012-12-08","nValidation":200,"tStart":"1990-01-01","shuffle":"true","nTrain":4000,"nTest":600}	-0.11155	0.70499908250603	-66.93	MatrixFactSubModel	1	0	db/foot_database	200	600	4000	[]	__launches/22_May_2016_12:45:11_1.lua	true	1990-01-01	./results/foot	2060-01-01	2012-01-01	false
