iteration	epoch	opt	modconfig	testPrecision	naiveBetNumber	trainPrecision	TFconfig	naiveROI	trainLoss	naiveBank	model	testRatio	threshold	db	nValidation	nTest	nTrain	log	option_file	shuffle	tStart	logPath	Tmax	Tmin	verbose
0	5	{"threshold":30,"db":"db/atp_database","nTest":600,"tStart":"1990-01-01","nValidation":200,"verbose":"false","shuffle":"true","option_file":"__launches/22_May_2016_02:38:55_1.lua","logPath":"./results/tennis_atp","Tmax":"2060-01-01","Tmin":"2007-01-01","nTrain":80000}	{"jSize":30,"learningRate":0.001,"nClasses":2,"batchSize":50,"alg":"adagrad","model":"MatrixFactBiModel","momentum":0,"initValues":0.1,"weightDecay":0,"learningRateDecay":0}	0.6119733924612	104	0.68821742066172	{"threshold":30,"dTrainStart":"2007-1-1","dTrainEnd":"2009-4-13","dTestEnd":"2009-4-20","dValidationEnd":"2009-4-27","nValidation":200,"tStart":"1990-01-01","shuffle":"true","nTrain":53316,"nTest":600}	0.015192307692308	0.6387019913575	1.58	MatrixFactBiModel	0.75166666666667	30	db/atp_database	200	600	80000	[]	__launches/22_May_2016_02:38:55_1.lua	true	1990-01-01	./results/tennis_atp	2060-01-01	2007-01-01	false
1	30	{"threshold":30,"db":"db/atp_database","nTest":600,"tStart":"1990-01-01","nValidation":200,"verbose":"false","shuffle":"true","option_file":"__launches/22_May_2016_02:38:55_1.lua","logPath":"./results/tennis_atp","Tmax":"2060-01-01","Tmin":"2007-01-01","nTrain":80000}	{"jSize":30,"learningRate":0.001,"nClasses":2,"batchSize":50,"alg":"adagrad","model":"MatrixFactBiModel","momentum":0,"initValues":0.1,"weightDecay":0,"learningRateDecay":0}	0.62749445676275	104	0.69937729762173	{"threshold":30,"dTrainStart":"2007-1-1","dTrainEnd":"2009-4-13","dTestEnd":"2009-4-20","dValidationEnd":"2009-4-27","nValidation":200,"tStart":"1990-01-01","shuffle":"true","nTrain":53316,"nTest":600}	0.043269230769231	0.62283266728059	4.5	MatrixFactBiModel	0.75166666666667	30	db/atp_database	200	600	80000	[]	__launches/22_May_2016_02:38:55_1.lua	true	1990-01-01	./results/tennis_atp	2060-01-01	2007-01-01	false
2	55	{"threshold":30,"db":"db/atp_database","nTest":600,"tStart":"1990-01-01","nValidation":200,"verbose":"false","shuffle":"true","option_file":"__launches/22_May_2016_02:38:55_1.lua","logPath":"./results/tennis_atp","Tmax":"2060-01-01","Tmin":"2007-01-01","nTrain":80000}	{"jSize":30,"learningRate":0.001,"nClasses":2,"batchSize":50,"alg":"adagrad","model":"MatrixFactBiModel","momentum":0,"initValues":0.1,"weightDecay":0,"learningRateDecay":0}	0.61419068736142	104	0.70704854077575	{"threshold":30,"dTrainStart":"2007-1-1","dTrainEnd":"2009-4-13","dTestEnd":"2009-4-20","dValidationEnd":"2009-4-27","nValidation":200,"tStart":"1990-01-01","shuffle":"true","nTrain":53316,"nTest":600}	0.12423076923077	0.61317454915694	12.92	MatrixFactBiModel	0.75166666666667	30	db/atp_database	200	600	80000	[]	__launches/22_May_2016_02:38:55_1.lua	true	1990-01-01	./results/tennis_atp	2060-01-01	2007-01-01	false
3	80	{"threshold":30,"db":"db/atp_database","nTest":600,"tStart":"1990-01-01","nValidation":200,"verbose":"false","shuffle":"true","option_file":"__launches/22_May_2016_02:38:55_1.lua","logPath":"./results/tennis_atp","Tmax":"2060-01-01","Tmin":"2007-01-01","nTrain":80000}	{"jSize":30,"learningRate":0.001,"nClasses":2,"batchSize":50,"alg":"adagrad","model":"MatrixFactBiModel","momentum":0,"initValues":0.1,"weightDecay":0,"learningRateDecay":0}	0.64523281596452	104	0.71483232050416	{"threshold":30,"dTrainStart":"2007-1-1","dTrainEnd":"2009-4-13","dTestEnd":"2009-4-20","dValidationEnd":"2009-4-27","nValidation":200,"tStart":"1990-01-01","shuffle":"true","nTrain":53316,"nTest":600}	0.18971153846154	0.60458458210536	19.73	MatrixFactBiModel	0.75166666666667	30	db/atp_database	200	600	80000	[]	__launches/22_May_2016_02:38:55_1.lua	true	1990-01-01	./results/tennis_atp	2060-01-01	2007-01-01	false
4	105	{"threshold":30,"db":"db/atp_database","nTest":600,"tStart":"1990-01-01","nValidation":200,"verbose":"false","shuffle":"true","option_file":"__launches/22_May_2016_02:38:55_1.lua","logPath":"./results/tennis_atp","Tmax":"2060-01-01","Tmin":"2007-01-01","nTrain":80000}	{"jSize":30,"learningRate":0.001,"nClasses":2,"batchSize":50,"alg":"adagrad","model":"MatrixFactBiModel","momentum":0,"initValues":0.1,"weightDecay":0,"learningRateDecay":0}	0.62971175166297	104	0.71933378347963	{"threshold":30,"dTrainStart":"2007-1-1","dTrainEnd":"2009-4-13","dTestEnd":"2009-4-20","dValidationEnd":"2009-4-27","nValidation":200,"tStart":"1990-01-01","shuffle":"true","nTrain":53316,"nTest":600}	0.10903846153846	0.59961050543372	11.34	MatrixFactBiModel	0.75166666666667	30	db/atp_database	200	600	80000	[]	__launches/22_May_2016_02:38:55_1.lua	true	1990-01-01	./results/tennis_atp	2060-01-01	2007-01-01	false
5	130	{"threshold":30,"db":"db/atp_database","nTest":600,"tStart":"1990-01-01","nValidation":200,"verbose":"false","shuffle":"true","option_file":"__launches/22_May_2016_02:38:55_1.lua","logPath":"./results/tennis_atp","Tmax":"2060-01-01","Tmin":"2007-01-01","nTrain":80000}	{"jSize":30,"learningRate":0.001,"nClasses":2,"batchSize":50,"alg":"adagrad","model":"MatrixFactBiModel","momentum":0,"initValues":0.1,"weightDecay":0,"learningRateDecay":0}	0.63414634146341	104	0.72199714907345	{"threshold":30,"dTrainStart":"2007-1-1","dTrainEnd":"2009-4-13","dTestEnd":"2009-4-20","dValidationEnd":"2009-4-27","nValidation":200,"tStart":"1990-01-01","shuffle":"true","nTrain":53316,"nTest":600}	0.12865384615385	0.59565334567827	13.38	MatrixFactBiModel	0.75166666666667	30	db/atp_database	200	600	80000	[]	__launches/22_May_2016_02:38:55_1.lua	true	1990-01-01	./results/tennis_atp	2060-01-01	2007-01-01	false
6	155	{"threshold":30,"db":"db/atp_database","nTest":600,"tStart":"1990-01-01","nValidation":200,"verbose":"false","shuffle":"true","option_file":"__launches/22_May_2016_02:38:55_1.lua","logPath":"./results/tennis_atp","Tmax":"2060-01-01","Tmin":"2007-01-01","nTrain":80000}	{"jSize":30,"learningRate":0.001,"nClasses":2,"batchSize":50,"alg":"adagrad","model":"MatrixFactBiModel","momentum":0,"initValues":0.1,"weightDecay":0,"learningRateDecay":0}	0.60975609756098	104	0.72655488033611	{"threshold":30,"dTrainStart":"2007-1-1","dTrainEnd":"2009-4-13","dTestEnd":"2009-4-20","dValidationEnd":"2009-4-27","nValidation":200,"tStart":"1990-01-01","shuffle":"true","nTrain":53316,"nTest":600}	0.12596153846154	0.59057256341118	13.1	MatrixFactBiModel	0.75166666666667	30	db/atp_database	200	600	80000	[]	__launches/22_May_2016_02:38:55_1.lua	true	1990-01-01	./results/tennis_atp	2060-01-01	2007-01-01	false
7	180	{"threshold":30,"db":"db/atp_database","nTest":600,"tStart":"1990-01-01","nValidation":200,"verbose":"false","shuffle":"true","option_file":"__launches/22_May_2016_02:38:55_1.lua","logPath":"./results/tennis_atp","Tmax":"2060-01-01","Tmin":"2007-01-01","nTrain":80000}	{"jSize":30,"learningRate":0.001,"nClasses":2,"batchSize":50,"alg":"adagrad","model":"MatrixFactBiModel","momentum":0,"initValues":0.1,"weightDecay":0,"learningRateDecay":0}	0.60975609756098	104	0.73081251406707	{"threshold":30,"dTrainStart":"2007-1-1","dTrainEnd":"2009-4-13","dTestEnd":"2009-4-20","dValidationEnd":"2009-4-27","nValidation":200,"tStart":"1990-01-01","shuffle":"true","nTrain":53316,"nTest":600}	0.13894230769231	0.58742165467578	14.45	MatrixFactBiModel	0.75166666666667	30	db/atp_database	200	600	80000	[]	__launches/22_May_2016_02:38:55_1.lua	true	1990-01-01	./results/tennis_atp	2060-01-01	2007-01-01	false
8	205	{"threshold":30,"db":"db/atp_database","nTest":600,"tStart":"1990-01-01","nValidation":200,"verbose":"false","shuffle":"true","option_file":"__launches/22_May_2016_02:38:55_1.lua","logPath":"./results/tennis_atp","Tmax":"2060-01-01","Tmin":"2007-01-01","nTrain":80000}	{"jSize":30,"learningRate":0.001,"nClasses":2,"batchSize":50,"alg":"adagrad","model":"MatrixFactBiModel","momentum":0,"initValues":0.1,"weightDecay":0,"learningRateDecay":0}	0.60975609756098	104	0.73340085527797	{"threshold":30,"dTrainStart":"2007-1-1","dTrainEnd":"2009-4-13","dTestEnd":"2009-4-20","dValidationEnd":"2009-4-27","nValidation":200,"tStart":"1990-01-01","shuffle":"true","nTrain":53316,"nTest":600}	0.12798076923077	0.58410076405014	13.31	MatrixFactBiModel	0.75166666666667	30	db/atp_database	200	600	80000	[]	__launches/22_May_2016_02:38:55_1.lua	true	1990-01-01	./results/tennis_atp	2060-01-01	2007-01-01	false
9	230	{"threshold":30,"db":"db/atp_database","nTest":600,"tStart":"1990-01-01","nValidation":200,"verbose":"false","shuffle":"true","option_file":"__launches/22_May_2016_02:38:55_1.lua","logPath":"./results/tennis_atp","Tmax":"2060-01-01","Tmin":"2007-01-01","nTrain":80000}	{"jSize":30,"learningRate":0.001,"nClasses":2,"batchSize":50,"alg":"adagrad","model":"MatrixFactBiModel","momentum":0,"initValues":0.1,"weightDecay":0,"learningRateDecay":0}	0.59866962305987	104	0.73375722109686	{"threshold":30,"dTrainStart":"2007-1-1","dTrainEnd":"2009-4-13","dTestEnd":"2009-4-20","dValidationEnd":"2009-4-27","nValidation":200,"tStart":"1990-01-01","shuffle":"true","nTrain":53316,"nTest":600}	0.093942307692308	0.58427886591017	9.77	MatrixFactBiModel	0.75166666666667	30	db/atp_database	200	600	80000	[]	__launches/22_May_2016_02:38:55_1.lua	true	1990-01-01	./results/tennis_atp	2060-01-01	2007-01-01	false
10	255	{"threshold":30,"db":"db/atp_database","nTest":600,"tStart":"1990-01-01","nValidation":200,"verbose":"false","shuffle":"true","option_file":"__launches/22_May_2016_02:38:55_1.lua","logPath":"./results/tennis_atp","Tmax":"2060-01-01","Tmin":"2007-01-01","nTrain":80000}	{"jSize":30,"learningRate":0.001,"nClasses":2,"batchSize":50,"alg":"adagrad","model":"MatrixFactBiModel","momentum":0,"initValues":0.1,"weightDecay":0,"learningRateDecay":0}	0.62305986696231	104	0.73981544001801	{"threshold":30,"dTrainStart":"2007-1-1","dTrainEnd":"2009-4-13","dTestEnd":"2009-4-20","dValidationEnd":"2009-4-27","nValidation":200,"tStart":"1990-01-01","shuffle":"true","nTrain":53316,"nTest":600}	0.10865384615385	0.57902290627467	11.3	MatrixFactBiModel	0.75166666666667	30	db/atp_database	200	600	80000	[]	__launches/22_May_2016_02:38:55_1.lua	true	1990-01-01	./results/tennis_atp	2060-01-01	2007-01-01	false
11	280	{"threshold":30,"db":"db/atp_database","nTest":600,"tStart":"1990-01-01","nValidation":200,"verbose":"false","shuffle":"true","option_file":"__launches/22_May_2016_02:38:55_1.lua","logPath":"./results/tennis_atp","Tmax":"2060-01-01","Tmin":"2007-01-01","nTrain":80000}	{"jSize":30,"learningRate":0.001,"nClasses":2,"batchSize":50,"alg":"adagrad","model":"MatrixFactBiModel","momentum":0,"initValues":0.1,"weightDecay":0,"learningRateDecay":0}	0.61862527716186	104	0.73799609873209	{"threshold":30,"dTrainStart":"2007-1-1","dTrainEnd":"2009-4-13","dTestEnd":"2009-4-20","dValidationEnd":"2009-4-27","nValidation":200,"tStart":"1990-01-01","shuffle":"true","nTrain":53316,"nTest":600}	0.14	0.57727521640243	14.56	MatrixFactBiModel	0.75166666666667	30	db/atp_database	200	600	80000	[]	__launches/22_May_2016_02:38:55_1.lua	true	1990-01-01	./results/tennis_atp	2060-01-01	2007-01-01	false
12	305	{"threshold":30,"db":"db/atp_database","nTest":600,"tStart":"1990-01-01","nValidation":200,"verbose":"false","shuffle":"true","option_file":"__launches/22_May_2016_02:38:55_1.lua","logPath":"./results/tennis_atp","Tmax":"2060-01-01","Tmin":"2007-01-01","nTrain":80000}	{"jSize":30,"learningRate":0.001,"nClasses":2,"batchSize":50,"alg":"adagrad","model":"MatrixFactBiModel","momentum":0,"initValues":0.1,"weightDecay":0,"learningRateDecay":0}	0.62971175166297	104	0.7418598544527	{"threshold":30,"dTrainStart":"2007-1-1","dTrainEnd":"2009-4-13","dTestEnd":"2009-4-20","dValidationEnd":"2009-4-27","nValidation":200,"tStart":"1990-01-01","shuffle":"true","nTrain":53316,"nTest":600}	0.15288461538462	0.57463632652495	15.9	MatrixFactBiModel	0.75166666666667	30	db/atp_database	200	600	80000	[]	__launches/22_May_2016_02:38:55_1.lua	true	1990-01-01	./results/tennis_atp	2060-01-01	2007-01-01	false
13	330	{"threshold":30,"db":"db/atp_database","nTest":600,"tStart":"1990-01-01","nValidation":200,"verbose":"false","shuffle":"true","option_file":"__launches/22_May_2016_02:38:55_1.lua","logPath":"./results/tennis_atp","Tmax":"2060-01-01","Tmin":"2007-01-01","nTrain":80000}	{"jSize":30,"learningRate":0.001,"nClasses":2,"batchSize":50,"alg":"adagrad","model":"MatrixFactBiModel","momentum":0,"initValues":0.1,"weightDecay":0,"learningRateDecay":0}	0.62749445676275	104	0.7451796833971	{"threshold":30,"dTrainStart":"2007-1-1","dTrainEnd":"2009-4-13","dTestEnd":"2009-4-20","dValidationEnd":"2009-4-27","nValidation":200,"tStart":"1990-01-01","shuffle":"true","nTrain":53316,"nTest":600}	0.15961538461538	0.57258924803646	16.6	MatrixFactBiModel	0.75166666666667	30	db/atp_database	200	600	80000	[]	__launches/22_May_2016_02:38:55_1.lua	true	1990-01-01	./results/tennis_atp	2060-01-01	2007-01-01	false
14	355	{"threshold":30,"db":"db/atp_database","nTest":600,"tStart":"1990-01-01","nValidation":200,"verbose":"false","shuffle":"true","option_file":"__launches/22_May_2016_02:38:55_1.lua","logPath":"./results/tennis_atp","Tmax":"2060-01-01","Tmin":"2007-01-01","nTrain":80000}	{"jSize":30,"learningRate":0.001,"nClasses":2,"batchSize":50,"alg":"adagrad","model":"MatrixFactBiModel","momentum":0,"initValues":0.1,"weightDecay":0,"learningRateDecay":0}	0.61640798226164	104	0.74669892715132	{"threshold":30,"dTrainStart":"2007-1-1","dTrainEnd":"2009-4-13","dTestEnd":"2009-4-20","dValidationEnd":"2009-4-27","nValidation":200,"tStart":"1990-01-01","shuffle":"true","nTrain":53316,"nTest":600}	0.10038461538462	0.57091591471624	10.44	MatrixFactBiModel	0.75166666666667	30	db/atp_database	200	600	80000	[]	__launches/22_May_2016_02:38:55_1.lua	true	1990-01-01	./results/tennis_atp	2060-01-01	2007-01-01	false
15	380	{"threshold":30,"db":"db/atp_database","nTest":600,"tStart":"1990-01-01","nValidation":200,"verbose":"false","shuffle":"true","option_file":"__launches/22_May_2016_02:38:55_1.lua","logPath":"./results/tennis_atp","Tmax":"2060-01-01","Tmin":"2007-01-01","nTrain":80000}	{"jSize":30,"learningRate":0.001,"nClasses":2,"batchSize":50,"alg":"adagrad","model":"MatrixFactBiModel","momentum":0,"initValues":0.1,"weightDecay":0,"learningRateDecay":0}	0.6119733924612	104	0.75086278040363	{"threshold":30,"dTrainStart":"2007-1-1","dTrainEnd":"2009-4-13","dTestEnd":"2009-4-20","dValidationEnd":"2009-4-27","nValidation":200,"tStart":"1990-01-01","shuffle":"true","nTrain":53316,"nTest":600}	0.16375	0.56704804411694	17.03	MatrixFactBiModel	0.75166666666667	30	db/atp_database	200	600	80000	[]	__launches/22_May_2016_02:38:55_1.lua	true	1990-01-01	./results/tennis_atp	2060-01-01	2007-01-01	false
16	405	{"threshold":30,"db":"db/atp_database","nTest":600,"tStart":"1990-01-01","nValidation":200,"verbose":"false","shuffle":"true","option_file":"__launches/22_May_2016_02:38:55_1.lua","logPath":"./results/tennis_atp","Tmax":"2060-01-01","Tmin":"2007-01-01","nTrain":80000}	{"jSize":30,"learningRate":0.001,"nClasses":2,"batchSize":50,"alg":"adagrad","model":"MatrixFactBiModel","momentum":0,"initValues":0.1,"weightDecay":0,"learningRateDecay":0}	0.61862527716186	104	0.75270087778528	{"threshold":30,"dTrainStart":"2007-1-1","dTrainEnd":"2009-4-13","dTestEnd":"2009-4-20","dValidationEnd":"2009-4-27","nValidation":200,"tStart":"1990-01-01","shuffle":"true","nTrain":53316,"nTest":600}	0.13173076923077	0.56493288337207	13.7	MatrixFactBiModel	0.75166666666667	30	db/atp_database	200	600	80000	[]	__launches/22_May_2016_02:38:55_1.lua	true	1990-01-01	./results/tennis_atp	2060-01-01	2007-01-01	false
17	430	{"threshold":30,"db":"db/atp_database","nTest":600,"tStart":"1990-01-01","nValidation":200,"verbose":"false","shuffle":"true","option_file":"__launches/22_May_2016_02:38:55_1.lua","logPath":"./results/tennis_atp","Tmax":"2060-01-01","Tmin":"2007-01-01","nTrain":80000}	{"jSize":30,"learningRate":0.001,"nClasses":2,"batchSize":50,"alg":"adagrad","model":"MatrixFactBiModel","momentum":0,"initValues":0.1,"weightDecay":0,"learningRateDecay":0}	0.60088691796009	104	0.75309475579563	{"threshold":30,"dTrainStart":"2007-1-1","dTrainEnd":"2009-4-13","dTestEnd":"2009-4-20","dValidationEnd":"2009-4-27","nValidation":200,"tStart":"1990-01-01","shuffle":"true","nTrain":53316,"nTest":600}	0.16423076923077	0.56372000427759	17.08	MatrixFactBiModel	0.75166666666667	30	db/atp_database	200	600	80000	[]	__launches/22_May_2016_02:38:55_1.lua	true	1990-01-01	./results/tennis_atp	2060-01-01	2007-01-01	false
18	455	{"threshold":30,"db":"db/atp_database","nTest":600,"tStart":"1990-01-01","nValidation":200,"verbose":"false","shuffle":"true","option_file":"__launches/22_May_2016_02:38:55_1.lua","logPath":"./results/tennis_atp","Tmax":"2060-01-01","Tmin":"2007-01-01","nTrain":80000}	{"jSize":30,"learningRate":0.001,"nClasses":2,"batchSize":50,"alg":"adagrad","model":"MatrixFactBiModel","momentum":0,"initValues":0.1,"weightDecay":0,"learningRateDecay":0}	0.6119733924612	104	0.75324480456148	{"threshold":30,"dTrainStart":"2007-1-1","dTrainEnd":"2009-4-13","dTestEnd":"2009-4-20","dValidationEnd":"2009-4-27","nValidation":200,"tStart":"1990-01-01","shuffle":"true","nTrain":53316,"nTest":600}	0.1525	0.56351646458861	15.86	MatrixFactBiModel	0.75166666666667	30	db/atp_database	200	600	80000	[]	__launches/22_May_2016_02:38:55_1.lua	true	1990-01-01	./results/tennis_atp	2060-01-01	2007-01-01	false
19	480	{"threshold":30,"db":"db/atp_database","nTest":600,"tStart":"1990-01-01","nValidation":200,"verbose":"false","shuffle":"true","option_file":"__launches/22_May_2016_02:38:55_1.lua","logPath":"./results/tennis_atp","Tmax":"2060-01-01","Tmin":"2007-01-01","nTrain":80000}	{"jSize":30,"learningRate":0.001,"nClasses":2,"batchSize":50,"alg":"adagrad","model":"MatrixFactBiModel","momentum":0,"initValues":0.1,"weightDecay":0,"learningRateDecay":0}	0.61640798226164	104	0.75500787756021	{"threshold":30,"dTrainStart":"2007-1-1","dTrainEnd":"2009-4-13","dTestEnd":"2009-4-20","dValidationEnd":"2009-4-27","nValidation":200,"tStart":"1990-01-01","shuffle":"true","nTrain":53316,"nTest":600}	0.16788461538462	0.56096495619342	17.46	MatrixFactBiModel	0.75166666666667	30	db/atp_database	200	600	80000	[]	__launches/22_May_2016_02:38:55_1.lua	true	1990-01-01	./results/tennis_atp	2060-01-01	2007-01-01	false
20	505	{"threshold":30,"db":"db/atp_database","nTest":600,"tStart":"1990-01-01","nValidation":200,"verbose":"false","shuffle":"true","option_file":"__launches/22_May_2016_02:38:55_1.lua","logPath":"./results/tennis_atp","Tmax":"2060-01-01","Tmin":"2007-01-01","nTrain":80000}	{"jSize":30,"learningRate":0.001,"nClasses":2,"batchSize":50,"alg":"adagrad","model":"MatrixFactBiModel","momentum":0,"initValues":0.1,"weightDecay":0,"learningRateDecay":0}	0.61419068736142	104	0.75521419461325	{"threshold":30,"dTrainStart":"2007-1-1","dTrainEnd":"2009-4-13","dTestEnd":"2009-4-20","dValidationEnd":"2009-4-27","nValidation":200,"tStart":"1990-01-01","shuffle":"true","nTrain":53316,"nTest":600}	0.15557692307692	0.56014221520636	16.18	MatrixFactBiModel	0.75166666666667	30	db/atp_database	200	600	80000	[]	__launches/22_May_2016_02:38:55_1.lua	true	1990-01-01	./results/tennis_atp	2060-01-01	2007-01-01	false
21	530	{"threshold":30,"db":"db/atp_database","nTest":600,"tStart":"1990-01-01","nValidation":200,"verbose":"false","shuffle":"true","option_file":"__launches/22_May_2016_02:38:55_1.lua","logPath":"./results/tennis_atp","Tmax":"2060-01-01","Tmin":"2007-01-01","nTrain":80000}	{"jSize":30,"learningRate":0.001,"nClasses":2,"batchSize":50,"alg":"adagrad","model":"MatrixFactBiModel","momentum":0,"initValues":0.1,"weightDecay":0,"learningRateDecay":0}	0.60310421286031	104	0.75887163328082	{"threshold":30,"dTrainStart":"2007-1-1","dTrainEnd":"2009-4-13","dTestEnd":"2009-4-20","dValidationEnd":"2009-4-27","nValidation":200,"tStart":"1990-01-01","shuffle":"true","nTrain":53316,"nTest":600}	0.15615384615385	0.5574002813361	16.24	MatrixFactBiModel	0.75166666666667	30	db/atp_database	200	600	80000	[]	__launches/22_May_2016_02:38:55_1.lua	true	1990-01-01	./results/tennis_atp	2060-01-01	2007-01-01	false
22	555	{"threshold":30,"db":"db/atp_database","nTest":600,"tStart":"1990-01-01","nValidation":200,"verbose":"false","shuffle":"true","option_file":"__launches/22_May_2016_02:38:55_1.lua","logPath":"./results/tennis_atp","Tmax":"2060-01-01","Tmin":"2007-01-01","nTrain":80000}	{"jSize":30,"learningRate":0.001,"nClasses":2,"batchSize":50,"alg":"adagrad","model":"MatrixFactBiModel","momentum":0,"initValues":0.1,"weightDecay":0,"learningRateDecay":0}	0.6119733924612	104	0.76029709655638	{"threshold":30,"dTrainStart":"2007-1-1","dTrainEnd":"2009-4-13","dTestEnd":"2009-4-20","dValidationEnd":"2009-4-27","nValidation":200,"tStart":"1990-01-01","shuffle":"true","nTrain":53316,"nTest":600}	0.21288461538462	0.55770042938512	22.14	MatrixFactBiModel	0.75166666666667	30	db/atp_database	200	600	80000	[]	__launches/22_May_2016_02:38:55_1.lua	true	1990-01-01	./results/tennis_atp	2060-01-01	2007-01-01	false
23	580	{"threshold":30,"db":"db/atp_database","nTest":600,"tStart":"1990-01-01","nValidation":200,"verbose":"false","shuffle":"true","option_file":"__launches/22_May_2016_02:38:55_1.lua","logPath":"./results/tennis_atp","Tmax":"2060-01-01","Tmin":"2007-01-01","nTrain":80000}	{"jSize":30,"learningRate":0.001,"nClasses":2,"batchSize":50,"alg":"adagrad","model":"MatrixFactBiModel","momentum":0,"initValues":0.1,"weightDecay":0,"learningRateDecay":0}	0.60532150776053	104	0.76230399879961	{"threshold":30,"dTrainStart":"2007-1-1","dTrainEnd":"2009-4-13","dTestEnd":"2009-4-20","dValidationEnd":"2009-4-27","nValidation":200,"tStart":"1990-01-01","shuffle":"true","nTrain":53316,"nTest":600}	0.099423076923077	0.55526111960326	10.34	MatrixFactBiModel	0.75166666666667	30	db/atp_database	200	600	80000	[]	__launches/22_May_2016_02:38:55_1.lua	true	1990-01-01	./results/tennis_atp	2060-01-01	2007-01-01	false
24	605	{"threshold":30,"db":"db/atp_database","nTest":600,"tStart":"1990-01-01","nValidation":200,"verbose":"false","shuffle":"true","option_file":"__launches/22_May_2016_02:38:55_1.lua","logPath":"./results/tennis_atp","Tmax":"2060-01-01","Tmin":"2007-01-01","nTrain":80000}	{"jSize":30,"learningRate":0.001,"nClasses":2,"batchSize":50,"alg":"adagrad","model":"MatrixFactBiModel","momentum":0,"initValues":0.1,"weightDecay":0,"learningRateDecay":0}	0.60310421286031	104	0.76279165728862	{"threshold":30,"dTrainStart":"2007-1-1","dTrainEnd":"2009-4-13","dTestEnd":"2009-4-20","dValidationEnd":"2009-4-27","nValidation":200,"tStart":"1990-01-01","shuffle":"true","nTrain":53316,"nTest":600}	0.083269230769231	0.55350010791459	8.66	MatrixFactBiModel	0.75166666666667	30	db/atp_database	200	600	80000	[]	__launches/22_May_2016_02:38:55_1.lua	true	1990-01-01	./results/tennis_atp	2060-01-01	2007-01-01	false
25	630	{"threshold":30,"db":"db/atp_database","nTest":600,"tStart":"1990-01-01","nValidation":200,"verbose":"false","shuffle":"true","option_file":"__launches/22_May_2016_02:38:55_1.lua","logPath":"./results/tennis_atp","Tmax":"2060-01-01","Tmin":"2007-01-01","nTrain":80000}	{"jSize":30,"learningRate":0.001,"nClasses":2,"batchSize":50,"alg":"adagrad","model":"MatrixFactBiModel","momentum":0,"initValues":0.1,"weightDecay":0,"learningRateDecay":0}	0.60753880266075	104	0.76599894965864	{"threshold":30,"dTrainStart":"2007-1-1","dTrainEnd":"2009-4-13","dTestEnd":"2009-4-20","dValidationEnd":"2009-4-27","nValidation":200,"tStart":"1990-01-01","shuffle":"true","nTrain":53316,"nTest":600}	0.13951923076923	0.55073550714669	14.51	MatrixFactBiModel	0.75166666666667	30	db/atp_database	200	600	80000	[]	__launches/22_May_2016_02:38:55_1.lua	true	1990-01-01	./results/tennis_atp	2060-01-01	2007-01-01	false
26	655	{"threshold":30,"db":"db/atp_database","nTest":600,"tStart":"1990-01-01","nValidation":200,"verbose":"false","shuffle":"true","option_file":"__launches/22_May_2016_02:38:55_1.lua","logPath":"./results/tennis_atp","Tmax":"2060-01-01","Tmin":"2007-01-01","nTrain":80000}	{"jSize":30,"learningRate":0.001,"nClasses":2,"batchSize":50,"alg":"adagrad","model":"MatrixFactBiModel","momentum":0,"initValues":0.1,"weightDecay":0,"learningRateDecay":0}	0.60975609756098	104	0.76553004726536	{"threshold":30,"dTrainStart":"2007-1-1","dTrainEnd":"2009-4-13","dTestEnd":"2009-4-20","dValidationEnd":"2009-4-27","nValidation":200,"tStart":"1990-01-01","shuffle":"true","nTrain":53316,"nTest":600}	0.13519230769231	0.55040855780883	14.06	MatrixFactBiModel	0.75166666666667	30	db/atp_database	200	600	80000	[]	__launches/22_May_2016_02:38:55_1.lua	true	1990-01-01	./results/tennis_atp	2060-01-01	2007-01-01	false
27	680	{"threshold":30,"db":"db/atp_database","nTest":600,"tStart":"1990-01-01","nValidation":200,"verbose":"false","shuffle":"true","option_file":"__launches/22_May_2016_02:38:55_1.lua","logPath":"./results/tennis_atp","Tmax":"2060-01-01","Tmin":"2007-01-01","nTrain":80000}	{"jSize":30,"learningRate":0.001,"nClasses":2,"batchSize":50,"alg":"adagrad","model":"MatrixFactBiModel","momentum":0,"initValues":0.1,"weightDecay":0,"learningRateDecay":0}	0.61640798226164	104	0.76622402280741	{"threshold":30,"dTrainStart":"2007-1-1","dTrainEnd":"2009-4-13","dTestEnd":"2009-4-20","dValidationEnd":"2009-4-27","nValidation":200,"tStart":"1990-01-01","shuffle":"true","nTrain":53316,"nTest":600}	0.13807692307692	0.55074023958291	14.36	MatrixFactBiModel	0.75166666666667	30	db/atp_database	200	600	80000	[]	__launches/22_May_2016_02:38:55_1.lua	true	1990-01-01	./results/tennis_atp	2060-01-01	2007-01-01	false
28	705	{"threshold":30,"db":"db/atp_database","nTest":600,"tStart":"1990-01-01","nValidation":200,"verbose":"false","shuffle":"true","option_file":"__launches/22_May_2016_02:38:55_1.lua","logPath":"./results/tennis_atp","Tmax":"2060-01-01","Tmin":"2007-01-01","nTrain":80000}	{"jSize":30,"learningRate":0.001,"nClasses":2,"batchSize":50,"alg":"adagrad","model":"MatrixFactBiModel","momentum":0,"initValues":0.1,"weightDecay":0,"learningRateDecay":0}	0.61862527716186	104	0.7677245104659	{"threshold":30,"dTrainStart":"2007-1-1","dTrainEnd":"2009-4-13","dTestEnd":"2009-4-20","dValidationEnd":"2009-4-27","nValidation":200,"tStart":"1990-01-01","shuffle":"true","nTrain":53316,"nTest":600}	0.15048076923077	0.54857519057048	15.65	MatrixFactBiModel	0.75166666666667	30	db/atp_database	200	600	80000	[]	__launches/22_May_2016_02:38:55_1.lua	true	1990-01-01	./results/tennis_atp	2060-01-01	2007-01-01	false
29	730	{"threshold":30,"db":"db/atp_database","nTest":600,"tStart":"1990-01-01","nValidation":200,"verbose":"false","shuffle":"true","option_file":"__launches/22_May_2016_02:38:55_1.lua","logPath":"./results/tennis_atp","Tmax":"2060-01-01","Tmin":"2007-01-01","nTrain":80000}	{"jSize":30,"learningRate":0.001,"nClasses":2,"batchSize":50,"alg":"adagrad","model":"MatrixFactBiModel","momentum":0,"initValues":0.1,"weightDecay":0,"learningRateDecay":0}	0.6119733924612	104	0.76838097381649	{"threshold":30,"dTrainStart":"2007-1-1","dTrainEnd":"2009-4-13","dTestEnd":"2009-4-20","dValidationEnd":"2009-4-27","nValidation":200,"tStart":"1990-01-01","shuffle":"true","nTrain":53316,"nTest":600}	0.14961538461538	0.54663310459247	15.56	MatrixFactBiModel	0.75166666666667	30	db/atp_database	200	600	80000	[]	__launches/22_May_2016_02:38:55_1.lua	true	1990-01-01	./results/tennis_atp	2060-01-01	2007-01-01	false
30	755	{"threshold":30,"db":"db/atp_database","nTest":600,"tStart":"1990-01-01","nValidation":200,"verbose":"false","shuffle":"true","option_file":"__launches/22_May_2016_02:38:55_1.lua","logPath":"./results/tennis_atp","Tmax":"2060-01-01","Tmin":"2007-01-01","nTrain":80000}	{"jSize":30,"learningRate":0.001,"nClasses":2,"batchSize":50,"alg":"adagrad","model":"MatrixFactBiModel","momentum":0,"initValues":0.1,"weightDecay":0,"learningRateDecay":0}	0.62084257206208	104	0.76954385175182	{"threshold":30,"dTrainStart":"2007-1-1","dTrainEnd":"2009-4-13","dTestEnd":"2009-4-20","dValidationEnd":"2009-4-27","nValidation":200,"tStart":"1990-01-01","shuffle":"true","nTrain":53316,"nTest":600}	0.15134615384615	0.54600851310627	15.74	MatrixFactBiModel	0.75166666666667	30	db/atp_database	200	600	80000	[]	__launches/22_May_2016_02:38:55_1.lua	true	1990-01-01	./results/tennis_atp	2060-01-01	2007-01-01	false
31	780	{"threshold":30,"db":"db/atp_database","nTest":600,"tStart":"1990-01-01","nValidation":200,"verbose":"false","shuffle":"true","option_file":"__launches/22_May_2016_02:38:55_1.lua","logPath":"./results/tennis_atp","Tmax":"2060-01-01","Tmin":"2007-01-01","nTrain":80000}	{"jSize":30,"learningRate":0.001,"nClasses":2,"batchSize":50,"alg":"adagrad","model":"MatrixFactBiModel","momentum":0,"initValues":0.1,"weightDecay":0,"learningRateDecay":0}	0.60975609756098	104	0.77235726611149	{"threshold":30,"dTrainStart":"2007-1-1","dTrainEnd":"2009-4-13","dTestEnd":"2009-4-20","dValidationEnd":"2009-4-27","nValidation":200,"tStart":"1990-01-01","shuffle":"true","nTrain":53316,"nTest":600}	0.13615384615385	0.54319699640712	14.16	MatrixFactBiModel	0.75166666666667	30	db/atp_database	200	600	80000	[]	__launches/22_May_2016_02:38:55_1.lua	true	1990-01-01	./results/tennis_atp	2060-01-01	2007-01-01	false
32	805	{"threshold":30,"db":"db/atp_database","nTest":600,"tStart":"1990-01-01","nValidation":200,"verbose":"false","shuffle":"true","option_file":"__launches/22_May_2016_02:38:55_1.lua","logPath":"./results/tennis_atp","Tmax":"2060-01-01","Tmin":"2007-01-01","nTrain":80000}	{"jSize":30,"learningRate":0.001,"nClasses":2,"batchSize":50,"alg":"adagrad","model":"MatrixFactBiModel","momentum":0,"initValues":0.1,"weightDecay":0,"learningRateDecay":0}	0.60753880266075	104	0.7719446320054	{"threshold":30,"dTrainStart":"2007-1-1","dTrainEnd":"2009-4-13","dTestEnd":"2009-4-20","dValidationEnd":"2009-4-27","nValidation":200,"tStart":"1990-01-01","shuffle":"true","nTrain":53316,"nTest":600}	0.11884615384615	0.5436102792677	12.36	MatrixFactBiModel	0.75166666666667	30	db/atp_database	200	600	80000	[]	__launches/22_May_2016_02:38:55_1.lua	true	1990-01-01	./results/tennis_atp	2060-01-01	2007-01-01	false
33	830	{"threshold":30,"db":"db/atp_database","nTest":600,"tStart":"1990-01-01","nValidation":200,"verbose":"false","shuffle":"true","option_file":"__launches/22_May_2016_02:38:55_1.lua","logPath":"./results/tennis_atp","Tmax":"2060-01-01","Tmin":"2007-01-01","nTrain":80000}	{"jSize":30,"learningRate":0.001,"nClasses":2,"batchSize":50,"alg":"adagrad","model":"MatrixFactBiModel","momentum":0,"initValues":0.1,"weightDecay":0,"learningRateDecay":0}	0.61862527716186	104	0.77541450971566	{"threshold":30,"dTrainStart":"2007-1-1","dTrainEnd":"2009-4-13","dTestEnd":"2009-4-20","dValidationEnd":"2009-4-27","nValidation":200,"tStart":"1990-01-01","shuffle":"true","nTrain":53316,"nTest":600}	0.14865384615385	0.54096086946372	15.46	MatrixFactBiModel	0.75166666666667	30	db/atp_database	200	600	80000	[]	__launches/22_May_2016_02:38:55_1.lua	true	1990-01-01	./results/tennis_atp	2060-01-01	2007-01-01	false
34	855	{"threshold":30,"db":"db/atp_database","nTest":600,"tStart":"1990-01-01","nValidation":200,"verbose":"false","shuffle":"true","option_file":"__launches/22_May_2016_02:38:55_1.lua","logPath":"./results/tennis_atp","Tmax":"2060-01-01","Tmin":"2007-01-01","nTrain":80000}	{"jSize":30,"learningRate":0.001,"nClasses":2,"batchSize":50,"alg":"adagrad","model":"MatrixFactBiModel","momentum":0,"initValues":0.1,"weightDecay":0,"learningRateDecay":0}	0.63192904656319	104	0.77552704629004	{"threshold":30,"dTrainStart":"2007-1-1","dTrainEnd":"2009-4-13","dTestEnd":"2009-4-20","dValidationEnd":"2009-4-27","nValidation":200,"tStart":"1990-01-01","shuffle":"true","nTrain":53316,"nTest":600}	0.12221153846154	0.54091230194664	12.71	MatrixFactBiModel	0.75166666666667	30	db/atp_database	200	600	80000	[]	__launches/22_May_2016_02:38:55_1.lua	true	1990-01-01	./results/tennis_atp	2060-01-01	2007-01-01	false
35	880	{"threshold":30,"db":"db/atp_database","nTest":600,"tStart":"1990-01-01","nValidation":200,"verbose":"false","shuffle":"true","option_file":"__launches/22_May_2016_02:38:55_1.lua","logPath":"./results/tennis_atp","Tmax":"2060-01-01","Tmin":"2007-01-01","nTrain":80000}	{"jSize":30,"learningRate":0.001,"nClasses":2,"batchSize":50,"alg":"adagrad","model":"MatrixFactBiModel","momentum":0,"initValues":0.1,"weightDecay":0,"learningRateDecay":0}	0.60532150776053	104	0.77781528996924	{"threshold":30,"dTrainStart":"2007-1-1","dTrainEnd":"2009-4-13","dTestEnd":"2009-4-20","dValidationEnd":"2009-4-27","nValidation":200,"tStart":"1990-01-01","shuffle":"true","nTrain":53316,"nTest":600}	0.11519230769231	0.53871307337084	11.98	MatrixFactBiModel	0.75166666666667	30	db/atp_database	200	600	80000	[]	__launches/22_May_2016_02:38:55_1.lua	true	1990-01-01	./results/tennis_atp	2060-01-01	2007-01-01	false
36	905	{"threshold":30,"db":"db/atp_database","nTest":600,"tStart":"1990-01-01","nValidation":200,"verbose":"false","shuffle":"true","option_file":"__launches/22_May_2016_02:38:55_1.lua","logPath":"./results/tennis_atp","Tmax":"2060-01-01","Tmin":"2007-01-01","nTrain":80000}	{"jSize":30,"learningRate":0.001,"nClasses":2,"batchSize":50,"alg":"adagrad","model":"MatrixFactBiModel","momentum":0,"initValues":0.1,"weightDecay":0,"learningRateDecay":0}	0.5920177383592	104	0.77744016805462	{"threshold":30,"dTrainStart":"2007-1-1","dTrainEnd":"2009-4-13","dTestEnd":"2009-4-20","dValidationEnd":"2009-4-27","nValidation":200,"tStart":"1990-01-01","shuffle":"true","nTrain":53316,"nTest":600}	0.079038461538462	0.53786498409362	8.22	MatrixFactBiModel	0.75166666666667	30	db/atp_database	200	600	80000	[]	__launches/22_May_2016_02:38:55_1.lua	true	1990-01-01	./results/tennis_atp	2060-01-01	2007-01-01	false
37	930	{"threshold":30,"db":"db/atp_database","nTest":600,"tStart":"1990-01-01","nValidation":200,"verbose":"false","shuffle":"true","option_file":"__launches/22_May_2016_02:38:55_1.lua","logPath":"./results/tennis_atp","Tmax":"2060-01-01","Tmin":"2007-01-01","nTrain":80000}	{"jSize":30,"learningRate":0.001,"nClasses":2,"batchSize":50,"alg":"adagrad","model":"MatrixFactBiModel","momentum":0,"initValues":0.1,"weightDecay":0,"learningRateDecay":0}	0.60532150776053	104	0.77687748518268	{"threshold":30,"dTrainStart":"2007-1-1","dTrainEnd":"2009-4-13","dTestEnd":"2009-4-20","dValidationEnd":"2009-4-27","nValidation":200,"tStart":"1990-01-01","shuffle":"true","nTrain":53316,"nTest":600}	0.15490384615385	0.53883105144911	16.11	MatrixFactBiModel	0.75166666666667	30	db/atp_database	200	600	80000	[]	__launches/22_May_2016_02:38:55_1.lua	true	1990-01-01	./results/tennis_atp	2060-01-01	2007-01-01	false
38	955	{"threshold":30,"db":"db/atp_database","nTest":600,"tStart":"1990-01-01","nValidation":200,"verbose":"false","shuffle":"true","option_file":"__launches/22_May_2016_02:38:55_1.lua","logPath":"./results/tennis_atp","Tmax":"2060-01-01","Tmin":"2007-01-01","nTrain":80000}	{"jSize":30,"learningRate":0.001,"nClasses":2,"batchSize":50,"alg":"adagrad","model":"MatrixFactBiModel","momentum":0,"initValues":0.1,"weightDecay":0,"learningRateDecay":0}	0.61862527716186	104	0.77695250956561	{"threshold":30,"dTrainStart":"2007-1-1","dTrainEnd":"2009-4-13","dTestEnd":"2009-4-20","dValidationEnd":"2009-4-27","nValidation":200,"tStart":"1990-01-01","shuffle":"true","nTrain":53316,"nTest":600}	0.15057692307692	0.53831538314399	15.66	MatrixFactBiModel	0.75166666666667	30	db/atp_database	200	600	80000	[]	__launches/22_May_2016_02:38:55_1.lua	true	1990-01-01	./results/tennis_atp	2060-01-01	2007-01-01	false
39	980	{"threshold":30,"db":"db/atp_database","nTest":600,"tStart":"1990-01-01","nValidation":200,"verbose":"false","shuffle":"true","option_file":"__launches/22_May_2016_02:38:55_1.lua","logPath":"./results/tennis_atp","Tmax":"2060-01-01","Tmin":"2007-01-01","nTrain":80000}	{"jSize":30,"learningRate":0.001,"nClasses":2,"batchSize":50,"alg":"adagrad","model":"MatrixFactBiModel","momentum":0,"initValues":0.1,"weightDecay":0,"learningRateDecay":0}	0.60753880266075	104	0.77894065571311	{"threshold":30,"dTrainStart":"2007-1-1","dTrainEnd":"2009-4-13","dTestEnd":"2009-4-20","dValidationEnd":"2009-4-27","nValidation":200,"tStart":"1990-01-01","shuffle":"true","nTrain":53316,"nTest":600}	0.090384615384616	0.53683008276966	9.4	MatrixFactBiModel	0.75166666666667	30	db/atp_database	200	600	80000	[]	__launches/22_May_2016_02:38:55_1.lua	true	1990-01-01	./results/tennis_atp	2060-01-01	2007-01-01	false
40	1005	{"threshold":30,"db":"db/atp_database","nTest":600,"tStart":"1990-01-01","nValidation":200,"verbose":"false","shuffle":"true","option_file":"__launches/22_May_2016_02:38:55_1.lua","logPath":"./results/tennis_atp","Tmax":"2060-01-01","Tmin":"2007-01-01","nTrain":80000}	{"jSize":30,"learningRate":0.001,"nClasses":2,"batchSize":50,"alg":"adagrad","model":"MatrixFactBiModel","momentum":0,"initValues":0.1,"weightDecay":0,"learningRateDecay":0}	0.59866962305987	104	0.77948458248931	{"threshold":30,"dTrainStart":"2007-1-1","dTrainEnd":"2009-4-13","dTestEnd":"2009-4-20","dValidationEnd":"2009-4-27","nValidation":200,"tStart":"1990-01-01","shuffle":"true","nTrain":53316,"nTest":600}	0.077980769230769	0.53689638964851	8.11	MatrixFactBiModel	0.75166666666667	30	db/atp_database	200	600	80000	[]	__launches/22_May_2016_02:38:55_1.lua	true	1990-01-01	./results/tennis_atp	2060-01-01	2007-01-01	false
41	1030	{"threshold":30,"db":"db/atp_database","nTest":600,"tStart":"1990-01-01","nValidation":200,"verbose":"false","shuffle":"true","option_file":"__launches/22_May_2016_02:38:55_1.lua","logPath":"./results/tennis_atp","Tmax":"2060-01-01","Tmin":"2007-01-01","nTrain":80000}	{"jSize":30,"learningRate":0.001,"nClasses":2,"batchSize":50,"alg":"adagrad","model":"MatrixFactBiModel","momentum":0,"initValues":0.1,"weightDecay":0,"learningRateDecay":0}	0.60753880266075	104	0.78166028959412	{"threshold":30,"dTrainStart":"2007-1-1","dTrainEnd":"2009-4-13","dTestEnd":"2009-4-20","dValidationEnd":"2009-4-27","nValidation":200,"tStart":"1990-01-01","shuffle":"true","nTrain":53316,"nTest":600}	0.14721153846154	0.53372129460957	15.31	MatrixFactBiModel	0.75166666666667	30	db/atp_database	200	600	80000	[]	__launches/22_May_2016_02:38:55_1.lua	true	1990-01-01	./results/tennis_atp	2060-01-01	2007-01-01	false
42	1055	{"threshold":30,"db":"db/atp_database","nTest":600,"tStart":"1990-01-01","nValidation":200,"verbose":"false","shuffle":"true","option_file":"__launches/22_May_2016_02:38:55_1.lua","logPath":"./results/tennis_atp","Tmax":"2060-01-01","Tmin":"2007-01-01","nTrain":80000}	{"jSize":30,"learningRate":0.001,"nClasses":2,"batchSize":50,"alg":"adagrad","model":"MatrixFactBiModel","momentum":0,"initValues":0.1,"weightDecay":0,"learningRateDecay":0}	0.60088691796009	104	0.78233550904044	{"threshold":30,"dTrainStart":"2007-1-1","dTrainEnd":"2009-4-13","dTestEnd":"2009-4-20","dValidationEnd":"2009-4-27","nValidation":200,"tStart":"1990-01-01","shuffle":"true","nTrain":53316,"nTest":600}	0.1025	0.53298455659973	10.66	MatrixFactBiModel	0.75166666666667	30	db/atp_database	200	600	80000	[]	__launches/22_May_2016_02:38:55_1.lua	true	1990-01-01	./results/tennis_atp	2060-01-01	2007-01-01	false
43	1080	{"threshold":30,"db":"db/atp_database","nTest":600,"tStart":"1990-01-01","nValidation":200,"verbose":"false","shuffle":"true","option_file":"__launches/22_May_2016_02:38:55_1.lua","logPath":"./results/tennis_atp","Tmax":"2060-01-01","Tmin":"2007-01-01","nTrain":80000}	{"jSize":30,"learningRate":0.001,"nClasses":2,"batchSize":50,"alg":"adagrad","model":"MatrixFactBiModel","momentum":0,"initValues":0.1,"weightDecay":0,"learningRateDecay":0}	0.61640798226164	104	0.78242928951909	{"threshold":30,"dTrainStart":"2007-1-1","dTrainEnd":"2009-4-13","dTestEnd":"2009-4-20","dValidationEnd":"2009-4-27","nValidation":200,"tStart":"1990-01-01","shuffle":"true","nTrain":53316,"nTest":600}	0.16413461538462	0.53247608356532	17.07	MatrixFactBiModel	0.75166666666667	30	db/atp_database	200	600	80000	[]	__launches/22_May_2016_02:38:55_1.lua	true	1990-01-01	./results/tennis_atp	2060-01-01	2007-01-01	false
44	1105	{"threshold":30,"db":"db/atp_database","nTest":600,"tStart":"1990-01-01","nValidation":200,"verbose":"false","shuffle":"true","option_file":"__launches/22_May_2016_02:38:55_1.lua","logPath":"./results/tennis_atp","Tmax":"2060-01-01","Tmin":"2007-01-01","nTrain":80000}	{"jSize":30,"learningRate":0.001,"nClasses":2,"batchSize":50,"alg":"adagrad","model":"MatrixFactBiModel","momentum":0,"initValues":0.1,"weightDecay":0,"learningRateDecay":0}	0.60532150776053	104	0.78250431390202	{"threshold":30,"dTrainStart":"2007-1-1","dTrainEnd":"2009-4-13","dTestEnd":"2009-4-20","dValidationEnd":"2009-4-27","nValidation":200,"tStart":"1990-01-01","shuffle":"true","nTrain":53316,"nTest":600}	0.13932692307692	0.53265628000498	14.49	MatrixFactBiModel	0.75166666666667	30	db/atp_database	200	600	80000	[]	__launches/22_May_2016_02:38:55_1.lua	true	1990-01-01	./results/tennis_atp	2060-01-01	2007-01-01	false
45	1130	{"threshold":30,"db":"db/atp_database","nTest":600,"tStart":"1990-01-01","nValidation":200,"verbose":"false","shuffle":"true","option_file":"__launches/22_May_2016_02:38:55_1.lua","logPath":"./results/tennis_atp","Tmax":"2060-01-01","Tmin":"2007-01-01","nTrain":80000}	{"jSize":30,"learningRate":0.001,"nClasses":2,"batchSize":50,"alg":"adagrad","model":"MatrixFactBiModel","momentum":0,"initValues":0.1,"weightDecay":0,"learningRateDecay":0}	0.59866962305987	104	0.78456748443244	{"threshold":30,"dTrainStart":"2007-1-1","dTrainEnd":"2009-4-13","dTestEnd":"2009-4-20","dValidationEnd":"2009-4-27","nValidation":200,"tStart":"1990-01-01","shuffle":"true","nTrain":53316,"nTest":600}	0.12	0.53190938429739	12.48	MatrixFactBiModel	0.75166666666667	30	db/atp_database	200	600	80000	[]	__launches/22_May_2016_02:38:55_1.lua	true	1990-01-01	./results/tennis_atp	2060-01-01	2007-01-01	false
46	1155	{"threshold":30,"db":"db/atp_database","nTest":600,"tStart":"1990-01-01","nValidation":200,"verbose":"false","shuffle":"true","option_file":"__launches/22_May_2016_02:38:55_1.lua","logPath":"./results/tennis_atp","Tmax":"2060-01-01","Tmin":"2007-01-01","nTrain":80000}	{"jSize":30,"learningRate":0.001,"nClasses":2,"batchSize":50,"alg":"adagrad","model":"MatrixFactBiModel","momentum":0,"initValues":0.1,"weightDecay":0,"learningRateDecay":0}	0.60753880266075	104	0.78477380148548	{"threshold":30,"dTrainStart":"2007-1-1","dTrainEnd":"2009-4-13","dTestEnd":"2009-4-20","dValidationEnd":"2009-4-27","nValidation":200,"tStart":"1990-01-01","shuffle":"true","nTrain":53316,"nTest":600}	0.13846153846154	0.53074631848719	14.4	MatrixFactBiModel	0.75166666666667	30	db/atp_database	200	600	80000	[]	__launches/22_May_2016_02:38:55_1.lua	true	1990-01-01	./results/tennis_atp	2060-01-01	2007-01-01	false
47	1180	{"threshold":30,"db":"db/atp_database","nTest":600,"tStart":"1990-01-01","nValidation":200,"verbose":"false","shuffle":"true","option_file":"__launches/22_May_2016_02:38:55_1.lua","logPath":"./results/tennis_atp","Tmax":"2060-01-01","Tmin":"2007-01-01","nTrain":80000}	{"jSize":30,"learningRate":0.001,"nClasses":2,"batchSize":50,"alg":"adagrad","model":"MatrixFactBiModel","momentum":0,"initValues":0.1,"weightDecay":0,"learningRateDecay":0}	0.60532150776053	104	0.78492385025133	{"threshold":30,"dTrainStart":"2007-1-1","dTrainEnd":"2009-4-13","dTestEnd":"2009-4-20","dValidationEnd":"2009-4-27","nValidation":200,"tStart":"1990-01-01","shuffle":"true","nTrain":53316,"nTest":600}	0.12028846153846	0.52984263502157	12.51	MatrixFactBiModel	0.75166666666667	30	db/atp_database	200	600	80000	[]	__launches/22_May_2016_02:38:55_1.lua	true	1990-01-01	./results/tennis_atp	2060-01-01	2007-01-01	false
48	1205	{"threshold":30,"db":"db/atp_database","nTest":600,"tStart":"1990-01-01","nValidation":200,"verbose":"false","shuffle":"true","option_file":"__launches/22_May_2016_02:38:55_1.lua","logPath":"./results/tennis_atp","Tmax":"2060-01-01","Tmin":"2007-01-01","nTrain":80000}	{"jSize":30,"learningRate":0.001,"nClasses":2,"batchSize":50,"alg":"adagrad","model":"MatrixFactBiModel","momentum":0,"initValues":0.1,"weightDecay":0,"learningRateDecay":0}	0.60532150776053	104	0.78554280141046	{"threshold":30,"dTrainStart":"2007-1-1","dTrainEnd":"2009-4-13","dTestEnd":"2009-4-20","dValidationEnd":"2009-4-27","nValidation":200,"tStart":"1990-01-01","shuffle":"true","nTrain":53316,"nTest":600}	0.10048076923077	0.52905722999822	10.45	MatrixFactBiModel	0.75166666666667	30	db/atp_database	200	600	80000	[]	__launches/22_May_2016_02:38:55_1.lua	true	1990-01-01	./results/tennis_atp	2060-01-01	2007-01-01	false
49	1230	{"threshold":30,"db":"db/atp_database","nTest":600,"tStart":"1990-01-01","nValidation":200,"verbose":"false","shuffle":"true","option_file":"__launches/22_May_2016_02:38:55_1.lua","logPath":"./results/tennis_atp","Tmax":"2060-01-01","Tmin":"2007-01-01","nTrain":80000}	{"jSize":30,"learningRate":0.001,"nClasses":2,"batchSize":50,"alg":"adagrad","model":"MatrixFactBiModel","momentum":0,"initValues":0.1,"weightDecay":0,"learningRateDecay":0}	0.6119733924612	104	0.78739965488784	{"threshold":30,"dTrainStart":"2007-1-1","dTrainEnd":"2009-4-13","dTestEnd":"2009-4-20","dValidationEnd":"2009-4-27","nValidation":200,"tStart":"1990-01-01","shuffle":"true","nTrain":53316,"nTest":600}	0.13471153846154	0.52908827836484	14.01	MatrixFactBiModel	0.75166666666667	30	db/atp_database	200	600	80000	[]	__launches/22_May_2016_02:38:55_1.lua	true	1990-01-01	./results/tennis_atp	2060-01-01	2007-01-01	false
50	1255	{"threshold":30,"db":"db/atp_database","nTest":600,"tStart":"1990-01-01","nValidation":200,"verbose":"false","shuffle":"true","option_file":"__launches/22_May_2016_02:38:55_1.lua","logPath":"./results/tennis_atp","Tmax":"2060-01-01","Tmin":"2007-01-01","nTrain":80000}	{"jSize":30,"learningRate":0.001,"nClasses":2,"batchSize":50,"alg":"adagrad","model":"MatrixFactBiModel","momentum":0,"initValues":0.1,"weightDecay":0,"learningRateDecay":0}	0.60088691796009	104	0.78724960612199	{"threshold":30,"dTrainStart":"2007-1-1","dTrainEnd":"2009-4-13","dTestEnd":"2009-4-20","dValidationEnd":"2009-4-27","nValidation":200,"tStart":"1990-01-01","shuffle":"true","nTrain":53316,"nTest":600}	0.1175	0.52693125578727	12.22	MatrixFactBiModel	0.75166666666667	30	db/atp_database	200	600	80000	[]	__launches/22_May_2016_02:38:55_1.lua	true	1990-01-01	./results/tennis_atp	2060-01-01	2007-01-01	false
51	1280	{"threshold":30,"db":"db/atp_database","nTest":600,"tStart":"1990-01-01","nValidation":200,"verbose":"false","shuffle":"true","option_file":"__launches/22_May_2016_02:38:55_1.lua","logPath":"./results/tennis_atp","Tmax":"2060-01-01","Tmin":"2007-01-01","nTrain":80000}	{"jSize":30,"learningRate":0.001,"nClasses":2,"batchSize":50,"alg":"adagrad","model":"MatrixFactBiModel","momentum":0,"initValues":0.1,"weightDecay":0,"learningRateDecay":0}	0.59866962305987	104	0.78816865481281	{"threshold":30,"dTrainStart":"2007-1-1","dTrainEnd":"2009-4-13","dTestEnd":"2009-4-20","dValidationEnd":"2009-4-27","nValidation":200,"tStart":"1990-01-01","shuffle":"true","nTrain":53316,"nTest":600}	0.0925	0.52744230763202	9.62	MatrixFactBiModel	0.75166666666667	30	db/atp_database	200	600	80000	[]	__launches/22_May_2016_02:38:55_1.lua	true	1990-01-01	./results/tennis_atp	2060-01-01	2007-01-01	false
52	1305	{"threshold":30,"db":"db/atp_database","nTest":600,"tStart":"1990-01-01","nValidation":200,"verbose":"false","shuffle":"true","option_file":"__launches/22_May_2016_02:38:55_1.lua","logPath":"./results/tennis_atp","Tmax":"2060-01-01","Tmin":"2007-01-01","nTrain":80000}	{"jSize":30,"learningRate":0.001,"nClasses":2,"batchSize":50,"alg":"adagrad","model":"MatrixFactBiModel","momentum":0,"initValues":0.1,"weightDecay":0,"learningRateDecay":0}	0.60532150776053	104	0.78951909370545	{"threshold":30,"dTrainStart":"2007-1-1","dTrainEnd":"2009-4-13","dTestEnd":"2009-4-20","dValidationEnd":"2009-4-27","nValidation":200,"tStart":"1990-01-01","shuffle":"true","nTrain":53316,"nTest":600}	0.14884615384615	0.52599412423248	15.48	MatrixFactBiModel	0.75166666666667	30	db/atp_database	200	600	80000	[]	__launches/22_May_2016_02:38:55_1.lua	true	1990-01-01	./results/tennis_atp	2060-01-01	2007-01-01	false
53	1330	{"threshold":30,"db":"db/atp_database","nTest":600,"tStart":"1990-01-01","nValidation":200,"verbose":"false","shuffle":"true","option_file":"__launches/22_May_2016_02:38:55_1.lua","logPath":"./results/tennis_atp","Tmax":"2060-01-01","Tmin":"2007-01-01","nTrain":80000}	{"jSize":30,"learningRate":0.001,"nClasses":2,"batchSize":50,"alg":"adagrad","model":"MatrixFactBiModel","momentum":0,"initValues":0.1,"weightDecay":0,"learningRateDecay":0}	0.59645232815965	104	0.78957536199265	{"threshold":30,"dTrainStart":"2007-1-1","dTrainEnd":"2009-4-13","dTestEnd":"2009-4-20","dValidationEnd":"2009-4-27","nValidation":200,"tStart":"1990-01-01","shuffle":"true","nTrain":53316,"nTest":600}	0.15163461538462	0.52604020087768	15.77	MatrixFactBiModel	0.75166666666667	30	db/atp_database	200	600	80000	[]	__launches/22_May_2016_02:38:55_1.lua	true	1990-01-01	./results/tennis_atp	2060-01-01	2007-01-01	false
54	1355	{"threshold":30,"db":"db/atp_database","nTest":600,"tStart":"1990-01-01","nValidation":200,"verbose":"false","shuffle":"true","option_file":"__launches/22_May_2016_02:38:55_1.lua","logPath":"./results/tennis_atp","Tmax":"2060-01-01","Tmin":"2007-01-01","nTrain":80000}	{"jSize":30,"learningRate":0.001,"nClasses":2,"batchSize":50,"alg":"adagrad","model":"MatrixFactBiModel","momentum":0,"initValues":0.1,"weightDecay":0,"learningRateDecay":0}	0.59866962305987	104	0.79025058143897	{"threshold":30,"dTrainStart":"2007-1-1","dTrainEnd":"2009-4-13","dTestEnd":"2009-4-20","dValidationEnd":"2009-4-27","nValidation":200,"tStart":"1990-01-01","shuffle":"true","nTrain":53316,"nTest":600}	0.11182692307692	0.52446593242557	11.63	MatrixFactBiModel	0.75166666666667	30	db/atp_database	200	600	80000	[]	__launches/22_May_2016_02:38:55_1.lua	true	1990-01-01	./results/tennis_atp	2060-01-01	2007-01-01	false
55	1380	{"threshold":30,"db":"db/atp_database","nTest":600,"tStart":"1990-01-01","nValidation":200,"verbose":"false","shuffle":"true","option_file":"__launches/22_May_2016_02:38:55_1.lua","logPath":"./results/tennis_atp","Tmax":"2060-01-01","Tmin":"2007-01-01","nTrain":80000}	{"jSize":30,"learningRate":0.001,"nClasses":2,"batchSize":50,"alg":"adagrad","model":"MatrixFactBiModel","momentum":0,"initValues":0.1,"weightDecay":0,"learningRateDecay":0}	0.58980044345898	104	0.79118838622552	{"threshold":30,"dTrainStart":"2007-1-1","dTrainEnd":"2009-4-13","dTestEnd":"2009-4-20","dValidationEnd":"2009-4-27","nValidation":200,"tStart":"1990-01-01","shuffle":"true","nTrain":53316,"nTest":600}	0.094615384615385	0.52346967948451	9.84	MatrixFactBiModel	0.75166666666667	30	db/atp_database	200	600	80000	[]	__launches/22_May_2016_02:38:55_1.lua	true	1990-01-01	./results/tennis_atp	2060-01-01	2007-01-01	false
56	1405	{"threshold":30,"db":"db/atp_database","nTest":600,"tStart":"1990-01-01","nValidation":200,"verbose":"false","shuffle":"true","option_file":"__launches/22_May_2016_02:38:55_1.lua","logPath":"./results/tennis_atp","Tmax":"2060-01-01","Tmin":"2007-01-01","nTrain":80000}	{"jSize":30,"learningRate":0.001,"nClasses":2,"batchSize":50,"alg":"adagrad","model":"MatrixFactBiModel","momentum":0,"initValues":0.1,"weightDecay":0,"learningRateDecay":0}	0.60310421286031	104	0.79267011778828	{"threshold":30,"dTrainStart":"2007-1-1","dTrainEnd":"2009-4-13","dTestEnd":"2009-4-20","dValidationEnd":"2009-4-27","nValidation":200,"tStart":"1990-01-01","shuffle":"true","nTrain":53316,"nTest":600}	0.10798076923077	0.52334267448676	11.23	MatrixFactBiModel	0.75166666666667	30	db/atp_database	200	600	80000	[]	__launches/22_May_2016_02:38:55_1.lua	true	1990-01-01	./results/tennis_atp	2060-01-01	2007-01-01	false
57	1430	{"threshold":30,"db":"db/atp_database","nTest":600,"tStart":"1990-01-01","nValidation":200,"verbose":"false","shuffle":"true","option_file":"__launches/22_May_2016_02:38:55_1.lua","logPath":"./results/tennis_atp","Tmax":"2060-01-01","Tmin":"2007-01-01","nTrain":80000}	{"jSize":30,"learningRate":0.001,"nClasses":2,"batchSize":50,"alg":"adagrad","model":"MatrixFactBiModel","momentum":0,"initValues":0.1,"weightDecay":0,"learningRateDecay":0}	0.58758314855876	104	0.79297021531998	{"threshold":30,"dTrainStart":"2007-1-1","dTrainEnd":"2009-4-13","dTestEnd":"2009-4-20","dValidationEnd":"2009-4-27","nValidation":200,"tStart":"1990-01-01","shuffle":"true","nTrain":53316,"nTest":600}	0.093365384615385	0.52202695357081	9.7100000000001	MatrixFactBiModel	0.75166666666667	30	db/atp_database	200	600	80000	[]	__launches/22_May_2016_02:38:55_1.lua	true	1990-01-01	./results/tennis_atp	2060-01-01	2007-01-01	false
58	1455	{"threshold":30,"db":"db/atp_database","nTest":600,"tStart":"1990-01-01","nValidation":200,"verbose":"false","shuffle":"true","option_file":"__launches/22_May_2016_02:38:55_1.lua","logPath":"./results/tennis_atp","Tmax":"2060-01-01","Tmin":"2007-01-01","nTrain":80000}	{"jSize":30,"learningRate":0.001,"nClasses":2,"batchSize":50,"alg":"adagrad","model":"MatrixFactBiModel","momentum":0,"initValues":0.1,"weightDecay":0,"learningRateDecay":0}	0.5920177383592	104	0.79317653237302	{"threshold":30,"dTrainStart":"2007-1-1","dTrainEnd":"2009-4-13","dTestEnd":"2009-4-20","dValidationEnd":"2009-4-27","nValidation":200,"tStart":"1990-01-01","shuffle":"true","nTrain":53316,"nTest":600}	0.11076923076923	0.52309994495217	11.52	MatrixFactBiModel	0.75166666666667	30	db/atp_database	200	600	80000	[]	__launches/22_May_2016_02:38:55_1.lua	true	1990-01-01	./results/tennis_atp	2060-01-01	2007-01-01	false
