iteration	kellyBetNumber	probBetNumber	naiveBank	trainPrecision	naiveBetNumber	model	kellyBank	epoch	opt	modconfig	testRatio	TFconfig	testPrecision	kellyROI	naiveROI	probROI	probBank	threshold	db	nValidation	nTest	nTrain	log	option_file	shuffle	tStart	logPath	Tmax	Tmin	verbose
0	0	0	-0.60999999999997	0.63102048022599	79	RankingModel	0	1	{"threshold":30,"db":"db/atp_database","nTest":500,"tStart":"1990-01-01","nValidation":200,"verbose":"false","shuffle":"true","option_file":"__launches/22_May_2016_02:38:07_1.lua","logPath":"./results/tennis_atp","Tmax":"2060-01-01","Tmin":"2005-01-01","nTrain":80000}	{"stepEpoch":1,"module_name":"RankingModel","nClasses":2,"maxEpoch":3}	0.65	{"threshold":30,"dTrainStart":"2005-1-10","dTrainEnd":"2007-6-11","dTestEnd":"2007-6-11","dValidationEnd":"2007-6-11","nValidation":200,"tStart":"1990-01-01","shuffle":"true","nTrain":56640,"nTest":500}	0.62153846153846	0	-0.0077215189873414	0	0	30	db/atp_database	200	500	80000	[]	__launches/22_May_2016_02:38:07_1.lua	true	1990-01-01	./results/tennis_atp	2060-01-01	2005-01-01	false
1	0	0	-0.60999999999997	0.63102048022599	79	RankingModel	0	2	{"threshold":30,"db":"db/atp_database","nTest":500,"tStart":"1990-01-01","nValidation":200,"verbose":"false","shuffle":"true","option_file":"__launches/22_May_2016_02:38:07_1.lua","logPath":"./results/tennis_atp","Tmax":"2060-01-01","Tmin":"2005-01-01","nTrain":80000}	{"stepEpoch":1,"module_name":"RankingModel","nClasses":2,"maxEpoch":3}	0.65	{"threshold":30,"dTrainStart":"2005-1-10","dTrainEnd":"2007-6-11","dTestEnd":"2007-6-11","dValidationEnd":"2007-6-11","nValidation":200,"tStart":"1990-01-01","shuffle":"true","nTrain":56640,"nTest":500}	0.62153846153846	0	-0.0077215189873414	0	0	30	db/atp_database	200	500	80000	[]	__launches/22_May_2016_02:38:07_1.lua	true	1990-01-01	./results/tennis_atp	2060-01-01	2005-01-01	false
