iteration	kellyBetNumber	probBetNumber	naiveBank	trainPrecision	naiveBetNumber	model	kellyBank	epoch	opt	modconfig	testRatio	TFconfig	testPrecision	kellyROI	naiveROI	probROI	probBank	threshold	db	nValidation	nTest	nTrain	log	option_file	shuffle	tStart	logPath	Tmax	Tmin	verbose
0	0	0	-5.73	0.6451973547079	43	RankingModel	0	1	{"threshold":30,"db":"db/atp_database","nTest":500,"tStart":"1990-01-01","nValidation":200,"verbose":"false","shuffle":"true","option_file":"__launches/22_May_2016_02:38:17_1.lua","logPath":"./results/tennis_atp","Tmax":"2060-01-01","Tmin":"2009-01-01","nTrain":80000}	{"stepEpoch":1,"module_name":"RankingModel","nClasses":2,"maxEpoch":3}	0.528	{"threshold":30,"dTrainStart":"2009-1-12","dTrainEnd":"2011-5-16","dTestEnd":"2011-5-16","dValidationEnd":"2011-5-2","nValidation":200,"tStart":"1990-01-01","shuffle":"true","nTrain":52773,"nTest":500}	0.60606060606061	0	-0.13325581395349	0	0	30	db/atp_database	200	500	80000	[]	__launches/22_May_2016_02:38:17_1.lua	true	1990-01-01	./results/tennis_atp	2060-01-01	2009-01-01	false
1	0	0	-5.73	0.6451973547079	43	RankingModel	0	2	{"threshold":30,"db":"db/atp_database","nTest":500,"tStart":"1990-01-01","nValidation":200,"verbose":"false","shuffle":"true","option_file":"__launches/22_May_2016_02:38:17_1.lua","logPath":"./results/tennis_atp","Tmax":"2060-01-01","Tmin":"2009-01-01","nTrain":80000}	{"stepEpoch":1,"module_name":"RankingModel","nClasses":2,"maxEpoch":3}	0.528	{"threshold":30,"dTrainStart":"2009-1-12","dTrainEnd":"2011-5-16","dTestEnd":"2011-5-16","dValidationEnd":"2011-5-2","nValidation":200,"tStart":"1990-01-01","shuffle":"true","nTrain":52773,"nTest":500}	0.60606060606061	0	-0.13325581395349	0	0	30	db/atp_database	200	500	80000	[]	__launches/22_May_2016_02:38:17_1.lua	true	1990-01-01	./results/tennis_atp	2060-01-01	2009-01-01	false
